** Profile: "SCHEMATIC1-Fujiwara_Ryo_kadai2"  [ Q:\OrcadLite\Capture\Circuit\Fujiwara_Ryo_kadai2-PSpiceFiles\SCHEMATIC1\Fujiwara_Ryo_kadai2.sim ] 

** Creating circuit file "Fujiwara_Ryo_kadai2.cir" 
** WARNING: THIS AUTOMATICALLY GENERATED FILE MAY BE OVERWRITTEN BY SUBSEQUENT SIMULATIONS

*Libraries: 
* Profile Libraries :
* Local Libraries :
* From [PSPICE NETLIST] section of Q:\cdssetup\OrCAD_PSpice/16.6.0/PSpice.ini file:
.lib "nom.lib" 

*Analysis directives: 
.TRAN  0 500us 0 
.OPTIONS ADVCONV
.PROBE64 V(alias(*)) I(alias(*)) W(alias(*)) D(alias(*)) NOISE(alias(*)) 
.INC "..\SCHEMATIC1.net" 


.END
