%!PS-Adobe-2.0 EPSF-2.0
%%Title: fx.eps
%%Creator: gnuplot 4.6 patchlevel 4
%%CreationDate: Fri Jun  5 17:38:16 2015
%%DocumentFonts: (atend)
%%BoundingBox: 50 50 410 302
%%EndComments
%%BeginProlog
/gnudict 256 dict def
gnudict begin
%
% The following true/false flags may be edited by hand if desired.
% The unit line width and grayscale image gamma correction may also be changed.
%
/Color true def
/Blacktext false def
/Solid false def
/Dashlength 1 def
/Landscape false def
/Level1 false def
/Rounded false def
/ClipToBoundingBox false def
/SuppressPDFMark false def
/TransparentPatterns false def
/gnulinewidth 5.000 def
/userlinewidth gnulinewidth def
/Gamma 1.0 def
/BackgroundColor {-1.000 -1.000 -1.000} def
%
/vshift -46 def
/dl1 {
  10.0 Dashlength mul mul
  Rounded { currentlinewidth 0.75 mul sub dup 0 le { pop 0.01 } if } if
} def
/dl2 {
  10.0 Dashlength mul mul
  Rounded { currentlinewidth 0.75 mul add } if
} def
/hpt_ 31.5 def
/vpt_ 31.5 def
/hpt hpt_ def
/vpt vpt_ def
/doclip {
  ClipToBoundingBox {
    newpath 50 50 moveto 410 50 lineto 410 302 lineto 50 302 lineto closepath
    clip
  } if
} def
%
% Gnuplot Prolog Version 4.6 (September 2012)
%
%/SuppressPDFMark true def
%
/M {moveto} bind def
/L {lineto} bind def
/R {rmoveto} bind def
/V {rlineto} bind def
/N {newpath moveto} bind def
/Z {closepath} bind def
/C {setrgbcolor} bind def
/f {rlineto fill} bind def
/g {setgray} bind def
/Gshow {show} def   % May be redefined later in the file to support UTF-8
/vpt2 vpt 2 mul def
/hpt2 hpt 2 mul def
/Lshow {currentpoint stroke M 0 vshift R 
	Blacktext {gsave 0 setgray show grestore} {show} ifelse} def
/Rshow {currentpoint stroke M dup stringwidth pop neg vshift R
	Blacktext {gsave 0 setgray show grestore} {show} ifelse} def
/Cshow {currentpoint stroke M dup stringwidth pop -2 div vshift R 
	Blacktext {gsave 0 setgray show grestore} {show} ifelse} def
/UP {dup vpt_ mul /vpt exch def hpt_ mul /hpt exch def
  /hpt2 hpt 2 mul def /vpt2 vpt 2 mul def} def
/DL {Color {setrgbcolor Solid {pop []} if 0 setdash}
 {pop pop pop 0 setgray Solid {pop []} if 0 setdash} ifelse} def
/BL {stroke userlinewidth 2 mul setlinewidth
	Rounded {1 setlinejoin 1 setlinecap} if} def
/AL {stroke userlinewidth 2 div setlinewidth
	Rounded {1 setlinejoin 1 setlinecap} if} def
/UL {dup gnulinewidth mul /userlinewidth exch def
	dup 1 lt {pop 1} if 10 mul /udl exch def} def
/PL {stroke userlinewidth setlinewidth
	Rounded {1 setlinejoin 1 setlinecap} if} def
3.8 setmiterlimit
% Default Line colors
/LCw {1 1 1} def
/LCb {0 0 0} def
/LCa {0 0 0} def
/LC0 {1 0 0} def
/LC1 {0 1 0} def
/LC2 {0 0 1} def
/LC3 {1 0 1} def
/LC4 {0 1 1} def
/LC5 {1 1 0} def
/LC6 {0 0 0} def
/LC7 {1 0.3 0} def
/LC8 {0.5 0.5 0.5} def
% Default Line Types
/LTw {PL [] 1 setgray} def
/LTb {BL [] LCb DL} def
/LTa {AL [1 udl mul 2 udl mul] 0 setdash LCa setrgbcolor} def
/LT0 {PL [] LC0 DL} def
/LT1 {PL [4 dl1 2 dl2] LC1 DL} def
/LT2 {PL [2 dl1 3 dl2] LC2 DL} def
/LT3 {PL [1 dl1 1.5 dl2] LC3 DL} def
/LT4 {PL [6 dl1 2 dl2 1 dl1 2 dl2] LC4 DL} def
/LT5 {PL [3 dl1 3 dl2 1 dl1 3 dl2] LC5 DL} def
/LT6 {PL [2 dl1 2 dl2 2 dl1 6 dl2] LC6 DL} def
/LT7 {PL [1 dl1 2 dl2 6 dl1 2 dl2 1 dl1 2 dl2] LC7 DL} def
/LT8 {PL [2 dl1 2 dl2 2 dl1 2 dl2 2 dl1 2 dl2 2 dl1 4 dl2] LC8 DL} def
/Pnt {stroke [] 0 setdash gsave 1 setlinecap M 0 0 V stroke grestore} def
/Dia {stroke [] 0 setdash 2 copy vpt add M
  hpt neg vpt neg V hpt vpt neg V
  hpt vpt V hpt neg vpt V closepath stroke
  Pnt} def
/Pls {stroke [] 0 setdash vpt sub M 0 vpt2 V
  currentpoint stroke M
  hpt neg vpt neg R hpt2 0 V stroke
 } def
/Box {stroke [] 0 setdash 2 copy exch hpt sub exch vpt add M
  0 vpt2 neg V hpt2 0 V 0 vpt2 V
  hpt2 neg 0 V closepath stroke
  Pnt} def
/Crs {stroke [] 0 setdash exch hpt sub exch vpt add M
  hpt2 vpt2 neg V currentpoint stroke M
  hpt2 neg 0 R hpt2 vpt2 V stroke} def
/TriU {stroke [] 0 setdash 2 copy vpt 1.12 mul add M
  hpt neg vpt -1.62 mul V
  hpt 2 mul 0 V
  hpt neg vpt 1.62 mul V closepath stroke
  Pnt} def
/Star {2 copy Pls Crs} def
/BoxF {stroke [] 0 setdash exch hpt sub exch vpt add M
  0 vpt2 neg V hpt2 0 V 0 vpt2 V
  hpt2 neg 0 V closepath fill} def
/TriUF {stroke [] 0 setdash vpt 1.12 mul add M
  hpt neg vpt -1.62 mul V
  hpt 2 mul 0 V
  hpt neg vpt 1.62 mul V closepath fill} def
/TriD {stroke [] 0 setdash 2 copy vpt 1.12 mul sub M
  hpt neg vpt 1.62 mul V
  hpt 2 mul 0 V
  hpt neg vpt -1.62 mul V closepath stroke
  Pnt} def
/TriDF {stroke [] 0 setdash vpt 1.12 mul sub M
  hpt neg vpt 1.62 mul V
  hpt 2 mul 0 V
  hpt neg vpt -1.62 mul V closepath fill} def
/DiaF {stroke [] 0 setdash vpt add M
  hpt neg vpt neg V hpt vpt neg V
  hpt vpt V hpt neg vpt V closepath fill} def
/Pent {stroke [] 0 setdash 2 copy gsave
  translate 0 hpt M 4 {72 rotate 0 hpt L} repeat
  closepath stroke grestore Pnt} def
/PentF {stroke [] 0 setdash gsave
  translate 0 hpt M 4 {72 rotate 0 hpt L} repeat
  closepath fill grestore} def
/Circle {stroke [] 0 setdash 2 copy
  hpt 0 360 arc stroke Pnt} def
/CircleF {stroke [] 0 setdash hpt 0 360 arc fill} def
/C0 {BL [] 0 setdash 2 copy moveto vpt 90 450 arc} bind def
/C1 {BL [] 0 setdash 2 copy moveto
	2 copy vpt 0 90 arc closepath fill
	vpt 0 360 arc closepath} bind def
/C2 {BL [] 0 setdash 2 copy moveto
	2 copy vpt 90 180 arc closepath fill
	vpt 0 360 arc closepath} bind def
/C3 {BL [] 0 setdash 2 copy moveto
	2 copy vpt 0 180 arc closepath fill
	vpt 0 360 arc closepath} bind def
/C4 {BL [] 0 setdash 2 copy moveto
	2 copy vpt 180 270 arc closepath fill
	vpt 0 360 arc closepath} bind def
/C5 {BL [] 0 setdash 2 copy moveto
	2 copy vpt 0 90 arc
	2 copy moveto
	2 copy vpt 180 270 arc closepath fill
	vpt 0 360 arc} bind def
/C6 {BL [] 0 setdash 2 copy moveto
	2 copy vpt 90 270 arc closepath fill
	vpt 0 360 arc closepath} bind def
/C7 {BL [] 0 setdash 2 copy moveto
	2 copy vpt 0 270 arc closepath fill
	vpt 0 360 arc closepath} bind def
/C8 {BL [] 0 setdash 2 copy moveto
	2 copy vpt 270 360 arc closepath fill
	vpt 0 360 arc closepath} bind def
/C9 {BL [] 0 setdash 2 copy moveto
	2 copy vpt 270 450 arc closepath fill
	vpt 0 360 arc closepath} bind def
/C10 {BL [] 0 setdash 2 copy 2 copy moveto vpt 270 360 arc closepath fill
	2 copy moveto
	2 copy vpt 90 180 arc closepath fill
	vpt 0 360 arc closepath} bind def
/C11 {BL [] 0 setdash 2 copy moveto
	2 copy vpt 0 180 arc closepath fill
	2 copy moveto
	2 copy vpt 270 360 arc closepath fill
	vpt 0 360 arc closepath} bind def
/C12 {BL [] 0 setdash 2 copy moveto
	2 copy vpt 180 360 arc closepath fill
	vpt 0 360 arc closepath} bind def
/C13 {BL [] 0 setdash 2 copy moveto
	2 copy vpt 0 90 arc closepath fill
	2 copy moveto
	2 copy vpt 180 360 arc closepath fill
	vpt 0 360 arc closepath} bind def
/C14 {BL [] 0 setdash 2 copy moveto
	2 copy vpt 90 360 arc closepath fill
	vpt 0 360 arc} bind def
/C15 {BL [] 0 setdash 2 copy vpt 0 360 arc closepath fill
	vpt 0 360 arc closepath} bind def
/Rec {newpath 4 2 roll moveto 1 index 0 rlineto 0 exch rlineto
	neg 0 rlineto closepath} bind def
/Square {dup Rec} bind def
/Bsquare {vpt sub exch vpt sub exch vpt2 Square} bind def
/S0 {BL [] 0 setdash 2 copy moveto 0 vpt rlineto BL Bsquare} bind def
/S1 {BL [] 0 setdash 2 copy vpt Square fill Bsquare} bind def
/S2 {BL [] 0 setdash 2 copy exch vpt sub exch vpt Square fill Bsquare} bind def
/S3 {BL [] 0 setdash 2 copy exch vpt sub exch vpt2 vpt Rec fill Bsquare} bind def
/S4 {BL [] 0 setdash 2 copy exch vpt sub exch vpt sub vpt Square fill Bsquare} bind def
/S5 {BL [] 0 setdash 2 copy 2 copy vpt Square fill
	exch vpt sub exch vpt sub vpt Square fill Bsquare} bind def
/S6 {BL [] 0 setdash 2 copy exch vpt sub exch vpt sub vpt vpt2 Rec fill Bsquare} bind def
/S7 {BL [] 0 setdash 2 copy exch vpt sub exch vpt sub vpt vpt2 Rec fill
	2 copy vpt Square fill Bsquare} bind def
/S8 {BL [] 0 setdash 2 copy vpt sub vpt Square fill Bsquare} bind def
/S9 {BL [] 0 setdash 2 copy vpt sub vpt vpt2 Rec fill Bsquare} bind def
/S10 {BL [] 0 setdash 2 copy vpt sub vpt Square fill 2 copy exch vpt sub exch vpt Square fill
	Bsquare} bind def
/S11 {BL [] 0 setdash 2 copy vpt sub vpt Square fill 2 copy exch vpt sub exch vpt2 vpt Rec fill
	Bsquare} bind def
/S12 {BL [] 0 setdash 2 copy exch vpt sub exch vpt sub vpt2 vpt Rec fill Bsquare} bind def
/S13 {BL [] 0 setdash 2 copy exch vpt sub exch vpt sub vpt2 vpt Rec fill
	2 copy vpt Square fill Bsquare} bind def
/S14 {BL [] 0 setdash 2 copy exch vpt sub exch vpt sub vpt2 vpt Rec fill
	2 copy exch vpt sub exch vpt Square fill Bsquare} bind def
/S15 {BL [] 0 setdash 2 copy Bsquare fill Bsquare} bind def
/D0 {gsave translate 45 rotate 0 0 S0 stroke grestore} bind def
/D1 {gsave translate 45 rotate 0 0 S1 stroke grestore} bind def
/D2 {gsave translate 45 rotate 0 0 S2 stroke grestore} bind def
/D3 {gsave translate 45 rotate 0 0 S3 stroke grestore} bind def
/D4 {gsave translate 45 rotate 0 0 S4 stroke grestore} bind def
/D5 {gsave translate 45 rotate 0 0 S5 stroke grestore} bind def
/D6 {gsave translate 45 rotate 0 0 S6 stroke grestore} bind def
/D7 {gsave translate 45 rotate 0 0 S7 stroke grestore} bind def
/D8 {gsave translate 45 rotate 0 0 S8 stroke grestore} bind def
/D9 {gsave translate 45 rotate 0 0 S9 stroke grestore} bind def
/D10 {gsave translate 45 rotate 0 0 S10 stroke grestore} bind def
/D11 {gsave translate 45 rotate 0 0 S11 stroke grestore} bind def
/D12 {gsave translate 45 rotate 0 0 S12 stroke grestore} bind def
/D13 {gsave translate 45 rotate 0 0 S13 stroke grestore} bind def
/D14 {gsave translate 45 rotate 0 0 S14 stroke grestore} bind def
/D15 {gsave translate 45 rotate 0 0 S15 stroke grestore} bind def
/DiaE {stroke [] 0 setdash vpt add M
  hpt neg vpt neg V hpt vpt neg V
  hpt vpt V hpt neg vpt V closepath stroke} def
/BoxE {stroke [] 0 setdash exch hpt sub exch vpt add M
  0 vpt2 neg V hpt2 0 V 0 vpt2 V
  hpt2 neg 0 V closepath stroke} def
/TriUE {stroke [] 0 setdash vpt 1.12 mul add M
  hpt neg vpt -1.62 mul V
  hpt 2 mul 0 V
  hpt neg vpt 1.62 mul V closepath stroke} def
/TriDE {stroke [] 0 setdash vpt 1.12 mul sub M
  hpt neg vpt 1.62 mul V
  hpt 2 mul 0 V
  hpt neg vpt -1.62 mul V closepath stroke} def
/PentE {stroke [] 0 setdash gsave
  translate 0 hpt M 4 {72 rotate 0 hpt L} repeat
  closepath stroke grestore} def
/CircE {stroke [] 0 setdash 
  hpt 0 360 arc stroke} def
/Opaque {gsave closepath 1 setgray fill grestore 0 setgray closepath} def
/DiaW {stroke [] 0 setdash vpt add M
  hpt neg vpt neg V hpt vpt neg V
  hpt vpt V hpt neg vpt V Opaque stroke} def
/BoxW {stroke [] 0 setdash exch hpt sub exch vpt add M
  0 vpt2 neg V hpt2 0 V 0 vpt2 V
  hpt2 neg 0 V Opaque stroke} def
/TriUW {stroke [] 0 setdash vpt 1.12 mul add M
  hpt neg vpt -1.62 mul V
  hpt 2 mul 0 V
  hpt neg vpt 1.62 mul V Opaque stroke} def
/TriDW {stroke [] 0 setdash vpt 1.12 mul sub M
  hpt neg vpt 1.62 mul V
  hpt 2 mul 0 V
  hpt neg vpt -1.62 mul V Opaque stroke} def
/PentW {stroke [] 0 setdash gsave
  translate 0 hpt M 4 {72 rotate 0 hpt L} repeat
  Opaque stroke grestore} def
/CircW {stroke [] 0 setdash 
  hpt 0 360 arc Opaque stroke} def
/BoxFill {gsave Rec 1 setgray fill grestore} def
/Density {
  /Fillden exch def
  currentrgbcolor
  /ColB exch def /ColG exch def /ColR exch def
  /ColR ColR Fillden mul Fillden sub 1 add def
  /ColG ColG Fillden mul Fillden sub 1 add def
  /ColB ColB Fillden mul Fillden sub 1 add def
  ColR ColG ColB setrgbcolor} def
/BoxColFill {gsave Rec PolyFill} def
/PolyFill {gsave Density fill grestore grestore} def
/h {rlineto rlineto rlineto gsave closepath fill grestore} bind def
%
% PostScript Level 1 Pattern Fill routine for rectangles
% Usage: x y w h s a XX PatternFill
%	x,y = lower left corner of box to be filled
%	w,h = width and height of box
%	  a = angle in degrees between lines and x-axis
%	 XX = 0/1 for no/yes cross-hatch
%
/PatternFill {gsave /PFa [ 9 2 roll ] def
  PFa 0 get PFa 2 get 2 div add PFa 1 get PFa 3 get 2 div add translate
  PFa 2 get -2 div PFa 3 get -2 div PFa 2 get PFa 3 get Rec
  TransparentPatterns {} {gsave 1 setgray fill grestore} ifelse
  clip
  currentlinewidth 0.5 mul setlinewidth
  /PFs PFa 2 get dup mul PFa 3 get dup mul add sqrt def
  0 0 M PFa 5 get rotate PFs -2 div dup translate
  0 1 PFs PFa 4 get div 1 add floor cvi
	{PFa 4 get mul 0 M 0 PFs V} for
  0 PFa 6 get ne {
	0 1 PFs PFa 4 get div 1 add floor cvi
	{PFa 4 get mul 0 2 1 roll M PFs 0 V} for
 } if
  stroke grestore} def
%
/languagelevel where
 {pop languagelevel} {1} ifelse
 2 lt
	{/InterpretLevel1 true def}
	{/InterpretLevel1 Level1 def}
 ifelse
%
% PostScript level 2 pattern fill definitions
%
/Level2PatternFill {
/Tile8x8 {/PaintType 2 /PatternType 1 /TilingType 1 /BBox [0 0 8 8] /XStep 8 /YStep 8}
	bind def
/KeepColor {currentrgbcolor [/Pattern /DeviceRGB] setcolorspace} bind def
<< Tile8x8
 /PaintProc {0.5 setlinewidth pop 0 0 M 8 8 L 0 8 M 8 0 L stroke} 
>> matrix makepattern
/Pat1 exch def
<< Tile8x8
 /PaintProc {0.5 setlinewidth pop 0 0 M 8 8 L 0 8 M 8 0 L stroke
	0 4 M 4 8 L 8 4 L 4 0 L 0 4 L stroke}
>> matrix makepattern
/Pat2 exch def
<< Tile8x8
 /PaintProc {0.5 setlinewidth pop 0 0 M 0 8 L
	8 8 L 8 0 L 0 0 L fill}
>> matrix makepattern
/Pat3 exch def
<< Tile8x8
 /PaintProc {0.5 setlinewidth pop -4 8 M 8 -4 L
	0 12 M 12 0 L stroke}
>> matrix makepattern
/Pat4 exch def
<< Tile8x8
 /PaintProc {0.5 setlinewidth pop -4 0 M 8 12 L
	0 -4 M 12 8 L stroke}
>> matrix makepattern
/Pat5 exch def
<< Tile8x8
 /PaintProc {0.5 setlinewidth pop -2 8 M 4 -4 L
	0 12 M 8 -4 L 4 12 M 10 0 L stroke}
>> matrix makepattern
/Pat6 exch def
<< Tile8x8
 /PaintProc {0.5 setlinewidth pop -2 0 M 4 12 L
	0 -4 M 8 12 L 4 -4 M 10 8 L stroke}
>> matrix makepattern
/Pat7 exch def
<< Tile8x8
 /PaintProc {0.5 setlinewidth pop 8 -2 M -4 4 L
	12 0 M -4 8 L 12 4 M 0 10 L stroke}
>> matrix makepattern
/Pat8 exch def
<< Tile8x8
 /PaintProc {0.5 setlinewidth pop 0 -2 M 12 4 L
	-4 0 M 12 8 L -4 4 M 8 10 L stroke}
>> matrix makepattern
/Pat9 exch def
/Pattern1 {PatternBgnd KeepColor Pat1 setpattern} bind def
/Pattern2 {PatternBgnd KeepColor Pat2 setpattern} bind def
/Pattern3 {PatternBgnd KeepColor Pat3 setpattern} bind def
/Pattern4 {PatternBgnd KeepColor Landscape {Pat5} {Pat4} ifelse setpattern} bind def
/Pattern5 {PatternBgnd KeepColor Landscape {Pat4} {Pat5} ifelse setpattern} bind def
/Pattern6 {PatternBgnd KeepColor Landscape {Pat9} {Pat6} ifelse setpattern} bind def
/Pattern7 {PatternBgnd KeepColor Landscape {Pat8} {Pat7} ifelse setpattern} bind def
} def
%
%
%End of PostScript Level 2 code
%
/PatternBgnd {
  TransparentPatterns {} {gsave 1 setgray fill grestore} ifelse
} def
%
% Substitute for Level 2 pattern fill codes with
% grayscale if Level 2 support is not selected.
%
/Level1PatternFill {
/Pattern1 {0.250 Density} bind def
/Pattern2 {0.500 Density} bind def
/Pattern3 {0.750 Density} bind def
/Pattern4 {0.125 Density} bind def
/Pattern5 {0.375 Density} bind def
/Pattern6 {0.625 Density} bind def
/Pattern7 {0.875 Density} bind def
} def
%
% Now test for support of Level 2 code
%
Level1 {Level1PatternFill} {Level2PatternFill} ifelse
%
/Symbol-Oblique /Symbol findfont [1 0 .167 1 0 0] makefont
dup length dict begin {1 index /FID eq {pop pop} {def} ifelse} forall
currentdict end definefont pop
/MFshow {
   { dup 5 get 3 ge
     { 5 get 3 eq {gsave} {grestore} ifelse }
     {dup dup 0 get findfont exch 1 get scalefont setfont
     [ currentpoint ] exch dup 2 get 0 exch R dup 5 get 2 ne {dup dup 6
     get exch 4 get {Gshow} {stringwidth pop 0 R} ifelse }if dup 5 get 0 eq
     {dup 3 get {2 get neg 0 exch R pop} {pop aload pop M} ifelse} {dup 5
     get 1 eq {dup 2 get exch dup 3 get exch 6 get stringwidth pop -2 div
     dup 0 R} {dup 6 get stringwidth pop -2 div 0 R 6 get
     show 2 index {aload pop M neg 3 -1 roll neg R pop pop} {pop pop pop
     pop aload pop M} ifelse }ifelse }ifelse }
     ifelse }
   forall} def
/Gswidth {dup type /stringtype eq {stringwidth} {pop (n) stringwidth} ifelse} def
/MFwidth {0 exch { dup 5 get 3 ge { 5 get 3 eq { 0 } { pop } ifelse }
 {dup 3 get{dup dup 0 get findfont exch 1 get scalefont setfont
     6 get Gswidth pop add} {pop} ifelse} ifelse} forall} def
/MLshow { currentpoint stroke M
  0 exch R
  Blacktext {gsave 0 setgray MFshow grestore} {MFshow} ifelse } bind def
/MRshow { currentpoint stroke M
  exch dup MFwidth neg 3 -1 roll R
  Blacktext {gsave 0 setgray MFshow grestore} {MFshow} ifelse } bind def
/MCshow { currentpoint stroke M
  exch dup MFwidth -2 div 3 -1 roll R
  Blacktext {gsave 0 setgray MFshow grestore} {MFshow} ifelse } bind def
/XYsave    { [( ) 1 2 true false 3 ()] } bind def
/XYrestore { [( ) 1 2 true false 4 ()] } bind def
Level1 SuppressPDFMark or 
{} {
/SDict 10 dict def
systemdict /pdfmark known not {
  userdict /pdfmark systemdict /cleartomark get put
} if
SDict begin [
  /Title (fx.eps)
  /Subject (gnuplot plot)
  /Creator (gnuplot 4.6 patchlevel 4)
  /Author (t140148)
%  /Producer (gnuplot)
%  /Keywords ()
  /CreationDate (Fri Jun  5 17:38:16 2015)
  /DOCINFO pdfmark
end
} ifelse
end
%%EndProlog
%%Page: 1 1
gnudict begin
gsave
doclip
50 50 translate
0.050 0.050 scale
0 setgray
newpath
(Helvetica) findfont 140 scalefont setfont
BackgroundColor 0 lt 3 1 roll 0 lt exch 0 lt or or not {BackgroundColor C 1.000 0 0 7200.00 5040.00 BoxColFill} if
1.000 UL
LTb
LCb setrgbcolor
LTb
3600 4773 M
[ [(Helvetica) 140.0 0.0 true true 0 (t140148)]
] -46.7 MCshow
1.000 UP
% Begin plot #1
1.000 UL
LT0
LC0 setrgbcolor
3468 3292 M
37 0 V
stroke
LT0
LC0 setrgbcolor
3448 3298 M
57 -6 V
stroke
LT0
LC0 setrgbcolor
3702 3264 M
-197 28 V
stroke
LT0
LC0 setrgbcolor
3660 3253 M
42 11 V
stroke
LT0
LC0 setrgbcolor
3901 3231 M
-199 33 V
stroke
LT0
LC0 setrgbcolor
3858 3207 M
43 24 V
stroke
LT0
LC0 setrgbcolor
4099 3196 M
-198 35 V
stroke
LT0
LC0 setrgbcolor
4057 3158 M
42 38 V
stroke
LT0
LC0 setrgbcolor
4297 3163 M
-198 33 V
stroke
LT0
LC0 setrgbcolor
4255 3112 M
42 51 V
stroke
LT0
LC0 setrgbcolor
4495 3135 M
-198 28 V
stroke
LT0
LC0 setrgbcolor
4453 3074 M
42 61 V
stroke
LT0
LC0 setrgbcolor
4693 3114 M
-198 21 V
stroke
LT0
LC0 setrgbcolor
4651 3046 M
42 68 V
stroke
LT0
LC0 setrgbcolor
4892 3102 M
-199 12 V
stroke
LT0
LC0 setrgbcolor
4850 3031 M
42 71 V
stroke
LT0
LC0 setrgbcolor
5090 3097 M
-198 5 V
stroke
LT0
LC0 setrgbcolor
3618 3248 M
42 5 V
stroke
LT0
LC0 setrgbcolor
3475 3289 M
185 -36 V
stroke
LT0
LC0 setrgbcolor
3858 3207 M
-198 46 V
stroke
LT0
LC0 setrgbcolor
3816 3185 M
42 22 V
stroke
LT0
LC0 setrgbcolor
4057 3158 M
-199 49 V
stroke
LT0
LC0 setrgbcolor
5048 3027 M
42 70 V
stroke
LT0
LC0 setrgbcolor
5288 3098 M
-198 -1 V
stroke
LT0
LC0 setrgbcolor
4015 3118 M
42 40 V
stroke
LT0
LC0 setrgbcolor
4255 3112 M
-198 46 V
stroke
LT0
LC0 setrgbcolor
4213 3055 M
42 57 V
stroke
LT0
LC0 setrgbcolor
4453 3074 M
-198 38 V
stroke
LT0
LC0 setrgbcolor
5246 3032 M
42 66 V
stroke
LT0
LC0 setrgbcolor
5486 3103 M
-198 -5 V
stroke
LT0
LC0 setrgbcolor
4411 3003 M
42 71 V
stroke
LT0
LC0 setrgbcolor
4651 3046 M
-198 28 V
stroke
LT0
LC0 setrgbcolor
5444 3042 M
42 61 V
stroke
LT0
LC0 setrgbcolor
5684 3109 M
-198 -6 V
stroke
LT0
LC0 setrgbcolor
4609 2967 M
42 79 V
stroke
LT0
LC0 setrgbcolor
4850 3031 M
-199 15 V
stroke
LT0
LC0 setrgbcolor
5642 3054 M
42 55 V
stroke
LT0
LC0 setrgbcolor
5883 3114 M
-199 -5 V
stroke
LT0
LC0 setrgbcolor
4807 2948 M
43 83 V
stroke
LT0
LC0 setrgbcolor
5048 3027 M
-198 4 V
stroke
LT0
LC0 setrgbcolor
3577 3249 M
41 -1 V
stroke
LT0
LC0 setrgbcolor
3459 3294 M
159 -46 V
stroke
LT0
LC0 setrgbcolor
3816 3185 M
-198 63 V
stroke
LT0
LC0 setrgbcolor
5006 2945 M
42 82 V
stroke
LT0
LC0 setrgbcolor
5246 3032 M
-198 -5 V
stroke
LT0
LC0 setrgbcolor
5841 3066 M
42 48 V
stroke
LT0
LC0 setrgbcolor
3774 3165 M
42 20 V
stroke
LT0
LC0 setrgbcolor
4015 3118 M
-199 67 V
stroke
LT0
LC0 setrgbcolor
3972 3076 M
43 42 V
stroke
LT0
LC0 setrgbcolor
4213 3055 M
-198 63 V
stroke
LT0
LC0 setrgbcolor
4171 2993 M
42 62 V
stroke
LT0
LC0 setrgbcolor
4411 3003 M
-198 52 V
stroke
LT0
LC0 setrgbcolor
5204 2955 M
42 77 V
stroke
LT0
LC0 setrgbcolor
5444 3042 M
-198 -10 V
stroke
LT0
LC0 setrgbcolor
4369 2924 M
42 79 V
stroke
LT0
LC0 setrgbcolor
4609 2967 M
-198 36 V
stroke
LT0
LC0 setrgbcolor
5402 2972 M
42 70 V
stroke
LT0
LC0 setrgbcolor
5642 3054 M
-198 -12 V
stroke
LT0
LC0 setrgbcolor
4567 2877 M
42 90 V
stroke
LT0
LC0 setrgbcolor
4807 2948 M
-198 19 V
stroke
LT0
LC0 setrgbcolor
4765 2854 M
42 94 V
stroke
LT0
LC0 setrgbcolor
5006 2945 M
-199 3 V
stroke
LT0
LC0 setrgbcolor
5600 2992 M
42 62 V
stroke
LT0
LC0 setrgbcolor
5841 3066 M
-199 -12 V
stroke
LT0
LC0 setrgbcolor
4963 2852 M
43 93 V
stroke
LT0
LC0 setrgbcolor
5204 2955 M
-198 -10 V
stroke
LT0
LC0 setrgbcolor
5798 3011 M
43 55 V
stroke
LT0
LC0 setrgbcolor
3535 3254 M
42 -5 V
stroke
LT0
LC0 setrgbcolor
3415 3311 M
162 -62 V
stroke
LT0
LC0 setrgbcolor
3774 3165 M
-197 84 V
stroke
LT0
LC0 setrgbcolor
3732 3147 M
42 18 V
stroke
LT0
LC0 setrgbcolor
3972 3076 M
-198 89 V
stroke
LT0
LC0 setrgbcolor
3930 3033 M
42 43 V
stroke
LT0
LC0 setrgbcolor
4171 2993 M
-199 83 V
stroke
LT0
LC0 setrgbcolor
5162 2867 M
42 88 V
stroke
LT0
LC0 setrgbcolor
5402 2972 M
-198 -17 V
stroke
LT0
LC0 setrgbcolor
4129 2926 M
42 67 V
stroke
LT0
LC0 setrgbcolor
4369 2924 M
-198 69 V
stroke
LT0
LC0 setrgbcolor
4327 2839 M
42 85 V
stroke
LT0
LC0 setrgbcolor
4567 2877 M
-198 47 V
stroke
LT0
LC0 setrgbcolor
4525 2779 M
42 98 V
stroke
LT0
LC0 setrgbcolor
4765 2854 M
-198 23 V
stroke
LT0
LC0 setrgbcolor
5360 2893 M
42 79 V
stroke
LT0
LC0 setrgbcolor
5600 2992 M
-198 -20 V
stroke
LT0
LC0 setrgbcolor
4723 2751 M
42 103 V
stroke
LT0
LC0 setrgbcolor
4963 2852 M
-198 2 V
stroke
LT0
LC0 setrgbcolor
5558 2923 M
42 69 V
stroke
LT0
LC0 setrgbcolor
5798 3011 M
-198 -19 V
stroke
LT0
LC0 setrgbcolor
4921 2750 M
42 102 V
stroke
LT0
LC0 setrgbcolor
5162 2867 M
-199 -15 V
stroke
LT0
LC0 setrgbcolor
5756 2952 M
42 59 V
stroke
LT0
LC0 setrgbcolor
5120 2772 M
42 95 V
stroke
LT0
LC0 setrgbcolor
5360 2893 M
-198 -26 V
stroke
LT0
LC0 setrgbcolor
3493 3261 M
42 -7 V
stroke
LT0
LC0 setrgbcolor
3328 3353 M
207 -99 V
stroke
LT0
LC0 setrgbcolor
3732 3147 M
-197 107 V
stroke
LT0
LC0 setrgbcolor
3732 3147 M
198 -114 V
stroke
LT0
LC0 setrgbcolor
3888 2989 M
42 44 V
stroke
LT0
LC0 setrgbcolor
4129 2926 M
-199 107 V
stroke
LT0
LC0 setrgbcolor
3690 3129 M
42 18 V
stroke
LT0
LC0 setrgbcolor
4086 2857 M
43 69 V
stroke
LT0
LC0 setrgbcolor
4327 2839 M
-198 87 V
stroke
LT0
LC0 setrgbcolor
4285 2750 M
42 89 V
stroke
LT0
LC0 setrgbcolor
4525 2779 M
-198 60 V
stroke
LT0
LC0 setrgbcolor
4483 2677 M
42 102 V
stroke
LT0
LC0 setrgbcolor
4723 2751 M
-198 28 V
stroke
LT0
LC0 setrgbcolor
5318 2808 M
42 85 V
stroke
LT0
LC0 setrgbcolor
5558 2923 M
-198 -30 V
stroke
LT0
LC0 setrgbcolor
4681 2643 M
42 108 V
stroke
LT0
LC0 setrgbcolor
4921 2750 M
-198 1 V
stroke
LT0
LC0 setrgbcolor
5516 2849 M
42 74 V
stroke
LT0
LC0 setrgbcolor
5756 2952 M
-198 -29 V
stroke
LT0
LC0 setrgbcolor
4879 2644 M
42 106 V
stroke
LT0
LC0 setrgbcolor
5120 2772 M
-199 -22 V
stroke
LT0
LC0 setrgbcolor
5714 2889 M
42 63 V
stroke
LT0
LC0 setrgbcolor
5077 2673 M
43 99 V
stroke
LT0
LC0 setrgbcolor
5318 2808 M
-198 -36 V
stroke
LT0
LC0 setrgbcolor
3888 2989 M
198 -132 V
stroke
LT0
LC0 setrgbcolor
4044 2789 M
42 68 V
stroke
LT0
LC0 setrgbcolor
4285 2750 M
-199 107 V
stroke
LT0
LC0 setrgbcolor
4242 2662 M
43 88 V
stroke
LT0
LC0 setrgbcolor
4483 2677 M
-198 73 V
stroke
LT0
LC0 setrgbcolor
3690 3129 M
198 -140 V
stroke
LT0
LC0 setrgbcolor
3846 2945 M
42 44 V
stroke
LT0
LC0 setrgbcolor
4441 2576 M
42 101 V
stroke
LT0
LC0 setrgbcolor
4681 2643 M
-198 34 V
stroke
LT0
LC0 setrgbcolor
3493 3261 M
197 -132 V
stroke
LT0
LC0 setrgbcolor
3648 3111 M
42 18 V
stroke
LT0
LC0 setrgbcolor
3451 3268 M
42 -7 V
stroke
LT0
LC0 setrgbcolor
3252 3395 M
241 -134 V
stroke
LT0
LC0 setrgbcolor
5276 2720 M
42 88 V
stroke
LT0
LC0 setrgbcolor
5516 2849 M
-198 -41 V
stroke
LT0
LC0 setrgbcolor
4639 2537 M
42 106 V
stroke
LT0
LC0 setrgbcolor
4879 2644 M
-198 -1 V
stroke
LT0
LC0 setrgbcolor
4837 2540 M
42 104 V
stroke
LT0
LC0 setrgbcolor
5077 2673 M
-198 -29 V
stroke
LT0
LC0 setrgbcolor
5474 2773 M
42 76 V
stroke
LT0
LC0 setrgbcolor
5714 2889 M
-198 -40 V
stroke
LT0
LC0 setrgbcolor
5035 2576 M
42 97 V
stroke
LT0
LC0 setrgbcolor
5276 2720 M
-199 -47 V
stroke
LT0
LC0 setrgbcolor
5672 2824 M
42 65 V
stroke
LT0
LC0 setrgbcolor
4044 2789 M
198 -127 V
stroke
LT0
LC0 setrgbcolor
4200 2581 M
42 81 V
stroke
LT0
LC0 setrgbcolor
4441 2576 M
-199 86 V
stroke
LT0
LC0 setrgbcolor
3846 2945 M
198 -156 V
stroke
LT0
LC0 setrgbcolor
4002 2725 M
42 64 V
stroke
LT0
LC0 setrgbcolor
4411 2512 M
30 64 V
stroke
LT0
LC0 setrgbcolor
4639 2537 M
-198 39 V
stroke
LT0
LC0 setrgbcolor
3648 3111 M
198 -166 V
stroke
LT0
LC0 setrgbcolor
3804 2903 M
42 42 V
stroke
LT0
LC0 setrgbcolor
5233 2632 M
43 88 V
stroke
LT0
LC0 setrgbcolor
5474 2773 M
-198 -53 V
stroke
LT0
LC0 setrgbcolor
4629 2516 M
10 21 V
stroke
LT0
LC0 setrgbcolor
4837 2540 M
-198 -3 V
stroke
LT0
LC0 setrgbcolor
3451 3268 M
197 -157 V
stroke
LT0
LC0 setrgbcolor
3606 3092 M
42 19 V
stroke
LT0
LC0 setrgbcolor
3263 3388 M
188 -120 V
stroke
LT0
LC0 setrgbcolor
3409 3269 M
42 -1 V
stroke
LT0
LC0 setrgbcolor
3210 3413 M
42 -18 V
stroke
LT0
LC0 setrgbcolor
3012 3510 M
187 -90 V
stroke
LT0
LC0 setrgbcolor
4830 2524 M
7 16 V
stroke
LT0
LC0 setrgbcolor
5035 2576 M
-198 -36 V
stroke
LT0
LC0 setrgbcolor
5432 2697 M
42 76 V
stroke
LT0
LC0 setrgbcolor
5672 2824 M
-198 -51 V
stroke
LT0
LC0 setrgbcolor
1739 3268 M
42 19 V
stroke
LT0
LC0 setrgbcolor
1855 3317 M
-74 -30 V
stroke
LT0
LC0 setrgbcolor
5017 2536 M
18 40 V
stroke
LT0
LC0 setrgbcolor
5233 2632 M
-198 -56 V
stroke
LT0
LC0 setrgbcolor
5630 2759 M
42 65 V
stroke
LT0
LC0 setrgbcolor
4002 2725 M
198 -144 V
stroke
LT0
LC0 setrgbcolor
4159 2515 M
41 66 V
stroke
LT0
LC0 setrgbcolor
4344 2512 M
-144 69 V
stroke
LT0
LC0 setrgbcolor
3804 2903 M
198 -178 V
stroke
LT0
LC0 setrgbcolor
3960 2670 M
42 55 V
stroke
LT0
LC0 setrgbcolor
5191 2552 M
42 80 V
stroke
LT0
LC0 setrgbcolor
5432 2697 M
-199 -65 V
stroke
LT0
LC0 setrgbcolor
3606 3092 M
198 -189 V
stroke
LT0
LC0 setrgbcolor
3762 2863 M
42 40 V
stroke
LT0
LC0 setrgbcolor
3409 3269 M
197 -177 V
stroke
LT0
LC0 setrgbcolor
3565 3070 M
41 22 V
stroke
LT0
LC0 setrgbcolor
3210 3413 M
199 -144 V
stroke
LT0
LC0 setrgbcolor
3366 3263 M
43 6 V
stroke
LT0
LC0 setrgbcolor
2970 3525 M
42 -15 V
stroke
LT0
LC0 setrgbcolor
3210 3413 M
-198 97 V
stroke
LT0
LC0 setrgbcolor
5390 2627 M
42 70 V
stroke
LT0
LC0 setrgbcolor
5630 2759 M
-198 -62 V
stroke
LT0
LC0 setrgbcolor
3168 3420 M
42 -7 V
stroke
LT0
LC0 setrgbcolor
5191 2552 M
-5 -2 V
stroke
LT0
LC0 setrgbcolor
1697 3237 M
42 31 V
stroke
LT0
LC0 setrgbcolor
1937 3351 M
-198 -83 V
stroke
LT0
LC0 setrgbcolor
5588 2699 M
42 60 V
stroke
LT0
LC0 setrgbcolor
3960 2670 M
198 -155 V
stroke
LT0
LC0 setrgbcolor
3762 2863 M
198 -193 V
stroke
LT0
LC0 setrgbcolor
3918 2627 M
42 43 V
stroke
LT0
LC0 setrgbcolor
5190 2551 M
1 1 V
stroke
LT0
LC0 setrgbcolor
5390 2627 M
-199 -75 V
stroke
LT0
LC0 setrgbcolor
3565 3070 M
197 -207 V
stroke
LT0
LC0 setrgbcolor
3720 2828 M
42 35 V
stroke
LT0
LC0 setrgbcolor
1895 3320 M
42 31 V
stroke
LT0
LC0 setrgbcolor
2135 3437 M
-198 -86 V
stroke
LT0
LC0 setrgbcolor
2531 3562 M
43 5 V
stroke
LT0
LC0 setrgbcolor
2772 3573 M
-198 -6 V
stroke
LT0
LC0 setrgbcolor
3366 3263 M
199 -193 V
stroke
LT0
LC0 setrgbcolor
3522 3043 M
43 27 V
stroke
LT0
LC0 setrgbcolor
5347 2567 M
43 60 V
stroke
LT0
LC0 setrgbcolor
5588 2699 M
-198 -72 V
stroke
LT0
LC0 setrgbcolor
2730 3568 M
42 5 V
stroke
LT0
LC0 setrgbcolor
2970 3525 M
-198 48 V
stroke
LT0
LC0 setrgbcolor
3168 3420 M
198 -157 V
stroke
LT0
LC0 setrgbcolor
3324 3245 M
42 18 V
stroke
LT0
LC0 setrgbcolor
2093 3406 M
42 31 V
stroke
LT0
LC0 setrgbcolor
2333 3513 M
-198 -76 V
stroke
LT0
LC0 setrgbcolor
2928 3518 M
42 7 V
stroke
LT0
LC0 setrgbcolor
3168 3420 M
-198 105 V
stroke
LT0
LC0 setrgbcolor
3126 3409 M
42 11 V
stroke
LT0
LC0 setrgbcolor
1654 3194 M
43 43 V
stroke
LT0
LC0 setrgbcolor
1895 3320 M
-198 -83 V
stroke
LT0
LC0 setrgbcolor
5546 2646 M
42 53 V
stroke
LT0
LC0 setrgbcolor
3918 2627 M
131 -108 V
stroke
LT0
LC0 setrgbcolor
2291 3482 M
42 31 V
stroke
LT0
LC0 setrgbcolor
2531 3562 M
-198 -49 V
stroke
LT0
LC0 setrgbcolor
3720 2828 M
198 -201 V
stroke
LT0
LC0 setrgbcolor
3876 2596 M
42 31 V
stroke
LT0
LC0 setrgbcolor
5347 2567 M
-51 -21 V
stroke
LT0
LC0 setrgbcolor
3522 3043 M
198 -215 V
stroke
LT0
LC0 setrgbcolor
3678 2797 M
42 31 V
stroke
LT0
LC0 setrgbcolor
1853 3274 M
42 46 V
stroke
LT0
LC0 setrgbcolor
2093 3406 M
-198 -86 V
stroke
LT0
LC0 setrgbcolor
2489 3531 M
42 31 V
stroke
LT0
LC0 setrgbcolor
2730 3568 M
-199 -6 V
stroke
LT0
LC0 setrgbcolor
3324 3245 M
198 -202 V
stroke
LT0
LC0 setrgbcolor
3480 3012 M
42 31 V
stroke
LT0
LC0 setrgbcolor
5327 2544 M
20 23 V
stroke
LT0
LC0 setrgbcolor
5546 2646 M
-199 -79 V
stroke
LT0
LC0 setrgbcolor
2688 3537 M
42 31 V
stroke
LT0
LC0 setrgbcolor
2928 3518 M
-198 50 V
stroke
LT0
LC0 setrgbcolor
3126 3409 M
198 -164 V
stroke
LT0
LC0 setrgbcolor
3282 3214 M
42 31 V
stroke
LT0
LC0 setrgbcolor
2051 3356 M
42 50 V
stroke
LT0
LC0 setrgbcolor
2291 3482 M
-198 -76 V
stroke
LT0
LC0 setrgbcolor
2886 3487 M
42 31 V
stroke
LT0
LC0 setrgbcolor
3126 3409 M
-198 109 V
stroke
LT0
LC0 setrgbcolor
3084 3378 M
42 31 V
stroke
LT0
LC0 setrgbcolor
5503 2604 M
43 42 V
stroke
LT0
LC0 setrgbcolor
1612 3141 M
42 53 V
stroke
LT0
LC0 setrgbcolor
1853 3274 M
-199 -80 V
stroke
LT0
LC0 setrgbcolor
3876 2596 M
87 -72 V
stroke
LT0
LC0 setrgbcolor
2249 3428 M
42 54 V
stroke
LT0
LC0 setrgbcolor
2489 3531 M
-198 -49 V
stroke
LT0
LC0 setrgbcolor
3678 2797 M
198 -201 V
stroke
LT0
LC0 setrgbcolor
3834 2578 M
42 18 V
stroke
LT0
LC0 setrgbcolor
1810 3214 M
43 60 V
stroke
LT0
LC0 setrgbcolor
2051 3356 M
-198 -82 V
stroke
LT0
LC0 setrgbcolor
3480 3012 M
198 -215 V
stroke
LT0
LC0 setrgbcolor
3635 2771 M
43 26 V
stroke
LT0
LC1 setrgbcolor
4626 2274 M
43 6 V
stroke
LT0
LC1 setrgbcolor
4797 2311 M
-128 -31 V
stroke
LT0
LC1 setrgbcolor
4867 2329 M
-66 -17 V
stroke
LT0
LC0 setrgbcolor
2447 3475 M
42 56 V
stroke
LT0
LC0 setrgbcolor
2688 3537 M
-199 -6 V
stroke
LT0
LC0 setrgbcolor
5503 2604 M
-141 -60 V
stroke
LT0
LC0 setrgbcolor
3282 3214 M
198 -202 V
stroke
LT0
LC0 setrgbcolor
3438 2977 M
42 35 V
stroke
LT0
LC0 setrgbcolor
2645 3480 M
43 57 V
stroke
LT0
LC0 setrgbcolor
2886 3487 M
-198 50 V
stroke
LT0
LC0 setrgbcolor
2009 3288 M
42 68 V
stroke
LT0
LC0 setrgbcolor
2249 3428 M
-198 -72 V
stroke
LT0
LC0 setrgbcolor
3084 3378 M
198 -164 V
stroke
LT0
LC0 setrgbcolor
3240 3170 M
42 44 V
stroke
LT0
LC1 setrgbcolor
4825 2321 M
42 8 V
stroke
LT0
LC1 setrgbcolor
5065 2404 M
-198 -75 V
stroke
LT0
LC0 setrgbcolor
2844 3432 M
42 55 V
stroke
LT0
LC0 setrgbcolor
3084 3378 M
-198 109 V
stroke
LT0
LC0 setrgbcolor
3042 3327 M
42 51 V
stroke
LT0
LC0 setrgbcolor
1570 3081 M
42 60 V
stroke
LT0
LC0 setrgbcolor
1810 3214 M
-198 -73 V
stroke
LT0
LC0 setrgbcolor
5461 2573 M
42 31 V
stroke
LT0
LC0 setrgbcolor
2207 3354 M
42 74 V
stroke
LT0
LC0 setrgbcolor
2447 3475 M
-198 -47 V
stroke
LT0
LC0 setrgbcolor
3834 2578 M
63 -50 V
stroke
LT0
LC1 setrgbcolor
4188 2331 M
42 -14 V
stroke
LT0
LC1 setrgbcolor
4428 2269 M
-198 48 V
stroke
LT0
LC1 setrgbcolor
5023 2393 M
42 11 V
stroke
LT0
LC1 setrgbcolor
5263 2490 M
-198 -86 V
stroke
LT0
LC0 setrgbcolor
3635 2771 M
199 -193 V
stroke
LT0
LC0 setrgbcolor
3791 2571 M
43 7 V
stroke
LT0
LC1 setrgbcolor
4386 2287 M
42 -18 V
stroke
LT0
LC1 setrgbcolor
4626 2274 M
-198 -5 V
stroke
LT0
LC0 setrgbcolor
1768 3144 M
42 70 V
stroke
LT0
LC0 setrgbcolor
2009 3288 M
-199 -74 V
stroke
LT0
LC0 setrgbcolor
3438 2977 M
197 -206 V
stroke
LT0
LC0 setrgbcolor
3594 2748 M
41 23 V
stroke
LT0
LC0 setrgbcolor
2405 3396 M
42 79 V
stroke
LT0
LC0 setrgbcolor
2645 3480 M
-198 -5 V
stroke
LT0
LC1 setrgbcolor
4584 2291 M
42 -17 V
stroke
LT0
LC1 setrgbcolor
4825 2321 M
-199 -47 V
stroke
LT0
LC1 setrgbcolor
5221 2475 M
42 15 V
stroke
LT0
LC1 setrgbcolor
5345 2524 M
-82 -34 V
stroke
LT0
LC0 setrgbcolor
3240 3170 M
198 -193 V
stroke
LT0
LC0 setrgbcolor
3396 2938 M
42 39 V
stroke
LT0
LC0 setrgbcolor
1967 3208 M
42 80 V
stroke
LT0
LC0 setrgbcolor
2207 3354 M
-198 -66 V
stroke
LT0
LC0 setrgbcolor
2603 3400 M
42 80 V
stroke
LT0
LC0 setrgbcolor
2844 3432 M
-199 48 V
stroke
LT0
LC0 setrgbcolor
3042 3327 M
198 -157 V
stroke
LT0
LC0 setrgbcolor
3198 3115 M
42 55 V
stroke
LT0
LC0 setrgbcolor
2801 3356 M
43 76 V
stroke
LT0
LC0 setrgbcolor
3042 3327 M
-198 105 V
stroke
LT0
LC0 setrgbcolor
3000 3259 M
42 68 V
stroke
LT0
LC1 setrgbcolor
4782 2333 M
43 -12 V
stroke
LT0
LC1 setrgbcolor
5023 2393 M
-198 -72 V
stroke
LT0
LC0 setrgbcolor
1528 3017 M
42 64 V
stroke
LT0
LC0 setrgbcolor
1768 3144 M
-198 -63 V
stroke
LT0
LC0 setrgbcolor
5419 2554 M
42 19 V
stroke
LT0
LC0 setrgbcolor
5410 2552 M
51 21 V
stroke
LT0
LC0 setrgbcolor
2165 3265 M
42 89 V
stroke
LT0
LC0 setrgbcolor
2405 3396 M
-198 -42 V
stroke
LT0
LC1 setrgbcolor
4981 2399 M
42 -6 V
stroke
LT0
LC1 setrgbcolor
5221 2475 M
-198 -82 V
stroke
LT0
LC0 setrgbcolor
3791 2571 M
51 -37 V
stroke
LT0
LC0 setrgbcolor
1726 3068 M
42 76 V
stroke
LT0
LC0 setrgbcolor
1967 3208 M
-199 -64 V
stroke
LT0
LC1 setrgbcolor
4146 2361 M
42 -30 V
stroke
LT0
LC1 setrgbcolor
3948 2447 M
240 -116 V
stroke
LT0
LC1 setrgbcolor
4386 2287 M
-198 44 V
stroke
LT0
LC0 setrgbcolor
3594 2748 M
197 -177 V
stroke
LT0
LC0 setrgbcolor
3749 2573 M
42 -2 V
stroke
LT0
LC0 setrgbcolor
2363 3301 M
42 95 V
stroke
LT0
LC0 setrgbcolor
2603 3400 M
-198 -4 V
stroke
LT0
LC1 setrgbcolor
4344 2322 M
42 -35 V
stroke
LT0
LC1 setrgbcolor
4584 2291 M
-198 -4 V
stroke
LT0
LC0 setrgbcolor
3396 2938 M
198 -190 V
stroke
LT0
LC0 setrgbcolor
3552 2729 M
42 19 V
stroke
LT0
LC0 setrgbcolor
3198 3115 M
198 -177 V
stroke
LT0
LC0 setrgbcolor
3354 2895 M
42 43 V
stroke
LT0
LC0 setrgbcolor
1924 3121 M
43 87 V
stroke
LT0
LC0 setrgbcolor
2165 3265 M
-198 -57 V
stroke
LT0
LC0 setrgbcolor
2561 3304 M
42 96 V
stroke
LT0
LC0 setrgbcolor
2801 3356 M
-198 44 V
stroke
LT0
LC1 setrgbcolor
5179 2474 M
42 1 V
stroke
LT0
LC1 setrgbcolor
5419 2554 M
-198 -79 V
stroke
LT0
LC1 setrgbcolor
4542 2325 M
42 -34 V
stroke
LT0
LC1 setrgbcolor
4782 2333 M
-198 -42 V
stroke
LT0
LC0 setrgbcolor
3000 3259 M
198 -144 V
stroke
LT0
LC0 setrgbcolor
3156 3051 M
42 64 V
stroke
LT0
LC0 setrgbcolor
2759 3264 M
42 92 V
stroke
LT0
LC0 setrgbcolor
3000 3259 M
-199 97 V
stroke
LT0
LC0 setrgbcolor
2958 3179 M
42 80 V
stroke
LT0
LC0 setrgbcolor
1486 2952 M
42 65 V
stroke
LT0
LC0 setrgbcolor
1726 3068 M
-198 -51 V
stroke
LT0
LC1 setrgbcolor
4740 2361 M
42 -28 V
stroke
LT0
LC1 setrgbcolor
4981 2399 M
-199 -66 V
stroke
LT0
LC0 setrgbcolor
2123 3167 M
42 98 V
stroke
LT0
LC0 setrgbcolor
2363 3301 M
-198 -36 V
stroke
LT0
LC1 setrgbcolor
5377 2545 M
42 9 V
stroke
LT0
LC0 setrgbcolor
1684 2991 M
42 77 V
stroke
LT0
LC0 setrgbcolor
1924 3121 M
-198 -53 V
stroke
LT0
LC0 setrgbcolor
2321 3196 M
42 105 V
stroke
LT0
LC0 setrgbcolor
2561 3304 M
-198 -3 V
stroke
LT0
LC1 setrgbcolor
4939 2417 M
42 -18 V
stroke
LT0
LC1 setrgbcolor
5179 2474 M
-198 -75 V
stroke
LT0
LC0 setrgbcolor
3749 2573 M
52 -33 V
stroke
LT0
LC1 setrgbcolor
3905 2473 M
43 -26 V
stroke
LT0
LC1 setrgbcolor
3872 2489 M
76 -42 V
stroke
LT0
LC1 setrgbcolor
4146 2361 M
-198 86 V
stroke
LT0
LC0 setrgbcolor
3552 2729 M
197 -156 V
stroke
LT0
LC0 setrgbcolor
3707 2579 M
42 -6 V
stroke
LT0
LC1 setrgbcolor
4104 2400 M
42 -39 V
stroke
LT0
LC1 setrgbcolor
4344 2322 M
-198 39 V
stroke
LT0
LC0 setrgbcolor
3354 2895 M
198 -166 V
stroke
LT0
LC0 setrgbcolor
3510 2711 M
42 18 V
stroke
LT0
LC0 setrgbcolor
2519 3198 M
42 106 V
stroke
LT0
LC0 setrgbcolor
2759 3264 M
-198 40 V
stroke
LT0
LC0 setrgbcolor
1882 3032 M
42 89 V
stroke
LT0
LC0 setrgbcolor
2123 3167 M
-199 -46 V
stroke
LT0
LC1 setrgbcolor
4302 2366 M
42 -44 V
stroke
LT0
LC1 setrgbcolor
4542 2325 M
-198 -3 V
stroke
LT0
LC0 setrgbcolor
3156 3051 M
198 -156 V
stroke
LT0
LC0 setrgbcolor
3312 2852 M
42 43 V
stroke
LT0
LC0 setrgbcolor
2717 3164 M
42 100 V
stroke
LT0
LC0 setrgbcolor
2958 3179 M
-199 85 V
stroke
LT0
LC0 setrgbcolor
2958 3179 M
198 -128 V
stroke
LT0
LC0 setrgbcolor
3114 2983 M
42 68 V
stroke
LT0
LC1 setrgbcolor
5137 2482 M
42 -8 V
stroke
LT0
LC1 setrgbcolor
5377 2545 M
-198 -71 V
stroke
LT0
LC0 setrgbcolor
2915 3091 M
43 88 V
stroke
LT0
LC1 setrgbcolor
4500 2367 M
42 -42 V
stroke
LT0
LC1 setrgbcolor
4740 2361 M
-198 -36 V
stroke
LT0
LC0 setrgbcolor
1444 2888 M
42 64 V
stroke
LT0
LC0 setrgbcolor
1684 2991 M
-198 -39 V
stroke
LT0
LC0 setrgbcolor
2080 3068 M
43 99 V
stroke
LT0
LC0 setrgbcolor
2321 3196 M
-198 -29 V
stroke
LT0
LC1 setrgbcolor
5335 2543 M
42 2 V
stroke
LT0
LC1 setrgbcolor
4698 2397 M
42 -36 V
stroke
LT0
LC1 setrgbcolor
4939 2417 M
-199 -56 V
stroke
LT0
LC0 setrgbcolor
1642 2917 M
42 74 V
stroke
LT0
LC0 setrgbcolor
1882 3032 M
-198 -41 V
stroke
LT0
LC0 setrgbcolor
2279 3090 M
42 106 V
stroke
LT0
LC0 setrgbcolor
2519 3198 M
-198 -2 V
stroke
LT0
LC0 setrgbcolor
2477 3090 M
42 108 V
stroke
LT0
LC0 setrgbcolor
2717 3164 M
-198 34 V
stroke
LT0
LC0 setrgbcolor
1840 2947 M
42 85 V
stroke
LT0
LC0 setrgbcolor
2080 3068 M
-198 -36 V
stroke
LT0
LC1 setrgbcolor
4896 2443 M
43 -26 V
stroke
LT0
LC1 setrgbcolor
5137 2482 M
-198 -65 V
stroke
LT0
LC0 setrgbcolor
3510 2711 M
197 -132 V
stroke
LT0
LC0 setrgbcolor
3665 2587 M
42 -8 V
stroke
LT0
LC0 setrgbcolor
3772 2544 M
-65 35 V
stroke
LT0
LC1 setrgbcolor
3863 2500 M
42 -27 V
stroke
LT0
LC1 setrgbcolor
3785 2529 M
120 -56 V
stroke
LT0
LC1 setrgbcolor
4104 2400 M
-199 73 V
stroke
LT0
LC0 setrgbcolor
3312 2852 M
198 -141 V
stroke
LT0
LC0 setrgbcolor
3468 2694 M
42 17 V
stroke
LT0
LC0 setrgbcolor
2675 3061 M
42 103 V
stroke
LT0
LC0 setrgbcolor
2915 3091 M
-198 73 V
stroke
LT0
LC1 setrgbcolor
4062 2441 M
42 -41 V
stroke
LT0
LC1 setrgbcolor
4302 2366 M
-198 34 V
stroke
LT0
LC0 setrgbcolor
3114 2983 M
198 -131 V
stroke
LT0
LC0 setrgbcolor
3270 2807 M
42 45 V
stroke
LT0
LC0 setrgbcolor
2873 3002 M
42 89 V
stroke
LT0
LC0 setrgbcolor
3114 2983 M
-199 108 V
stroke
LT0
LC0 setrgbcolor
3071 2914 M
43 69 V
stroke
LT0
LC0 setrgbcolor
2038 2973 M
42 95 V
stroke
LT0
LC0 setrgbcolor
2279 3090 M
-199 -22 V
stroke
LT0
LC1 setrgbcolor
4260 2412 M
42 -46 V
stroke
LT0
LC1 setrgbcolor
4500 2367 M
-198 -1 V
stroke
LT0
LC0 setrgbcolor
1402 2829 M
42 59 V
stroke
LT0
LC0 setrgbcolor
1642 2917 M
-198 -29 V
stroke
LT0
LC1 setrgbcolor
5095 2496 M
42 -14 V
stroke
LT0
LC1 setrgbcolor
5335 2543 M
-198 -61 V
stroke
LT0
LC1 setrgbcolor
4458 2412 M
42 -45 V
stroke
LT0
LC1 setrgbcolor
4698 2397 M
-198 -30 V
stroke
LT0
LC0 setrgbcolor
2237 2988 M
42 102 V
stroke
LT0
LC0 setrgbcolor
2477 3090 M
-198 0 V
stroke
LT0
LC0 setrgbcolor
1600 2848 M
42 69 V
stroke
LT0
LC0 setrgbcolor
1840 2947 M
-198 -30 V
stroke
LT0
LC1 setrgbcolor
5293 2546 M
42 -3 V
stroke
LT0
LC0 setrgbcolor
2435 2987 M
42 103 V
stroke
LT0
LC0 setrgbcolor
2675 3061 M
-198 29 V
stroke
LT0
LC1 setrgbcolor
4656 2434 M
42 -37 V
stroke
LT0
LC1 setrgbcolor
4896 2443 M
-198 -46 V
stroke
LT0
LC0 setrgbcolor
1798 2869 M
42 78 V
stroke
LT0
LC0 setrgbcolor
2038 2973 M
-198 -26 V
stroke
LT0
LC0 setrgbcolor
2633 2963 M
42 98 V
stroke
LT0
LC0 setrgbcolor
2873 3002 M
-198 59 V
stroke
LT0
LC0 setrgbcolor
2831 2916 M
42 86 V
stroke
LT0
LC0 setrgbcolor
3071 2914 M
-198 88 V
stroke
LT0
LC0 setrgbcolor
3029 2847 M
42 67 V
stroke
LT0
LC0 setrgbcolor
3270 2807 M
-199 107 V
stroke
LT0
LC0 setrgbcolor
3270 2807 M
198 -113 V
stroke
LT0
LC0 setrgbcolor
3426 2675 M
42 19 V
stroke
LT0
LC0 setrgbcolor
3665 2587 M
-197 107 V
stroke
LT0
LC0 setrgbcolor
3228 2764 M
42 43 V
stroke
LT0
LC0 setrgbcolor
3623 2592 M
42 -5 V
stroke
LT0
LC0 setrgbcolor
3757 2546 M
-92 41 V
stroke
LT0
LC1 setrgbcolor
4854 2470 M
42 -27 V
stroke
LT0
LC1 setrgbcolor
5095 2496 M
-199 -53 V
stroke
LT0
LC0 setrgbcolor
1996 2886 M
42 87 V
stroke
LT0
LC0 setrgbcolor
2237 2988 M
-199 -15 V
stroke
LT0
LC1 setrgbcolor
3821 2523 M
42 -23 V
stroke
LT0
LC1 setrgbcolor
3752 2542 M
111 -42 V
stroke
LT0
LC1 setrgbcolor
4062 2441 M
-199 59 V
stroke
LT0
LC0 setrgbcolor
1359 2775 M
43 54 V
stroke
LT0
LC0 setrgbcolor
1600 2848 M
-198 -19 V
stroke
LT0
LC1 setrgbcolor
4019 2477 M
43 -36 V
stroke
LT0
LC1 setrgbcolor
4260 2412 M
-198 29 V
stroke
LT0
LC0 setrgbcolor
2194 2895 M
43 93 V
stroke
LT0
LC0 setrgbcolor
2435 2987 M
-198 1 V
stroke
LT0
LC1 setrgbcolor
4218 2454 M
42 -42 V
stroke
LT0
LC1 setrgbcolor
4458 2412 M
-198 0 V
stroke
LT0
LC1 setrgbcolor
5053 2511 M
42 -15 V
stroke
LT0
LC1 setrgbcolor
5293 2546 M
-198 -50 V
stroke
LT0
LC0 setrgbcolor
1558 2787 M
42 61 V
stroke
LT0
LC0 setrgbcolor
1798 2869 M
-198 -21 V
stroke
LT0
LC0 setrgbcolor
2393 2892 M
42 95 V
stroke
LT0
LC0 setrgbcolor
2633 2963 M
-198 24 V
stroke
LT0
LC1 setrgbcolor
4416 2452 M
42 -40 V
stroke
LT0
LC1 setrgbcolor
4656 2434 M
-198 -22 V
stroke
LT0
LC0 setrgbcolor
1756 2799 M
42 70 V
stroke
LT0
LC0 setrgbcolor
1996 2886 M
-198 -17 V
stroke
LT0
LC1 setrgbcolor
5251 2549 M
42 -3 V
stroke
LT0
LC0 setrgbcolor
2591 2873 M
42 90 V
stroke
LT0
LC0 setrgbcolor
2831 2916 M
-198 47 V
stroke
LT0
LC1 setrgbcolor
4614 2467 M
42 -33 V
stroke
LT0
LC1 setrgbcolor
4854 2470 M
-198 -36 V
stroke
LT0
LC0 setrgbcolor
2789 2837 M
42 79 V
stroke
LT0
LC0 setrgbcolor
3029 2847 M
-198 69 V
stroke
LT0
LC0 setrgbcolor
2987 2785 M
42 62 V
stroke
LT0
LC0 setrgbcolor
3228 2764 M
-199 83 V
stroke
LT0
LC0 setrgbcolor
1954 2809 M
42 77 V
stroke
LT0
LC0 setrgbcolor
2194 2895 M
-198 -9 V
stroke
LT0
LC0 setrgbcolor
3185 2722 M
43 42 V
stroke
LT0
LC0 setrgbcolor
3426 2675 M
-198 89 V
stroke
LT0
LC0 setrgbcolor
3384 2655 M
42 20 V
stroke
LT0
LC0 setrgbcolor
3623 2592 M
-197 83 V
stroke
LT0
LC0 setrgbcolor
3582 2592 M
41 0 V
stroke
LT0
LC0 setrgbcolor
3748 2548 M
-125 44 V
stroke
LT0
LC0 setrgbcolor
1317 2726 M
42 49 V
stroke
LT0
LC0 setrgbcolor
1558 2787 M
-199 -12 V
stroke
LT0
LC1 setrgbcolor
4812 2493 M
42 -23 V
stroke
LT0
LC1 setrgbcolor
5053 2511 M
-199 -41 V
stroke
LT0
LC1 setrgbcolor
3784 2539 M
37 -16 V
stroke
LT0
LC1 setrgbcolor
3758 2541 M
63 -18 V
stroke
LT0
LC1 setrgbcolor
4019 2477 M
-198 46 V
stroke
LT0
LC0 setrgbcolor
2152 2814 M
42 81 V
stroke
LT0
LC0 setrgbcolor
2393 2892 M
-199 3 V
stroke
LT0
LC1 setrgbcolor
3977 2505 M
42 -28 V
stroke
LT0
LC1 setrgbcolor
4218 2454 M
-199 23 V
stroke
LT0
LC0 setrgbcolor
1516 2732 M
42 55 V
stroke
LT0
LC0 setrgbcolor
1756 2799 M
-198 -12 V
stroke
LT0
LC0 setrgbcolor
2350 2810 M
43 82 V
stroke
LT0
LC0 setrgbcolor
2591 2873 M
-198 19 V
stroke
LT0
LC1 setrgbcolor
5010 2522 M
43 -11 V
stroke
LT0
LC1 setrgbcolor
5251 2549 M
-198 -38 V
stroke
LT0
LC1 setrgbcolor
4175 2486 M
43 -32 V
stroke
LT0
LC1 setrgbcolor
4416 2452 M
-198 2 V
stroke
LT0
LC0 setrgbcolor
2549 2794 M
42 79 V
stroke
LT0
LC0 setrgbcolor
2789 2837 M
-198 36 V
stroke
LT0
LC0 setrgbcolor
1714 2738 M
42 61 V
stroke
LT0
LC0 setrgbcolor
1954 2809 M
-198 -10 V
stroke
LT0
LC1 setrgbcolor
4374 2483 M
42 -31 V
stroke
LT0
LC1 setrgbcolor
4614 2467 M
-198 -15 V
stroke
LT0
LC0 setrgbcolor
2747 2767 M
42 70 V
stroke
LT0
LC0 setrgbcolor
2987 2785 M
-198 52 V
stroke
LT0
LC1 setrgbcolor
5209 2551 M
42 -2 V
stroke
LT0
LC0 setrgbcolor
1912 2742 M
42 67 V
stroke
LT0
LC0 setrgbcolor
2152 2814 M
-198 -5 V
stroke
LT0
LC0 setrgbcolor
2945 2728 M
42 57 V
stroke
LT0
LC0 setrgbcolor
3185 2722 M
-198 63 V
stroke
LT0
LC0 setrgbcolor
3143 2682 M
42 40 V
stroke
LT0
LC0 setrgbcolor
3384 2655 M
-199 67 V
stroke
LT0
LC1 setrgbcolor
4572 2493 M
42 -26 V
stroke
LT0
LC1 setrgbcolor
4812 2493 M
-198 -26 V
stroke
LT0
LC0 setrgbcolor
3342 2633 M
42 22 V
stroke
LT0
LC0 setrgbcolor
3582 2592 M
-198 63 V
stroke
LT0
LC0 setrgbcolor
1516 2732 M
-199 -6 V
stroke
LT0
LC0 setrgbcolor
2110 2743 M
42 71 V
stroke
LT0
LC0 setrgbcolor
2350 2810 M
-198 4 V
stroke
LT0
LC0 setrgbcolor
3540 2587 M
42 5 V
stroke
LT0
LC0 setrgbcolor
3757 2546 M
-175 46 V
stroke
LT0
LC1 setrgbcolor
4770 2510 M
42 -17 V
stroke
LT0
LC1 setrgbcolor
5010 2522 M
-198 -29 V
stroke
LT0
LC1 setrgbcolor
3977 2505 M
-163 29 V
stroke
LT0
LC0 setrgbcolor
2308 2739 M
42 71 V
stroke
LT0
LC0 setrgbcolor
2549 2794 M
-199 16 V
stroke
LT0
LC0 setrgbcolor
1714 2738 M
-198 -6 V
stroke
LT0
LC1 setrgbcolor
3935 2521 M
42 -16 V
stroke
LT0
LC1 setrgbcolor
4175 2486 M
-198 19 V
stroke
LT0
LC0 setrgbcolor
2507 2726 M
42 68 V
stroke
LT0
LC0 setrgbcolor
2747 2767 M
-198 27 V
stroke
LT0
LC1 setrgbcolor
4990 2525 M
20 -3 V
stroke
LT0
LC1 setrgbcolor
5043 2527 M
-33 -5 V
stroke
LT0
LC1 setrgbcolor
5209 2551 M
-98 -14 V
stroke
LT0
LC0 setrgbcolor
1912 2742 M
-198 -4 V
stroke
LT0
LC1 setrgbcolor
4133 2507 M
42 -21 V
stroke
LT0
LC1 setrgbcolor
4374 2483 M
-199 3 V
stroke
LT0
LC0 setrgbcolor
2705 2706 M
42 61 V
stroke
LT0
LC0 setrgbcolor
2945 2728 M
-198 39 V
stroke
LT0
LC0 setrgbcolor
2110 2743 M
-198 -1 V
stroke
LT0
LC0 setrgbcolor
2903 2678 M
42 50 V
stroke
LT0
LC0 setrgbcolor
3143 2682 M
-198 46 V
stroke
LT0
LC1 setrgbcolor
5166 2548 M
43 3 V
stroke
LT0
LC1 setrgbcolor
4332 2503 M
42 -20 V
stroke
LT0
LC1 setrgbcolor
4572 2493 M
-198 -10 V
stroke
LT0
LC0 setrgbcolor
3101 2645 M
42 37 V
stroke
LT0
LC0 setrgbcolor
3342 2633 M
-199 49 V
stroke
LT0
LC0 setrgbcolor
2308 2739 M
-198 4 V
stroke
LT0
LC0 setrgbcolor
3299 2610 M
43 23 V
stroke
LT0
LC0 setrgbcolor
3540 2587 M
-198 46 V
stroke
LT0
LC1 setrgbcolor
4530 2508 M
42 -15 V
stroke
LT0
LC1 setrgbcolor
4770 2510 M
-198 -17 V
stroke
LT0
LC0 setrgbcolor
3498 2576 M
42 11 V
stroke
LT0
LC0 setrgbcolor
3737 2549 M
-197 38 V
stroke
LT0
LC0 setrgbcolor
2507 2726 M
-199 13 V
stroke
LT0
LC1 setrgbcolor
4728 2518 M
42 -8 V
stroke
LT0
LC1 setrgbcolor
4910 2523 M
-140 -13 V
stroke
LT0
LC0 setrgbcolor
3695 2549 M
42 0 V
stroke
LT0
LC0 setrgbcolor
3875 2530 M
-138 19 V
stroke
LT0
LC0 setrgbcolor
2705 2706 M
-198 20 V
stroke
LT0
LC1 setrgbcolor
3893 2528 M
42 -7 V
stroke
LT0
LC1 setrgbcolor
3695 2549 M
240 -28 V
stroke
LT0
LC1 setrgbcolor
4133 2507 M
-198 14 V
stroke
LT0
LC0 setrgbcolor
2903 2678 M
-198 28 V
stroke
LT0
LC1 setrgbcolor
4091 2517 M
42 -10 V
stroke
LT0
LC1 setrgbcolor
4332 2503 M
-199 4 V
stroke
LT0
LC0 setrgbcolor
3101 2645 M
-198 33 V
stroke
LT0
LC0 setrgbcolor
5124 2541 M
42 7 V
stroke
LT0
LC0 setrgbcolor
4926 2529 M
240 19 V
stroke
LT0
LC0 setrgbcolor
3299 2610 M
-198 35 V
stroke
LT0
LC1 setrgbcolor
4289 2512 M
43 -9 V
stroke
LT0
LC1 setrgbcolor
4530 2508 M
-198 -5 V
stroke
LT0
LC0 setrgbcolor
3498 2576 M
-199 34 V
stroke
LT0
LC1 setrgbcolor
4488 2513 M
42 -5 V
stroke
LT0
LC1 setrgbcolor
4728 2518 M
-198 -10 V
stroke
LT0
LC0 setrgbcolor
3695 2549 M
-197 27 V
stroke
LT0
LC1 setrgbcolor
3893 2528 M
-198 21 V
stroke
LT0
LC1 setrgbcolor
4686 2517 M
42 1 V
stroke
LT0
LC1 setrgbcolor
4091 2517 M
-198 11 V
stroke
LT0
LC0 setrgbcolor
4884 2522 M
42 7 V
stroke
LT0
LC0 setrgbcolor
4686 2517 M
240 12 V
stroke
LT0
LC0 setrgbcolor
5124 2541 M
-198 -12 V
stroke
LT0
LC1 setrgbcolor
4289 2512 M
-198 5 V
stroke
LT0
LC0 setrgbcolor
5082 2528 M
42 13 V
stroke
LT0
LC1 setrgbcolor
4488 2513 M
-199 -1 V
stroke
LT0
LC1 setrgbcolor
4686 2517 M
-198 -4 V
stroke
LT0
LC0 setrgbcolor
4884 2522 M
-198 -5 V
stroke
LT0
LC0 setrgbcolor
5082 2528 M
-198 -6 V
% End plot #1
% Begin plot #2
stroke
LCb setrgbcolor
/Helvetica findfont 140 scalefont setfont
/vshift -46 def
5316 4416 M
(gx\(x,y\)) Rshow
1.000 UL
LT0
LC0 setrgbcolor
5400 4416 M
399 0 V
stroke
LT1
LC1 setrgbcolor
LTb
5316 4276 M
[ [(Helvetica) 140.0 0.0 true true 0 (     0.6)]
] -46.7 MRshow
1.000 UL
LT2
LC2 setrgbcolor
5400 4276 M
399 0 V
stroke
LT2
LC2 setrgbcolor
2685 1331 M
-21 2 V
stroke
LT2
LC2 setrgbcolor
2664 1333 M
42 31 V
stroke
LT2
LC2 setrgbcolor
2706 1364 M
26 1 V
stroke
LT2
LC2 setrgbcolor
2736 1363 M
-4 2 V
stroke
LT2
LC2 setrgbcolor
2694 1332 M
42 31 V
stroke
LT2
LC2 setrgbcolor
2685 1331 M
9 1 V
stroke
LTb
5316 4136 M
[ [(Helvetica) 140.0 0.0 true true 0 (     0.5)]
] -46.7 MRshow
1.000 UL
LT3
LC3 setrgbcolor
5400 4136 M
399 0 V
stroke
LT3
LC3 setrgbcolor
2395 1270 M
-54 9 V
stroke
LT3
LC3 setrgbcolor
2341 1279 M
-102 28 V
stroke
LT3
LC3 setrgbcolor
2239 1307 M
-16 9 V
stroke
LT3
LC3 setrgbcolor
2223 1316 M
-13 32 V
stroke
LT3
LC3 setrgbcolor
2210 1348 M
42 31 V
stroke
LT3
LC3 setrgbcolor
2252 1379 M
97 29 V
stroke
LT3
LC3 setrgbcolor
2349 1408 M
37 7 V
stroke
LT3
LC3 setrgbcolor
2386 1415 M
166 19 V
stroke
LT3
LC3 setrgbcolor
2552 1434 M
74 5 V
stroke
LT3
LC3 setrgbcolor
2831 1437 M
-205 2 V
stroke
LT3
LC3 setrgbcolor
2954 1420 M
-123 17 V
stroke
LT3
LC3 setrgbcolor
3002 1411 M
-48 9 V
stroke
LT3
LC3 setrgbcolor
3039 1385 M
-37 26 V
stroke
LT3
LC3 setrgbcolor
3041 1353 M
-2 32 V
stroke
LT3
LC3 setrgbcolor
2999 1322 M
42 31 V
stroke
LT3
LC3 setrgbcolor
2913 1293 M
86 29 V
stroke
LT3
LC3 setrgbcolor
2812 1272 M
101 21 V
stroke
LT3
LC3 setrgbcolor
2744 1266 M
68 6 V
stroke
LT3
LC3 setrgbcolor
2586 1258 M
158 8 V
stroke
LT3
LC3 setrgbcolor
2586 1258 M
-191 12 V
stroke
LTb
5316 3996 M
[ [(Helvetica) 140.0 0.0 true true 0 (     0.4)]
] -46.7 MRshow
1.000 UL
LT4
LC4 setrgbcolor
5400 3996 M
399 0 V
stroke
LT4
LC4 setrgbcolor
2159 1249 M
-23 5 V
stroke
LT4
LC4 setrgbcolor
2136 1254 M
-114 36 V
stroke
LT4
LC4 setrgbcolor
2022 1290 M
-8 4 V
stroke
LT4
LC4 setrgbcolor
2014 1294 M
-35 30 V
stroke
LT4
LC4 setrgbcolor
1979 1324 M
4 32 V
stroke
LT4
LC4 setrgbcolor
1983 1356 M
42 31 V
stroke
LT4
LC4 setrgbcolor
2025 1387 M
81 29 V
stroke
LT4
LC4 setrgbcolor
2106 1416 M
108 25 V
stroke
LT4
LC4 setrgbcolor
2214 1441 M
18 3 V
stroke
LT4
LC4 setrgbcolor
2232 1444 M
199 26 V
stroke
LT4
LC4 setrgbcolor
2431 1470 M
34 3 V
stroke
LT4
LC4 setrgbcolor
2465 1473 M
222 11 V
stroke
LT4
LC4 setrgbcolor
2890 1481 M
-203 3 V
stroke
LT4
LC4 setrgbcolor
3071 1462 M
-181 19 V
stroke
LT4
LC4 setrgbcolor
3125 1447 M
-54 15 V
stroke
LT4
LC4 setrgbcolor
3208 1412 M
-83 35 V
stroke
LT4
LC4 setrgbcolor
3209 1411 M
-1 1 V
stroke
LT4
LC4 setrgbcolor
3216 1379 M
-7 32 V
stroke
LT4
LC4 setrgbcolor
3196 1348 M
20 31 V
stroke
LT4
LC4 setrgbcolor
3154 1317 M
42 31 V
stroke
LT4
LC4 setrgbcolor
3089 1287 M
65 30 V
stroke
LT4
LC4 setrgbcolor
3001 1258 M
88 29 V
stroke
LT4
LC4 setrgbcolor
2997 1258 M
4 0 V
stroke
LT4
LC4 setrgbcolor
2830 1231 M
167 27 V
stroke
LT4
LC4 setrgbcolor
2742 1221 M
88 10 V
stroke
LT4
LC4 setrgbcolor
2527 1215 M
215 6 V
stroke
LT4
LC4 setrgbcolor
2527 1215 M
-194 10 V
stroke
LT4
LC4 setrgbcolor
2333 1225 M
-174 24 V
stroke
LTb
5316 3856 M
[ [(Helvetica) 140.0 0.0 true true 0 (     0.3)]
] -46.7 MRshow
1.000 UL
LT5
LC5 setrgbcolor
5400 3856 M
399 0 V
stroke
LT5
LC5 setrgbcolor
2277 1183 M
-19 2 V
stroke
LT5
LC5 setrgbcolor
2258 1185 M
-162 18 V
stroke
LT5
LC5 setrgbcolor
2096 1203 M
-133 24 V
stroke
LT5
LC5 setrgbcolor
1963 1227 M
-31 7 V
stroke
LT5
LC5 setrgbcolor
1932 1234 M
-94 30 V
stroke
LT5
LC5 setrgbcolor
1838 1264 M
-43 22 V
stroke
LT5
LC5 setrgbcolor
1795 1286 M
-20 12 V
stroke
LT5
LC5 setrgbcolor
1775 1298 M
-22 33 V
stroke
LT5
LC5 setrgbcolor
1753 1331 M
12 32 V
stroke
LT5
LC5 setrgbcolor
1765 1363 M
42 31 V
stroke
LT5
LC5 setrgbcolor
1807 1394 M
72 30 V
stroke
LT5
LC5 setrgbcolor
1879 1424 M
106 28 V
stroke
LT5
LC5 setrgbcolor
1985 1452 M
51 10 V
stroke
LT5
LC5 setrgbcolor
2036 1462 M
97 18 V
stroke
LT5
LC5 setrgbcolor
2133 1480 M
163 21 V
stroke
LT5
LC5 setrgbcolor
2296 1501 M
46 4 V
stroke
LT5
LC5 setrgbcolor
2342 1505 M
186 14 V
stroke
LT5
LC5 setrgbcolor
2528 1519 M
193 6 V
stroke
LT5
LC5 setrgbcolor
2721 1525 M
23 0 V
stroke
LT5
LC5 setrgbcolor
2946 1522 M
-202 3 V
stroke
LT5
LC5 setrgbcolor
3025 1515 M
-79 7 V
stroke
LT5
LC5 setrgbcolor
3131 1506 M
-106 9 V
stroke
LT5
LC5 setrgbcolor
3272 1474 M
-141 32 V
stroke
LT5
LC5 setrgbcolor
3289 1470 M
-17 4 V
stroke
LT5
LC5 setrgbcolor
3334 1440 M
-45 30 V
stroke
LT5
LC5 setrgbcolor
3353 1407 M
-19 33 V
stroke
LT5
LC5 setrgbcolor
3348 1375 M
5 32 V
stroke
LT5
LC5 setrgbcolor
3323 1344 M
25 31 V
stroke
LT5
LC5 setrgbcolor
3281 1313 M
42 31 V
stroke
LT5
LC5 setrgbcolor
3221 1282 M
60 31 V
stroke
LT5
LC5 setrgbcolor
3142 1253 M
79 29 V
stroke
LT5
LC5 setrgbcolor
3039 1224 M
103 29 V
stroke
LT5
LC5 setrgbcolor
2921 1200 M
118 24 V
stroke
LT5
LC5 setrgbcolor
2893 1197 M
28 3 V
stroke
LT5
LC5 setrgbcolor
2683 1177 M
210 20 V
stroke
LT5
LC5 setrgbcolor
2561 1175 M
122 2 V
stroke
LT5
LC5 setrgbcolor
2471 1174 M
90 1 V
stroke
LT5
LC5 setrgbcolor
2471 1174 M
-194 9 V
stroke
LTb
5316 3716 M
[ [(Helvetica) 140.0 0.0 true true 0 (     0.2)]
] -46.7 MRshow
1.000 UL
LT6
LC6 setrgbcolor
5400 3716 M
399 0 V
stroke
LT6
LC6 setrgbcolor
1622 1239 M
-60 28 V
stroke
LT6
LC6 setrgbcolor
1698 1215 M
-76 24 V
stroke
LT6
LC6 setrgbcolor
1748 1202 M
-50 13 V
stroke
LT6
LC6 setrgbcolor
1857 1179 M
-109 23 V
stroke
LT6
LC6 setrgbcolor
1975 1162 M
-118 17 V
stroke
LT6
LC6 setrgbcolor
2031 1155 M
-56 7 V
stroke
LT6
LC6 setrgbcolor
2215 1138 M
-184 17 V
stroke
LT6
LC6 setrgbcolor
2410 1129 M
-195 9 V
stroke
LT6
LC6 setrgbcolor
2410 1129 M
208 1 V
stroke
LT6
LC6 setrgbcolor
2618 1130 M
114 7 V
stroke
LT6
LC6 setrgbcolor
2732 1137 M
115 9 V
stroke
LT6
LC6 setrgbcolor
2847 1146 M
111 16 V
stroke
LT6
LC6 setrgbcolor
2958 1162 M
139 28 V
stroke
LT6
LC6 setrgbcolor
3097 1190 M
26 6 V
stroke
LT6
LC6 setrgbcolor
3123 1196 M
71 23 V
stroke
LT6
LC6 setrgbcolor
3194 1219 M
75 30 V
stroke
LT6
LC6 setrgbcolor
3269 1249 M
62 30 V
stroke
LT6
LC6 setrgbcolor
3331 1279 M
52 30 V
stroke
LT6
LC6 setrgbcolor
3383 1309 M
42 31 V
stroke
LT6
LC6 setrgbcolor
3425 1340 M
33 31 V
stroke
LT6
LC6 setrgbcolor
3458 1371 M
22 32 V
stroke
LT6
LC6 setrgbcolor
3480 1403 M
9 32 V
stroke
LT6
LC6 setrgbcolor
3489 1435 M
-6 25 V
stroke
LT6
LC6 setrgbcolor
3483 1460 M
-6 8 V
stroke
LT6
LC6 setrgbcolor
3477 1468 M
-56 34 V
stroke
LT6
LC6 setrgbcolor
3421 1502 M
-58 22 V
stroke
LT6
LC6 setrgbcolor
3363 1524 M
-84 15 V
stroke
LT6
LC6 setrgbcolor
3279 1539 M
-84 13 V
stroke
LT6
LC6 setrgbcolor
3195 1552 M
-188 15 V
stroke
LT6
LC6 setrgbcolor
3007 1567 M
-201 4 V
stroke
LT6
LC6 setrgbcolor
2594 1567 M
212 4 V
stroke
LT6
LC6 setrgbcolor
2523 1564 M
71 3 V
stroke
LT6
LC6 setrgbcolor
2371 1556 M
152 8 V
stroke
LT6
LC6 setrgbcolor
2212 1542 M
159 14 V
stroke
LT6
LC6 setrgbcolor
2133 1533 M
79 9 V
stroke
LT6
LC6 setrgbcolor
2001 1516 M
132 17 V
stroke
LT6
LC6 setrgbcolor
1873 1494 M
128 22 V
stroke
LTb
5316 3576 M
[ [(Helvetica) 140.0 0.0 true true 0 (     0.1)]
] -46.7 MRshow
1.000 UL
LT7
LC7 setrgbcolor
5400 3576 M
399 0 V
stroke
LT7
LC7 setrgbcolor
1571 1144 M
-136 29 V
stroke
LT7
LC7 setrgbcolor
1595 1139 M
-24 5 V
stroke
LT7
LC7 setrgbcolor
1765 1112 M
-170 27 V
stroke
LT7
LC7 setrgbcolor
1856 1102 M
-91 10 V
stroke
LT7
LC7 setrgbcolor
1944 1092 M
-88 10 V
stroke
LT7
LC7 setrgbcolor
2131 1077 M
-187 15 V
stroke
LT7
LC7 setrgbcolor
2327 1069 M
-196 8 V
stroke
LT7
LC7 setrgbcolor
2534 1068 M
-207 1 V
stroke
LT7
LC7 setrgbcolor
2534 1068 M
141 7 V
stroke
LT7
LC7 setrgbcolor
2675 1075 M
80 3 V
stroke
LT7
LC7 setrgbcolor
2755 1078 M
173 21 V
stroke
LT7
LC7 setrgbcolor
2928 1099 M
77 11 V
stroke
LT7
LC7 setrgbcolor
3005 1110 M
70 16 V
stroke
LT7
LC7 setrgbcolor
3075 1126 M
103 29 V
stroke
LT7
LC7 setrgbcolor
3178 1155 M
81 29 V
stroke
LT7
LC7 setrgbcolor
3259 1184 M
68 30 V
stroke
LT7
LC7 setrgbcolor
3327 1214 M
59 31 V
stroke
LT7
LC7 setrgbcolor
3386 1245 M
52 30 V
stroke
LT7
LC7 setrgbcolor
3438 1275 M
4 3 V
stroke
LT7
LC7 setrgbcolor
3442 1278 M
42 28 V
stroke
LT7
LC7 setrgbcolor
3484 1306 M
42 31 V
stroke
LT7
LC7 setrgbcolor
3526 1337 M
35 28 V
stroke
LT7
LC7 setrgbcolor
3561 1365 M
3 3 V
stroke
LT7
LC7 setrgbcolor
3564 1368 M
32 31 V
stroke
LT7
LC7 setrgbcolor
3596 1399 M
25 31 V
stroke
LT7
LC7 setrgbcolor
3621 1430 M
16 32 V
stroke
LT7
LC7 setrgbcolor
3637 1462 M
3 32 V
stroke
LT7
LC7 setrgbcolor
3640 1494 M
-18 33 V
stroke
LT7
LC7 setrgbcolor
3622 1527 M
-22 19 V
stroke
LT7
LC7 setrgbcolor
3600 1546 M
-40 16 V
stroke
LT7
LC7 setrgbcolor
3560 1562 M
-105 29 V
stroke
LT7
LC7 setrgbcolor
3455 1591 M
-64 8 V
stroke
LT7
LC7 setrgbcolor
3391 1599 M
-111 16 V
stroke
LT7
LC7 setrgbcolor
3280 1615 M
-190 12 V
stroke
LT7
LC7 setrgbcolor
3090 1627 M
-201 5 V
stroke
LT7
LC7 setrgbcolor
2680 1630 M
209 2 V
stroke
LT7
LC7 setrgbcolor
2573 1627 M
107 3 V
stroke
LT7
LC7 setrgbcolor
2463 1623 M
110 4 V
stroke
LT7
LC7 setrgbcolor
2237 1609 M
226 14 V
stroke
LT7
LC7 setrgbcolor
2203 1606 M
34 3 V
stroke
LT7
LC7 setrgbcolor
2001 1588 M
202 18 V
stroke
LTb
5316 3436 M
[ [(Helvetica) 140.0 0.0 true true 0 (       0)]
] -46.7 MRshow
1.000 UL
LT8
LC8 setrgbcolor
5400 3436 M
399 0 V
stroke
LT8
LC8 setrgbcolor
3200 1025 M
42 31 V
stroke
LT8
LC8 setrgbcolor
3242 1056 M
43 31 V
stroke
LT8
LC8 setrgbcolor
3285 1087 M
42 31 V
stroke
LT8
LC8 setrgbcolor
3327 1118 M
42 31 V
stroke
LT8
LC8 setrgbcolor
3369 1149 M
42 30 V
stroke
LT8
LC8 setrgbcolor
3411 1179 M
42 31 V
stroke
LT8
LC8 setrgbcolor
3453 1210 M
42 31 V
stroke
LT8
LC8 setrgbcolor
3495 1241 M
42 31 V
stroke
LT8
LC8 setrgbcolor
3537 1272 M
42 31 V
stroke
LT8
LC8 setrgbcolor
3579 1303 M
42 31 V
stroke
LT8
LC8 setrgbcolor
3621 1334 M
42 31 V
stroke
LT8
LC8 setrgbcolor
3663 1365 M
42 30 V
stroke
LT8
LC8 setrgbcolor
3705 1395 M
42 31 V
stroke
LT8
LC8 setrgbcolor
3747 1426 M
42 31 V
stroke
LT8
LC8 setrgbcolor
3789 1457 M
42 31 V
stroke
LT8
LC8 setrgbcolor
3831 1488 M
42 31 V
stroke
LT8
LC8 setrgbcolor
3873 1519 M
42 31 V
stroke
LT8
LC8 setrgbcolor
3915 1550 M
43 31 V
stroke
LT8
LC8 setrgbcolor
3958 1581 M
42 30 V
stroke
LTb
5316 3296 M
[ [(Helvetica) 140.0 0.0 true true 0 (    -0.1)]
] -46.7 MRshow
1.000 UL
LT0
LC0 setrgbcolor
5400 3296 M
399 0 V
stroke
LT0
LC0 setrgbcolor
4997 1030 M
202 19 V
stroke
LT0
LC0 setrgbcolor
4963 1027 M
34 3 V
stroke
LT0
LC0 setrgbcolor
4737 1013 M
226 14 V
stroke
LT0
LC0 setrgbcolor
4627 1010 M
110 3 V
stroke
LT0
LC0 setrgbcolor
4520 1006 M
107 4 V
stroke
LT0
LC0 setrgbcolor
4311 1005 M
209 1 V
stroke
LT0
LC0 setrgbcolor
4311 1005 M
-201 5 V
stroke
LT0
LC0 setrgbcolor
4110 1010 M
-190 12 V
stroke
LT0
LC0 setrgbcolor
3920 1022 M
-111 15 V
stroke
LT0
LC0 setrgbcolor
3809 1037 M
-64 9 V
stroke
LT0
LC0 setrgbcolor
3745 1046 M
-105 29 V
stroke
LT0
LC0 setrgbcolor
3640 1075 M
-40 15 V
stroke
LT0
LC0 setrgbcolor
3600 1090 M
-22 19 V
stroke
LT0
LC0 setrgbcolor
3578 1109 M
-18 33 V
stroke
LT0
LC0 setrgbcolor
3560 1142 M
3 32 V
stroke
LT0
LC0 setrgbcolor
3563 1174 M
16 32 V
stroke
LT0
LC0 setrgbcolor
3579 1206 M
25 32 V
stroke
LT0
LC0 setrgbcolor
3604 1238 M
32 31 V
stroke
LT0
LC0 setrgbcolor
3636 1269 M
3 3 V
stroke
LT0
LC0 setrgbcolor
3639 1272 M
35 28 V
stroke
LT0
LC0 setrgbcolor
3674 1300 M
42 31 V
stroke
LT0
LC0 setrgbcolor
3716 1331 M
42 28 V
stroke
LT0
LC0 setrgbcolor
3758 1359 M
4 2 V
stroke
LT0
LC0 setrgbcolor
3762 1361 M
52 31 V
stroke
LT0
LC0 setrgbcolor
3814 1392 M
59 30 V
stroke
LT0
LC0 setrgbcolor
3873 1422 M
68 30 V
stroke
LT0
LC0 setrgbcolor
3941 1452 M
81 30 V
stroke
LT0
LC0 setrgbcolor
4022 1482 M
103 29 V
stroke
LT0
LC0 setrgbcolor
4125 1511 M
70 16 V
stroke
LT0
LC0 setrgbcolor
4195 1527 M
77 11 V
stroke
LT0
LC0 setrgbcolor
4272 1538 M
173 20 V
stroke
LT0
LC0 setrgbcolor
4445 1558 M
80 4 V
stroke
LT0
LC0 setrgbcolor
4525 1562 M
141 7 V
stroke
LT0
LC0 setrgbcolor
4873 1568 M
-207 1 V
stroke
LT0
LC0 setrgbcolor
5069 1560 M
-196 8 V
stroke
LT0
LC0 setrgbcolor
5256 1545 M
-187 15 V
stroke
LT0
LC0 setrgbcolor
5344 1535 M
-88 10 V
stroke
LT0
LC0 setrgbcolor
5435 1525 M
-91 10 V
stroke
LT0
LC0 setrgbcolor
5605 1498 M
-170 27 V
stroke
LT0
LC0 setrgbcolor
5629 1493 M
-24 5 V
stroke
LT0
LC0 setrgbcolor
5765 1463 M
-136 30 V
stroke
LTb
5316 3156 M
[ [(Helvetica) 140.0 0.0 true true 0 (    -0.2)]
] -46.7 MRshow
1.000 UL
LT1
LC1 setrgbcolor
5400 3156 M
399 0 V
stroke
LT1
LC1 setrgbcolor
5199 1120 M
128 22 V
stroke
LT1
LC1 setrgbcolor
5067 1103 M
132 17 V
stroke
LT1
LC1 setrgbcolor
4988 1095 M
79 8 V
stroke
LT1
LC1 setrgbcolor
4829 1081 M
159 14 V
stroke
LT1
LC1 setrgbcolor
4677 1073 M
152 8 V
stroke
LT1
LC1 setrgbcolor
4606 1069 M
71 4 V
stroke
LT1
LC1 setrgbcolor
4394 1066 M
212 3 V
stroke
LT1
LC1 setrgbcolor
4394 1066 M
-201 4 V
stroke
LT1
LC1 setrgbcolor
4193 1070 M
-188 14 V
stroke
LT1
LC1 setrgbcolor
4005 1084 M
-84 14 V
stroke
LT1
LC1 setrgbcolor
3921 1098 M
-84 15 V
stroke
LT1
LC1 setrgbcolor
3837 1113 M
-58 22 V
stroke
LT1
LC1 setrgbcolor
3779 1135 M
-56 34 V
stroke
LT1
LC1 setrgbcolor
3723 1169 M
-6 7 V
stroke
LT1
LC1 setrgbcolor
3717 1176 M
-6 26 V
stroke
LT1
LC1 setrgbcolor
3711 1202 M
9 32 V
stroke
LT1
LC1 setrgbcolor
3720 1234 M
22 31 V
stroke
LT1
LC1 setrgbcolor
3742 1265 M
33 31 V
stroke
LT1
LC1 setrgbcolor
3775 1296 M
42 31 V
stroke
LT1
LC1 setrgbcolor
3817 1327 M
52 31 V
stroke
LT1
LC1 setrgbcolor
3869 1358 M
62 30 V
stroke
LT1
LC1 setrgbcolor
3931 1388 M
75 30 V
stroke
LT1
LC1 setrgbcolor
4006 1418 M
71 23 V
stroke
LT1
LC1 setrgbcolor
4077 1441 M
26 6 V
stroke
LT1
LC1 setrgbcolor
4103 1447 M
139 27 V
stroke
LT1
LC1 setrgbcolor
4242 1474 M
111 17 V
stroke
LT1
LC1 setrgbcolor
4353 1491 M
115 8 V
stroke
LT1
LC1 setrgbcolor
4468 1499 M
114 8 V
stroke
LT1
LC1 setrgbcolor
4582 1507 M
208 1 V
stroke
LT1
LC1 setrgbcolor
4985 1499 M
-195 9 V
stroke
LT1
LC1 setrgbcolor
5169 1482 M
-184 17 V
stroke
LT1
LC1 setrgbcolor
5225 1474 M
-56 8 V
stroke
LT1
LC1 setrgbcolor
5343 1457 M
-118 17 V
stroke
LT1
LC1 setrgbcolor
5452 1434 M
-109 23 V
stroke
LT1
LC1 setrgbcolor
5502 1422 M
-50 12 V
stroke
LT1
LC1 setrgbcolor
5578 1398 M
-76 24 V
stroke
LT1
LC1 setrgbcolor
5638 1370 M
-60 28 V
stroke
LTb
5316 3016 M
[ [(Helvetica) 140.0 0.0 true true 0 (    -0.3)]
] -46.7 MRshow
1.000 UL
LT2
LC2 setrgbcolor
5400 3016 M
399 0 V
stroke
LT2
LC2 setrgbcolor
4254 1115 M
-79 7 V
stroke
LT2
LC2 setrgbcolor
4175 1122 M
-106 9 V
stroke
LT2
LC2 setrgbcolor
4069 1131 M
-141 31 V
stroke
LT2
LC2 setrgbcolor
3928 1162 M
-17 5 V
stroke
LT2
LC2 setrgbcolor
3911 1167 M
-45 30 V
stroke
LT2
LC2 setrgbcolor
3866 1197 M
-19 32 V
stroke
LT2
LC2 setrgbcolor
3847 1229 M
5 33 V
stroke
LT2
LC2 setrgbcolor
3852 1262 M
25 31 V
stroke
LT2
LC2 setrgbcolor
3877 1293 M
42 31 V
stroke
LT2
LC2 setrgbcolor
3919 1324 M
60 30 V
stroke
LT2
LC2 setrgbcolor
3979 1354 M
79 30 V
stroke
LT2
LC2 setrgbcolor
4058 1384 M
103 29 V
stroke
LT2
LC2 setrgbcolor
4161 1413 M
118 24 V
stroke
LT2
LC2 setrgbcolor
4279 1437 M
28 3 V
stroke
LT2
LC2 setrgbcolor
4307 1440 M
210 20 V
stroke
LT2
LC2 setrgbcolor
4517 1460 M
122 1 V
stroke
LT2
LC2 setrgbcolor
4639 1461 M
90 2 V
stroke
LT2
LC2 setrgbcolor
4923 1453 M
-194 10 V
stroke
LT2
LC2 setrgbcolor
4942 1451 M
-19 2 V
stroke
LT2
LC2 setrgbcolor
5104 1434 M
-162 17 V
stroke
LT2
LC2 setrgbcolor
5237 1409 M
-133 25 V
stroke
LT2
LC2 setrgbcolor
5268 1402 M
-31 7 V
stroke
LT2
LC2 setrgbcolor
5362 1373 M
-94 29 V
stroke
LT2
LC2 setrgbcolor
5405 1351 M
-43 22 V
stroke
LT2
LC2 setrgbcolor
5425 1339 M
-20 12 V
stroke
LT2
LC2 setrgbcolor
5447 1306 M
-22 33 V
stroke
LT2
LC2 setrgbcolor
5435 1274 M
12 32 V
stroke
LT2
LC2 setrgbcolor
5393 1243 M
42 31 V
stroke
LT2
LC2 setrgbcolor
5321 1213 M
72 30 V
stroke
LT2
LC2 setrgbcolor
5215 1184 M
106 29 V
stroke
LT2
LC2 setrgbcolor
5164 1174 M
51 10 V
stroke
LT2
LC2 setrgbcolor
5067 1157 M
97 17 V
stroke
LT2
LC2 setrgbcolor
4904 1136 M
163 21 V
stroke
LT2
LC2 setrgbcolor
4858 1131 M
46 5 V
stroke
LT2
LC2 setrgbcolor
4672 1118 M
186 13 V
stroke
LT2
LC2 setrgbcolor
4479 1112 M
193 6 V
stroke
LT2
LC2 setrgbcolor
4456 1111 M
23 1 V
stroke
LT2
LC2 setrgbcolor
4456 1111 M
-202 4 V
stroke
LTb
5316 2876 M
[ [(Helvetica) 140.0 0.0 true true 0 (    -0.4)]
] -46.7 MRshow
1.000 UL
LT3
LC3 setrgbcolor
5400 2876 M
399 0 V
stroke
LT3
LC3 setrgbcolor
4129 1175 M
-54 15 V
stroke
LT3
LC3 setrgbcolor
4075 1190 M
-83 35 V
stroke
LT3
LC3 setrgbcolor
3992 1225 M
-1 1 V
stroke
LT3
LC3 setrgbcolor
3991 1226 M
-7 31 V
stroke
LT3
LC3 setrgbcolor
3984 1257 M
20 32 V
stroke
LT3
LC3 setrgbcolor
4004 1289 M
42 31 V
stroke
LT3
LC3 setrgbcolor
4046 1320 M
65 30 V
stroke
LT3
LC3 setrgbcolor
4111 1350 M
88 28 V
stroke
LT3
LC3 setrgbcolor
4199 1378 M
4 1 V
stroke
LT3
LC3 setrgbcolor
4203 1379 M
167 27 V
stroke
LT3
LC3 setrgbcolor
4370 1406 M
88 10 V
stroke
LT3
LC3 setrgbcolor
4458 1416 M
215 6 V
stroke
LT3
LC3 setrgbcolor
4867 1412 M
-194 10 V
stroke
LT3
LC3 setrgbcolor
5041 1388 M
-174 24 V
stroke
LT3
LC3 setrgbcolor
5064 1383 M
-23 5 V
stroke
LT3
LC3 setrgbcolor
5178 1347 M
-114 36 V
stroke
LT3
LC3 setrgbcolor
5186 1342 M
-8 5 V
stroke
LT3
LC3 setrgbcolor
5221 1313 M
-35 29 V
stroke
LT3
LC3 setrgbcolor
5217 1281 M
4 32 V
stroke
LT3
LC3 setrgbcolor
5175 1250 M
42 31 V
stroke
LT3
LC3 setrgbcolor
5094 1220 M
81 30 V
stroke
LT3
LC3 setrgbcolor
4986 1196 M
108 24 V
stroke
LT3
LC3 setrgbcolor
4968 1192 M
18 4 V
stroke
LT3
LC3 setrgbcolor
4769 1167 M
199 25 V
stroke
LT3
LC3 setrgbcolor
4735 1163 M
34 4 V
stroke
LT3
LC3 setrgbcolor
4513 1153 M
222 10 V
stroke
LT3
LC3 setrgbcolor
4513 1153 M
-203 3 V
stroke
LT3
LC3 setrgbcolor
4310 1156 M
-181 19 V
stroke
LTb
5316 2736 M
[ [(Helvetica) 140.0 0.0 true true 0 (    -0.5)]
] -46.7 MRshow
1.000 UL
LT4
LC4 setrgbcolor
5400 2736 M
399 0 V
stroke
LT4
LC4 setrgbcolor
4369 1199 M
-123 17 V
stroke
LT4
LC4 setrgbcolor
4246 1216 M
-48 10 V
stroke
LT4
LC4 setrgbcolor
4198 1226 M
-37 25 V
stroke
LT4
LC4 setrgbcolor
4161 1251 M
-2 33 V
stroke
LT4
LC4 setrgbcolor
4159 1284 M
42 31 V
stroke
LT4
LC4 setrgbcolor
4201 1315 M
86 29 V
stroke
LT4
LC4 setrgbcolor
4287 1344 M
101 21 V
stroke
LT4
LC4 setrgbcolor
4388 1365 M
68 6 V
stroke
LT4
LC4 setrgbcolor
4456 1371 M
158 7 V
stroke
LT4
LC4 setrgbcolor
4805 1367 M
-191 11 V
stroke
LT4
LC4 setrgbcolor
4859 1357 M
-54 10 V
stroke
LT4
LC4 setrgbcolor
4961 1329 M
-102 28 V
stroke
LT4
LC4 setrgbcolor
4977 1321 M
-16 8 V
stroke
LT4
LC4 setrgbcolor
4990 1288 M
-13 33 V
stroke
LT4
LC4 setrgbcolor
4948 1258 M
42 30 V
stroke
LT4
LC4 setrgbcolor
4851 1228 M
97 30 V
stroke
LT4
LC4 setrgbcolor
4814 1222 M
37 6 V
stroke
LT4
LC4 setrgbcolor
4648 1203 M
166 19 V
stroke
LT4
LC4 setrgbcolor
4574 1198 M
74 5 V
stroke
LT4
LC4 setrgbcolor
4574 1198 M
-205 1 V
stroke
LTb
5316 2596 M
[ [(Helvetica) 140.0 0.0 true true 0 (    -0.6)]
] -46.7 MRshow
1.000 UL
LT5
LC5 setrgbcolor
5400 2596 M
399 0 V
stroke
LT5
LC5 setrgbcolor
4468 1272 M
-4 2 V
stroke
LT5
LC5 setrgbcolor
4464 1274 M
42 30 V
stroke
LT5
LC5 setrgbcolor
4506 1304 M
9 2 V
stroke
LT5
LC5 setrgbcolor
4536 1303 M
-21 3 V
stroke
LT5
LC5 setrgbcolor
4494 1273 M
42 30 V
stroke
LT5
LC5 setrgbcolor
4468 1272 M
26 1 V
% End plot #2
stroke
LTb
LCb setrgbcolor
5082 963 M
801 586 V
stroke
LTb
LCb setrgbcolor
5082 963 M
1317 1087 L
stroke
LTb
LCb setrgbcolor
1317 1087 M
801 587 V
stroke
LTb
LCb setrgbcolor
5883 1549 M
2118 1674 L
stroke
LTb
LCb setrgbcolor
1317 3491 M
0 -2404 V
stroke
LTb
LCb setrgbcolor
2118 2743 M
0 -1069 V
stroke
LTb
LCb setrgbcolor
5883 3114 M
0 -1565 V
stroke
LTb
LCb setrgbcolor
5082 2528 M
0 -1565 V
stroke
LTb
LCb setrgbcolor
1317 1087 M
21 15 V
stroke
LTb
LCb setrgbcolor
1290 1054 M
[ [(Helvetica) 140.0 0.0 true true 0 (-2)]
] -46.7 MCshow
1.000 UL
LTb
LCb setrgbcolor
1.000 UL
LTb
LCb setrgbcolor
2097 1659 M
21 15 V
stroke
LTb
LCb setrgbcolor
1788 1072 M
20 15 V
stroke
LTb
LCb setrgbcolor
1761 1039 M
[ [(Helvetica) 140.0 0.0 true true 0 (-1.5)]
] -46.7 MCshow
1.000 UL
LTb
LCb setrgbcolor
1.000 UL
LTb
LCb setrgbcolor
2568 1643 M
21 15 V
stroke
LTb
LCb setrgbcolor
2259 1056 M
20 15 V
stroke
LTb
LCb setrgbcolor
2232 1023 M
[ [(Helvetica) 140.0 0.0 true true 0 (-1)]
] -46.7 MCshow
1.000 UL
LTb
LCb setrgbcolor
1.000 UL
LTb
LCb setrgbcolor
3039 1628 M
20 15 V
stroke
LTb
LCb setrgbcolor
2730 1041 M
20 15 V
stroke
LTb
LCb setrgbcolor
2702 1008 M
[ [(Helvetica) 140.0 0.0 true true 0 (-0.5)]
] -46.7 MCshow
1.000 UL
LTb
LCb setrgbcolor
1.000 UL
LTb
LCb setrgbcolor
3510 1612 M
20 15 V
stroke
LTb
LCb setrgbcolor
3200 1025 M
21 15 V
stroke
LTb
LCb setrgbcolor
3173 992 M
[ [(Helvetica) 140.0 0.0 true true 0 ( 0)]
] -46.7 MCshow
1.000 UL
LTb
LCb setrgbcolor
1.000 UL
LTb
LCb setrgbcolor
3979 1597 M
21 14 V
stroke
LTb
LCb setrgbcolor
3670 1010 M
20 14 V
stroke
LTb
LCb setrgbcolor
3643 976 M
[ [(Helvetica) 140.0 0.0 true true 0 ( 0.5)]
] -46.7 MCshow
1.000 UL
LTb
LCb setrgbcolor
1.000 UL
LTb
LCb setrgbcolor
4450 1581 M
20 15 V
stroke
LTb
LCb setrgbcolor
4141 994 M
20 15 V
stroke
LTb
LCb setrgbcolor
4114 961 M
[ [(Helvetica) 140.0 0.0 true true 0 ( 1)]
] -46.7 MCshow
1.000 UL
LTb
LCb setrgbcolor
1.000 UL
LTb
LCb setrgbcolor
4921 1565 M
20 15 V
stroke
LTb
LCb setrgbcolor
4611 978 M
21 15 V
stroke
LTb
LCb setrgbcolor
4584 945 M
[ [(Helvetica) 140.0 0.0 true true 0 ( 1.5)]
] -46.7 MCshow
1.000 UL
LTb
LCb setrgbcolor
1.000 UL
LTb
LCb setrgbcolor
5392 1550 M
20 15 V
stroke
LTb
LCb setrgbcolor
5082 963 M
21 15 V
stroke
LTb
LCb setrgbcolor
5055 930 M
[ [(Helvetica) 140.0 0.0 true true 0 ( 2)]
] -46.7 MCshow
1.000 UL
LTb
LCb setrgbcolor
1.000 UL
LTb
LCb setrgbcolor
5862 1534 M
21 15 V
stroke
LCb setrgbcolor
3000 879 M
[ [(Helvetica) 140.0 0.0 true true 0 (x)]
] -46.7 MCshow
LTb
1.000 UL
LTb
LCb setrgbcolor
5082 963 M
-61 2 V
stroke
5164 958 M
[ [(Helvetica) 140.0 0.0 true true 0 (-2)]
] -46.7 MLshow
1.000 UL
LTb
LCb setrgbcolor
1.000 UL
LTb
LCb setrgbcolor
1379 1085 M
-62 2 V
stroke
LTb
LCb setrgbcolor
5182 1036 M
-61 2 V
stroke
5264 1032 M
[ [(Helvetica) 140.0 0.0 true true 0 (-1.5)]
] -46.7 MLshow
1.000 UL
LTb
LCb setrgbcolor
1.000 UL
LTb
LCb setrgbcolor
1479 1159 M
-62 2 V
stroke
LTb
LCb setrgbcolor
5282 1109 M
-61 2 V
stroke
5364 1105 M
[ [(Helvetica) 140.0 0.0 true true 0 (-1)]
] -46.7 MLshow
1.000 UL
LTb
LCb setrgbcolor
1.000 UL
LTb
LCb setrgbcolor
1579 1232 M
-62 2 V
stroke
LTb
LCb setrgbcolor
5382 1183 M
-61 2 V
stroke
5465 1178 M
[ [(Helvetica) 140.0 0.0 true true 0 (-0.5)]
] -46.7 MLshow
1.000 UL
LTb
LCb setrgbcolor
1.000 UL
LTb
LCb setrgbcolor
1679 1305 M
-61 2 V
stroke
LTb
LCb setrgbcolor
5482 1256 M
-61 2 V
stroke
5565 1251 M
[ [(Helvetica) 140.0 0.0 true true 0 ( 0)]
] -46.7 MLshow
1.000 UL
LTb
LCb setrgbcolor
1.000 UL
LTb
LCb setrgbcolor
1779 1379 M
-61 2 V
stroke
LTb
LCb setrgbcolor
5582 1329 M
-61 2 V
stroke
5665 1325 M
[ [(Helvetica) 140.0 0.0 true true 0 ( 0.5)]
] -46.7 MLshow
1.000 UL
LTb
LCb setrgbcolor
1.000 UL
LTb
LCb setrgbcolor
1879 1452 M
-61 2 V
stroke
LTb
LCb setrgbcolor
5683 1403 M
-62 2 V
stroke
5765 1398 M
[ [(Helvetica) 140.0 0.0 true true 0 ( 1)]
] -46.7 MLshow
1.000 UL
LTb
LCb setrgbcolor
1.000 UL
LTb
LCb setrgbcolor
1979 1525 M
-61 2 V
stroke
LTb
LCb setrgbcolor
5783 1476 M
-62 2 V
stroke
5865 1471 M
[ [(Helvetica) 140.0 0.0 true true 0 ( 1.5)]
] -46.7 MLshow
1.000 UL
LTb
LCb setrgbcolor
1.000 UL
LTb
LCb setrgbcolor
2079 1598 M
-61 3 V
stroke
LTb
LCb setrgbcolor
5883 1549 M
-62 2 V
stroke
5965 1545 M
[ [(Helvetica) 140.0 0.0 true true 0 ( 2)]
] -46.7 MLshow
1.000 UL
LTb
LCb setrgbcolor
1.000 UL
LTb
LCb setrgbcolor
2179 1672 M
-61 2 V
stroke
LCb setrgbcolor
6424 1225 M
[ [(Helvetica) 140.0 0.0 true true 0 (y)]
] -46.7 MCshow
LTb
1.000 UL
LTb
LCb setrgbcolor
1380 1889 M
-63 0 V
stroke
1191 1889 M
[ [(Helvetica) 140.0 0.0 true true 0 (-0.8)]
] -46.7 MRshow
1.000 UL
LTb
LCb setrgbcolor
1.000 UL
LTb
LCb setrgbcolor
1380 2089 M
-63 0 V
stroke
1191 2089 M
[ [(Helvetica) 140.0 0.0 true true 0 (-0.6)]
] -46.7 MRshow
1.000 UL
LTb
LCb setrgbcolor
1.000 UL
LTb
LCb setrgbcolor
1380 2290 M
-63 0 V
stroke
1191 2290 M
[ [(Helvetica) 140.0 0.0 true true 0 (-0.4)]
] -46.7 MRshow
1.000 UL
LTb
LCb setrgbcolor
1.000 UL
LTb
LCb setrgbcolor
1380 2490 M
-63 0 V
stroke
1191 2490 M
[ [(Helvetica) 140.0 0.0 true true 0 (-0.2)]
] -46.7 MRshow
1.000 UL
LTb
LCb setrgbcolor
1.000 UL
LTb
LCb setrgbcolor
1380 2689 M
-63 0 V
stroke
1191 2689 M
[ [(Helvetica) 140.0 0.0 true true 0 ( 0)]
] -46.7 MRshow
1.000 UL
LTb
LCb setrgbcolor
1.000 UL
LTb
LCb setrgbcolor
1380 2890 M
-63 0 V
stroke
1191 2890 M
[ [(Helvetica) 140.0 0.0 true true 0 ( 0.2)]
] -46.7 MRshow
1.000 UL
LTb
LCb setrgbcolor
1.000 UL
LTb
LCb setrgbcolor
1380 3090 M
-63 0 V
stroke
1191 3090 M
[ [(Helvetica) 140.0 0.0 true true 0 ( 0.4)]
] -46.7 MRshow
1.000 UL
LTb
LCb setrgbcolor
1.000 UL
LTb
LCb setrgbcolor
1380 3290 M
-63 0 V
stroke
1191 3290 M
[ [(Helvetica) 140.0 0.0 true true 0 ( 0.6)]
] -46.7 MRshow
1.000 UL
LTb
LCb setrgbcolor
1.000 UL
LTb
LCb setrgbcolor
1380 3491 M
-63 0 V
stroke
1191 3491 M
[ [(Helvetica) 140.0 0.0 true true 0 ( 0.8)]
] -46.7 MRshow
1.000 UL
LTb
LCb setrgbcolor
LCb setrgbcolor
1149 3669 M
[ [(Helvetica) 140.0 0.0 true true 0 (Function value)]
] -46.7 MCshow
LTb
1.000 UP
stroke
grestore
end
showpage
%%Trailer
%%DocumentFonts: Helvetica
