%!PS-Adobe-3.0
%%BeginProlog
/imStr 0 def /imageSrc {currentfile /ASCII85Decode filter /RunLengthDecode filter  imStr readstring pop } def
/BD {bind def} bind def
/D {def} BD
/C {curveto} BD
/L {lineto} BD
/M {moveto} BD
/R {grestore} BD
/G {gsave} BD
/N {newpath} BD
/P {closepath} BD
/EC {eoclip} BD
/WC {clip} BD
/EF {eofill} BD
/WF {fill} BD
/SG {setgray} BD
/SC {setrgbcolor} BD
/ISOF {
     dup findfont dup length 1 add dict begin {
             1 index /FID eq {pop pop} {D} ifelse
     } forall /Encoding ISOLatin1Encoding D
     currentdict end definefont
} BD
/NZ {dup 1 lt {pop 1} if} BD
/S {
     moveto 1 index stringwidth pop NZ sub
     1 index length 1 sub NZ div 0
     3 2 roll ashow newpath} BD
/FL [
    /Helvetica ISOF
    /Helvetica-Bold ISOF
    /Helvetica-Oblique ISOF
    /Helvetica-BoldOblique ISOF
    /Times-Roman ISOF
    /Times-Bold ISOF
    /Times-Italic ISOF
    /Times-BoldItalic ISOF
    /Courier ISOF
    /Courier-Bold ISOF
    /Courier-Oblique ISOF
    /Courier-BoldOblique ISOF
    /GothicBBB-Medium-H findfont
    /Ryumin-Light-H findfont
    /GothicBBB-Medium.Hankaku findfont
    /Ryumin-Light.Hankaku findfont
] D
/F {
     FL exch get exch scalefont
     [1 0 0 -1 0 0] makefont setfont} BD
%%EndProlog
%%BeginSetup
<< /PageSize [595.2755737304688 841.8897705078125] /DeferredMediaSelection true /ImagingBBox null /ManualFeed false /NumCopies 1 >> setpagedevice 
%%EndSetup
%%Page: 1 1
/pgSave save def
841.8897705078125 0 exch translate 1 -1 scale[72 300 div 0 0 72 300 div 0 0]concat
0.2 SG
G
[4.1666665 0.0 0.0 4.1666665 -0.0 -0.0] concat
N
0.0 0.0 M
595.276 0.0 L
595.276 841.89 L
0.0 841.89 L
0.0 0.0 L
P
WC
10.5 4 F
<4c4d53616e7344656d69436f6e6431302d4f626c69717565> 148.32 50.10519 90.8189 S
9.0 4 F
<333237> 17.28 200.98772 90.8189 S
N
230.676 90.691 M
229.562 90.691 L
229.562 86.686 L
229.562 85.589 229.108 85.04 228.201 85.04 C
227.286 85.04 226.616 85.589 226.191 86.686 C
226.191 90.691 L
225.077 90.691 L
225.077 84.238 L
226.116 84.238 L
226.116 85.4 L
226.723 84.538 227.497 84.106 228.437 84.106 C
229.93 84.106 230.676 84.945 230.676 86.623 C
230.676 90.691 L
P
234.242 82.865 M
232.971 82.865 L
232.971 81.568 L
234.242 81.568 L
234.242 82.865 L
P
234.16 90.691 M
233.046 90.691 L
233.046 84.238 L
234.16 84.238 L
234.16 90.691 L
P
242.233 90.691 M
241.12 90.691 L
241.12 86.686 L
241.12 85.589 240.671 85.04 239.773 85.04 C
238.848 85.04 238.173 85.589 237.748 86.686 C
237.748 90.691 L
236.635 90.691 L
236.635 81.11 L
237.748 81.11 L
237.748 85.34 L
238.333 84.518 239.086 84.106 240.006 84.106 C
241.491 84.106 242.233 84.945 242.233 86.623 C
242.233 90.691 L
P
247.262 84.054 M
248.175 84.054 248.942 84.36 249.565 84.973 C
250.207 85.613 250.528 86.456 250.528 87.504 C
250.528 88.516 250.213 89.336 249.583 89.964 C
248.968 90.576 248.195 90.883 247.262 90.883 C
246.33 90.883 245.562 90.581 244.96 89.979 C
244.327 89.349 244.011 88.511 244.011 87.466 C
244.011 86.444 244.331 85.613 244.971 84.973 C
245.583 84.36 246.347 84.054 247.262 84.054 C
P
247.262 84.909 M
246.722 84.909 246.265 85.103 245.89 85.49 C
245.412 85.968 245.173 86.63 245.173 87.478 C
245.173 88.313 245.408 88.964 245.878 89.431 C
246.256 89.811 246.717 90.001 247.262 90.001 C
247.82 90.001 248.286 89.808 248.661 89.42 C
249.128 88.953 249.362 88.29 249.362 87.433 C
249.362 86.628 249.125 85.98 248.65 85.49 C
248.26 85.103 247.797 84.909 247.262 84.909 C
P
258.036 90.691 M
256.922 90.691 L
256.922 86.686 L
256.922 85.589 256.468 85.04 255.561 85.04 C
254.646 85.04 253.976 85.589 253.551 86.686 C
253.551 90.691 L
252.437 90.691 L
252.437 84.238 L
253.476 84.238 L
253.476 85.4 L
254.083 84.538 254.857 84.106 255.797 84.106 C
257.29 84.106 258.036 84.945 258.036 86.623 C
258.036 90.691 L
P
261.913 88.49 M
261.473 88.528 261.253 88.696 261.253 88.996 C
261.253 89.384 261.765 89.603 262.787 89.653 C
263.533 89.694 L
265.116 89.774 265.907 90.348 265.907 91.415 C
265.907 91.963 265.652 92.411 265.142 92.761 C
264.592 93.159 263.828 93.358 262.851 93.358 C
261.963 93.358 261.25 93.205 260.71 92.9 C
260.192 92.605 259.933 92.2 259.933 91.685 C
259.933 90.993 260.421 90.538 261.396 90.32 C
261.396 90.275 L
260.626 90.08 260.241 89.736 260.241 89.244 C
260.241 88.789 260.571 88.439 261.231 88.194 C
260.503 87.816 260.14 87.219 260.14 86.401 C
260.14 85.769 260.351 85.241 260.773 84.819 C
261.258 84.334 261.912 84.091 262.735 84.091 C
263.26 84.091 263.722 84.205 264.122 84.433 C
264.43 84.028 264.995 83.819 265.817 83.806 C
265.817 84.718 L
265.247 84.73 264.872 84.781 264.692 84.871 C
265.14 85.309 265.363 85.828 265.363 86.428 C
265.363 87.023 265.161 87.524 264.756 87.931 C
264.303 88.379 263.681 88.603 262.888 88.603 C
262.551 88.603 262.226 88.565 261.913 88.49 C
P
262.731 84.909 M
262.291 84.909 261.927 85.053 261.64 85.34 C
261.357 85.623 261.216 85.976 261.216 86.401 C
261.216 86.819 261.35 87.154 261.617 87.406 C
261.902 87.694 262.287 87.838 262.772 87.838 C
263.23 87.838 263.595 87.699 263.867 87.421 C
264.147 87.146 264.287 86.791 264.287 86.356 C
264.287 85.961 264.147 85.626 263.867 85.351 C
263.577 85.056 263.198 84.909 262.731 84.909 C
P
262.768 90.496 M
261.621 90.496 261.047 90.85 261.047 91.558 C
261.047 92.248 261.652 92.593 262.862 92.593 C
263.642 92.593 264.207 92.41 264.557 92.045 C
264.74 91.878 264.831 91.68 264.831 91.453 C
264.831 90.815 264.143 90.496 262.768 90.496 C
P
270.302 84.054 M
271.215 84.054 271.982 84.36 272.605 84.973 C
273.247 85.613 273.568 86.456 273.568 87.504 C
273.568 88.516 273.253 89.336 272.623 89.964 C
272.008 90.576 271.235 90.883 270.302 90.883 C
269.37 90.883 268.602 90.581 268.0 89.979 C
267.367 89.349 267.051 88.511 267.051 87.466 C
267.051 86.444 267.371 85.613 268.011 84.973 C
268.623 84.36 269.387 84.054 270.302 84.054 C
P
270.302 84.909 M
269.762 84.909 269.305 85.103 268.93 85.49 C
268.452 85.968 268.213 86.63 268.213 87.478 C
268.213 88.313 268.448 88.964 268.918 89.431 C
269.296 89.811 269.757 90.001 270.302 90.001 C
270.86 90.001 271.326 89.808 271.701 89.42 C
272.168 88.953 272.402 88.29 272.402 87.433 C
272.402 86.628 272.165 85.98 271.69 85.49 C
271.3 85.103 270.837 84.909 270.302 84.909 C
P
288.531 81.099 M
288.531 91.4 L
287.545 91.4 L
287.545 90.56 L
281.271 90.56 L
281.271 91.4 L
280.285 91.4 L
280.285 81.099 L
288.531 81.099 L
P
281.271 81.965 M
281.271 85.288 L
287.545 85.288 L
287.545 81.965 L
281.271 81.965 L
P
281.271 86.169 M
281.271 89.694 L
287.545 89.694 L
287.545 86.169 L
281.271 86.169 L
P
298.142 83.806 M
299.38 85.911 301.052 87.54 303.16 88.693 C
302.432 89.604 L
300.34 88.229 298.796 86.551 297.801 84.571 C
297.801 88.306 L
299.946 88.306 L
299.946 89.146 L
297.835 89.146 L
297.835 91.648 L
296.845 91.648 L
296.845 89.146 L
294.745 89.146 L
294.745 88.306 L
296.871 88.306 L
296.871 84.673 L
295.976 86.728 294.495 88.504 292.427 90.001 C
291.662 89.21 L
293.742 87.983 295.367 86.181 296.537 83.806 C
291.872 83.806 L
291.872 82.914 L
296.845 82.914 L
296.845 80.27 L
297.835 80.27 L
297.835 82.914 L
302.89 82.914 L
302.89 83.806 L
298.142 83.806 L
P
308.691 87.406 M
308.691 91.078 L
305.8 91.078 L
305.8 91.723 L
304.945 91.723 L
304.945 87.406 L
308.691 87.406 L
P
305.8 88.16 M
305.8 90.324 L
307.836 90.324 L
307.836 88.16 L
305.8 88.16 L
P
312.576 81.384 M
312.493 82.101 312.426 82.611 312.373 82.914 C
314.912 82.914 L
314.912 85.543 L
316.221 85.543 L
316.221 86.319 L
309.002 86.319 L
309.002 85.543 L
310.99 85.543 L
310.997 85.495 311.108 84.949 311.323 83.904 C
311.361 83.668 L
309.692 83.668 L
309.692 82.914 L
311.488 82.914 L
311.498 82.899 311.503 82.87 311.503 82.828 C
311.578 82.405 311.652 81.924 311.725 81.384 C
309.433 81.384 L
309.433 80.604 L
315.583 80.604 L
315.583 81.384 L
312.576 81.384 L
P
314.072 83.668 M
312.242 83.668 L
312.07 84.608 311.95 85.233 311.882 85.543 C
314.072 85.543 L
314.072 83.668 L
P
315.208 87.526 M
315.208 91.723 L
314.342 91.723 L
314.342 91.093 L
310.78 91.093 L
310.78 91.738 L
309.913 91.738 L
309.913 87.526 L
315.208 87.526 L
P
310.78 88.28 M
310.78 90.339 L
314.342 90.339 L
314.342 88.28 L
310.78 88.28 L
P
305.143 80.604 M
308.503 80.604 L
308.503 81.384 L
305.143 81.384 L
305.143 80.604 L
P
304.558 82.303 M
309.021 82.303 L
309.021 83.094 L
304.558 83.094 L
304.558 82.303 L
P
305.143 84.016 M
308.503 84.016 L
308.503 84.793 L
305.143 84.793 L
305.143 84.016 L
P
305.143 85.711 M
308.503 85.711 L
308.503 86.491 L
305.143 86.491 L
305.143 85.711 L
P
331.978 90.894 M
331.756 89.489 331.645 88.059 331.645 86.604 C
331.645 85.064 331.921 83.233 332.473 81.11 C
333.448 81.331 L
332.878 83.454 332.593 85.264 332.593 86.761 C
332.593 87.521 332.615 88.1 332.657 88.498 C
332.675 88.45 332.938 87.864 333.448 86.739 C
334.082 87.181 L
333.642 88.146 333.348 88.844 333.201 89.274 C
333.053 89.691 332.98 90.025 332.98 90.275 C
332.98 90.533 332.983 90.71 332.991 90.808 C
331.978 90.894 L
P
335.518 82.644 M
337.048 82.406 338.721 82.315 340.536 82.37 C
340.585 83.364 L
338.725 83.301 337.058 83.393 335.586 83.638 C
335.518 82.644 L
P
341.218 90.301 M
340.401 90.414 339.538 90.47 338.631 90.47 C
337.403 90.47 336.508 90.293 335.946 89.938 C
335.593 89.723 335.343 89.449 335.196 89.116 C
335.056 88.799 334.986 88.39 334.986 87.89 C
334.986 87.733 334.99 87.591 334.997 87.466 C
335.961 87.406 L
335.956 87.504 335.95 87.61 335.942 87.725 C
335.937 87.788 335.935 87.83 335.935 87.853 C
335.935 88.21 335.987 88.488 336.092 88.685 C
336.172 88.833 336.301 88.97 336.478 89.098 C
336.828 89.33 337.481 89.446 338.436 89.446 C
339.266 89.446 340.151 89.389 341.091 89.274 C
341.218 90.301 L
P
347.68 81.523 M
348.41 81.57 349.017 81.594 349.502 81.594 C
350.877 81.594 352.265 81.463 353.665 81.2 C
353.755 82.055 L
352.982 82.193 352.335 82.285 351.812 82.333 C
351.85 84.226 L
352.635 84.146 353.377 84.034 354.077 83.889 C
354.16 84.77 L
353.532 84.908 352.771 85.01 351.876 85.078 C
351.951 87.995 L
352.808 88.295 353.695 88.718 354.61 89.263 C
354.04 90.129 L
353.397 89.656 352.72 89.264 352.007 88.951 C
352.007 89.619 351.868 90.115 351.591 90.44 C
351.303 90.768 350.751 90.931 349.933 90.931 C
349.098 90.931 348.463 90.768 348.028 90.44 C
347.648 90.153 347.458 89.76 347.458 89.263 C
347.458 88.673 347.745 88.229 348.317 87.931 C
348.74 87.714 349.24 87.605 349.817 87.605 C
350.147 87.605 350.557 87.649 351.047 87.736 C
350.957 85.141 L
350.4 85.166 349.951 85.179 349.611 85.179 C
348.888 85.179 348.201 85.15 347.548 85.093 C
347.485 84.238 L
348.217 84.298 348.933 84.328 349.633 84.328 C
350.018 84.328 350.451 84.314 350.931 84.286 C
350.863 82.396 L
350.348 82.421 349.877 82.434 349.45 82.434 C
348.815 82.434 348.237 82.418 347.717 82.385 C
347.68 81.523 L
P
351.058 88.64 M
350.556 88.51 350.115 88.445 349.735 88.445 C
348.837 88.445 348.388 88.713 348.388 89.248 C
348.388 89.528 348.566 89.738 348.921 89.878 C
349.193 89.985 349.538 90.039 349.956 90.039 C
350.468 90.039 350.806 89.875 350.968 89.548 C
351.053 89.365 351.083 89.063 351.058 88.64 C
P
344.751 91.003 M
344.428 89.518 344.267 88.156 344.267 86.919 C
344.267 85.489 344.54 83.471 345.085 80.866 C
346.097 81.046 L
345.52 83.491 345.231 85.574 345.231 87.294 C
345.231 87.736 345.247 88.199 345.28 88.681 C
345.592 87.886 345.868 87.251 346.108 86.776 C
346.757 87.219 L
346.072 88.649 345.73 89.71 345.73 90.403 C
345.73 90.453 345.741 90.595 345.763 90.83 C
344.751 91.003 L
P
357.032 90.755 M
358.417 87.673 360.041 84.363 361.903 80.825 C
362.905 81.294 L
361.855 83.086 360.907 84.844 360.062 86.566 C
360.742 85.929 361.386 85.61 361.993 85.61 C
362.681 85.61 363.135 85.956 363.355 86.649 C
363.465 86.994 363.526 87.61 363.538 88.498 C
363.551 89.603 363.848 90.155 364.431 90.155 C
365.261 90.155 366.038 89.254 366.763 87.451 C
367.596 88.213 L
366.651 90.19 365.587 91.179 364.405 91.179 C
363.19 91.179 362.582 90.338 362.582 88.655 C
362.582 88.554 L
362.582 87.194 362.315 86.514 361.78 86.514 C
360.632 86.514 359.366 88.069 357.981 91.179 C
357.032 90.755 L
P
371.747 81.89 M
372.772 81.97 373.687 82.01 374.492 82.01 C
375.702 82.01 376.782 81.945 377.732 81.815 C
377.953 82.681 L
376.856 82.989 375.685 83.689 374.44 84.781 C
373.712 84.226 L
374.43 83.689 375.098 83.229 375.718 82.846 C
375.018 82.901 374.35 82.929 373.712 82.929 C
373.01 82.929 372.367 82.896 371.785 82.831 C
371.747 81.89 L
P
379.03 90.459 M
377.845 90.699 376.535 90.819 375.1 90.819 C
373.767 90.819 372.696 90.595 371.886 90.148 C
371.133 89.73 370.757 89.154 370.757 88.419 C
370.757 87.689 371.095 86.98 371.77 86.293 C
372.55 86.788 L
372.015 87.273 371.747 87.775 371.747 88.295 C
371.747 89.32 372.856 89.833 375.073 89.833 C
376.418 89.833 377.701 89.683 378.921 89.383 C
379.03 90.459 L
P
380.725 82.213 M
380.235 81.483 379.725 80.896 379.195 80.454 C
379.806 79.985 L
380.321 80.403 380.842 80.959 381.37 81.654 C
380.725 82.213 L
P
379.573 83.199 M
379.181 82.536 378.683 81.935 378.081 81.395 C
378.711 80.904 L
379.213 81.321 379.725 81.901 380.245 82.644 C
379.573 83.199 L
P
397.3 82.891 M
404.815 82.891 L
404.815 83.904 L
397.3 83.904 L
397.3 82.891 L
P
395.912 88.445 M
406.202 88.445 L
406.202 89.473 L
395.912 89.473 L
395.912 88.445 L
P
413.556 80.739 M
414.58 80.739 L
414.58 83.135 L
418.847 83.135 L
418.847 84.054 L
414.58 84.054 L
414.58 90.016 L
414.58 90.749 414.152 91.115 413.297 91.115 C
412.735 91.115 412.177 91.065 411.625 90.965 C
411.403 89.889 L
411.931 90.024 412.475 90.091 413.035 90.091 C
413.382 90.091 413.556 89.919 413.556 89.574 C
413.556 84.054 L
409.202 84.054 L
409.202 83.135 L
413.556 83.135 L
413.556 80.739 L
P
408.76 88.951 M
409.277 88.449 409.695 87.928 410.012 87.388 C
410.302 86.89 410.557 86.298 410.777 85.61 C
411.688 86.023 L
411.431 86.838 411.118 87.541 410.751 88.134 C
410.461 88.606 410.065 89.126 409.562 89.694 C
408.76 88.951 L
P
418.296 89.383 M
417.666 88.045 416.988 86.913 416.263 85.985 C
417.092 85.441 L
417.835 86.306 418.548 87.403 419.233 88.73 C
418.296 89.383 L
P
425.447 84.571 M
424.597 83.801 423.66 83.126 422.635 82.546 C
423.295 81.669 L
424.215 82.111 425.182 82.759 426.197 83.611 C
425.447 84.571 L
P
422.725 89.585 M
426.62 88.915 429.397 86.743 431.057 83.068 C
431.875 83.795 L
430.247 87.405 427.423 89.676 423.403 90.609 C
422.725 89.585 L
P
435.482 82.498 M
443.646 82.498 L
443.646 90.718 L
442.607 90.718 L
442.607 89.818 L
435.336 89.818 L
435.336 88.82 L
442.607 88.82 L
442.607 83.484 L
435.482 83.484 L
435.482 82.498 L
P
445.626 81.815 M
445.136 81.08 444.626 80.491 444.096 80.049 C
444.707 79.58 L
445.227 79.998 445.748 80.556 446.271 81.256 C
445.626 81.815 L
P
444.422 82.756 M
444.032 82.094 443.535 81.493 442.93 80.953 C
443.563 80.465 L
444.066 80.88 444.576 81.459 445.093 82.201 C
444.422 82.756 L
P
463.075 84.226 M
463.075 91.73 L
462.22 91.73 L
462.22 84.226 L
460.116 84.226 L
460.116 83.409 L
465.238 83.409 L
465.238 84.226 L
463.075 84.226 L
P
465.831 81.41 M
467.506 81.295 469.057 80.989 470.485 80.491 C
471.175 81.294 L
470.435 81.501 469.772 81.658 469.187 81.763 C
469.187 81.838 L
469.187 81.879 L
469.187 83.046 469.201 84.018 469.228 84.793 C
471.583 84.793 L
471.583 85.61 L
469.27 85.61 L
469.281 85.813 L
469.368 87.188 469.587 88.329 469.937 89.236 C
470.212 89.936 470.435 90.286 470.605 90.286 C
470.717 90.286 470.832 89.776 470.95 88.756 C
470.976 88.509 L
471.756 89.173 L
471.536 90.815 471.215 91.636 470.792 91.636 C
470.385 91.636 469.958 91.225 469.513 90.403 C
468.886 89.255 468.513 87.696 468.396 85.726 C
466.66 85.726 L
466.66 90.155 L
466.695 90.143 466.771 90.115 466.888 90.073 C
467.011 90.03 467.112 89.994 467.192 89.964 C
467.552 89.839 467.976 89.67 468.463 89.458 C
468.565 90.275 L
467.552 90.755 466.426 91.183 465.186 91.558 C
464.833 90.673 L
464.901 90.66 465.138 90.601 465.546 90.496 C
465.831 90.414 L
465.831 81.41 L
P
468.306 81.916 M
468.268 81.916 468.165 81.929 467.995 81.954 C
467.485 82.039 467.04 82.095 466.66 82.123 C
466.66 84.894 L
468.358 84.894 L
468.323 84.149 468.306 83.156 468.306 81.916 C
P
460.573 80.814 M
464.852 80.814 L
464.852 81.643 L
460.573 81.643 L
460.573 80.814 L
P
460.105 90.039 M
460.43 89.069 460.598 87.47 460.611 85.243 C
461.428 85.243 L
461.416 87.793 461.217 89.599 460.832 90.661 C
460.105 90.039 L
P
463.926 85.243 M
464.743 85.243 L
464.743 90.159 L
463.926 90.159 L
463.926 85.243 L
P
494.556 84.421 M
495.058 84.016 495.55 83.588 496.03 83.135 C
496.81 83.641 L
495.965 84.351 495.23 84.909 494.605 85.314 C
497.455 85.314 L
497.455 86.041 L
493.348 86.041 L
492.591 86.526 491.757 86.961 490.847 87.346 C
495.966 87.346 L
495.966 91.723 L
495.088 91.723 L
495.088 91.205 L
489.872 91.205 L
489.872 91.723 L
488.98 91.723 L
488.98 88.074 L
488.127 88.411 487.203 88.719 486.208 88.996 C
485.792 88.318 L
487.935 87.763 489.938 87.029 491.803 86.116 C
486.137 86.116 L
486.137 85.389 L
490.986 85.389 L
490.986 84.47 L
487.513 84.47 L
487.513 83.769 L
491.068 83.769 L
491.068 82.914 L
491.935 82.914 L
491.935 83.769 L
494.556 83.769 L
494.556 84.421 L
P
494.485 84.47 M
491.852 84.47 L
491.852 85.389 L
493.123 85.389 L
493.611 85.106 494.065 84.8 494.485 84.47 C
P
489.872 88.048 M
489.872 88.895 L
495.088 88.895 L
495.088 88.048 L
489.872 88.048 L
P
489.872 89.585 M
489.872 90.504 L
495.088 90.504 L
495.088 89.585 L
489.872 89.585 L
P
488.263 81.11 M
491.788 81.11 L
491.788 81.838 L
489.835 81.838 L
490.007 82.16 490.176 82.54 490.341 82.978 C
489.486 83.251 L
489.293 82.644 489.116 82.173 488.953 81.838 C
487.941 81.838 L
487.558 82.553 487.122 83.18 486.632 83.72 C
485.957 83.199 L
486.72 82.386 487.316 81.328 487.746 80.023 C
488.59 80.218 L
488.5 80.51 488.391 80.808 488.263 81.11 C
P
493.348 81.11 M
497.466 81.11 L
497.466 81.838 L
494.785 81.838 L
494.995 82.15 495.188 82.484 495.366 82.839 C
494.537 83.199 L
494.365 82.731 494.141 82.278 493.866 81.838 C
493.022 81.838 L
492.985 81.916 L
492.775 82.321 492.528 82.711 492.246 83.086 C
491.582 82.543 L
492.105 81.813 492.511 80.981 492.801 80.049 C
493.671 80.233 L
493.536 80.62 493.428 80.913 493.348 81.11 C
P
494.833 87.305 M
494.411 87.015 493.95 86.773 493.45 86.578 C
494.076 86.06 L
494.496 86.215 494.97 86.441 495.497 86.739 C
494.833 87.305 L
P
G
WC
WF
R N
10.5 4 F
<4c4d53616e7331302d4f626c69717565> 95.28001 103.14519 110.661415 S
9.0 4 F
<333137> 17.28 200.98772 110.661415 S
N
230.676 110.534 M
229.562 110.534 L
229.562 106.529 L
229.562 105.431 229.108 104.883 228.201 104.883 C
227.286 104.883 226.616 105.431 226.191 106.529 C
226.191 110.534 L
225.077 110.534 L
225.077 104.08 L
226.116 104.08 L
226.116 105.243 L
226.723 104.38 227.497 103.949 228.437 103.949 C
229.93 103.949 230.676 104.788 230.676 106.465 C
230.676 110.534 L
P
234.242 102.708 M
232.971 102.708 L
232.971 101.41 L
234.242 101.41 L
234.242 102.708 L
P
234.16 110.534 M
233.046 110.534 L
233.046 104.08 L
234.16 104.08 L
234.16 110.534 L
P
242.233 110.534 M
241.12 110.534 L
241.12 106.529 L
241.12 105.431 240.671 104.883 239.773 104.883 C
238.848 104.883 238.173 105.431 237.748 106.529 C
237.748 110.534 L
236.635 110.534 L
236.635 100.953 L
237.748 100.953 L
237.748 105.183 L
238.333 104.36 239.086 103.949 240.006 103.949 C
241.491 103.949 242.233 104.788 242.233 106.465 C
242.233 110.534 L
P
247.262 103.896 M
248.175 103.896 248.942 104.203 249.565 104.815 C
250.207 105.455 250.528 106.299 250.528 107.346 C
250.528 108.359 250.213 109.179 249.583 109.806 C
248.968 110.419 248.195 110.725 247.262 110.725 C
246.33 110.725 245.562 110.424 244.96 109.821 C
244.327 109.191 244.011 108.354 244.011 107.309 C
244.011 106.286 244.331 105.455 244.971 104.815 C
245.583 104.203 246.347 103.896 247.262 103.896 C
P
247.262 104.751 M
246.722 104.751 246.265 104.945 245.89 105.333 C
245.412 105.81 245.173 106.473 245.173 107.32 C
245.173 108.155 245.408 108.806 245.878 109.274 C
246.256 109.654 246.717 109.844 247.262 109.844 C
247.82 109.844 248.286 109.65 248.661 109.263 C
249.128 108.795 249.362 108.133 249.362 107.275 C
249.362 106.47 249.125 105.823 248.65 105.333 C
248.26 104.945 247.797 104.751 247.262 104.751 C
P
258.036 110.534 M
256.922 110.534 L
256.922 106.529 L
256.922 105.431 256.468 104.883 255.561 104.883 C
254.646 104.883 253.976 105.431 253.551 106.529 C
253.551 110.534 L
252.437 110.534 L
252.437 104.08 L
253.476 104.08 L
253.476 105.243 L
254.083 104.38 254.857 103.949 255.797 103.949 C
257.29 103.949 258.036 104.788 258.036 106.465 C
258.036 110.534 L
P
261.913 108.333 M
261.473 108.37 261.253 108.539 261.253 108.839 C
261.253 109.226 261.765 109.445 262.787 109.495 C
263.533 109.536 L
265.116 109.616 265.907 110.19 265.907 111.258 C
265.907 111.805 265.652 112.254 265.142 112.604 C
264.592 113.001 263.828 113.2 262.851 113.2 C
261.963 113.2 261.25 113.048 260.71 112.743 C
260.192 112.448 259.933 112.043 259.933 111.528 C
259.933 110.835 260.421 110.38 261.396 110.163 C
261.396 110.118 L
260.626 109.923 260.241 109.579 260.241 109.086 C
260.241 108.631 260.571 108.281 261.231 108.036 C
260.503 107.659 260.14 107.061 260.14 106.244 C
260.14 105.611 260.351 105.084 260.773 104.661 C
261.258 104.176 261.912 103.934 262.735 103.934 C
263.26 103.934 263.722 104.048 264.122 104.275 C
264.43 103.87 264.995 103.661 265.817 103.649 C
265.817 104.56 L
265.247 104.573 264.872 104.624 264.692 104.714 C
265.14 105.151 265.363 105.67 265.363 106.27 C
265.363 106.865 265.161 107.366 264.756 107.774 C
264.303 108.221 263.681 108.445 262.888 108.445 C
262.551 108.445 262.226 108.408 261.913 108.333 C
P
262.731 104.751 M
262.291 104.751 261.927 104.895 261.64 105.183 C
261.357 105.465 261.216 105.819 261.216 106.244 C
261.216 106.661 261.35 106.996 261.617 107.249 C
261.902 107.536 262.287 107.68 262.772 107.68 C
263.23 107.68 263.595 107.541 263.867 107.264 C
264.147 106.989 264.287 106.634 264.287 106.199 C
264.287 105.804 264.147 105.469 263.867 105.194 C
263.577 104.899 263.198 104.751 262.731 104.751 C
P
262.768 110.339 M
261.621 110.339 261.047 110.693 261.047 111.4 C
261.047 112.09 261.652 112.435 262.862 112.435 C
263.642 112.435 264.207 112.253 264.557 111.888 C
264.74 111.72 264.831 111.523 264.831 111.295 C
264.831 110.658 264.143 110.339 262.768 110.339 C
P
270.302 103.896 M
271.215 103.896 271.982 104.203 272.605 104.815 C
273.247 105.455 273.568 106.299 273.568 107.346 C
273.568 108.359 273.253 109.179 272.623 109.806 C
272.008 110.419 271.235 110.725 270.302 110.725 C
269.37 110.725 268.602 110.424 268.0 109.821 C
267.367 109.191 267.051 108.354 267.051 107.309 C
267.051 106.286 267.371 105.455 268.011 104.815 C
268.623 104.203 269.387 103.896 270.302 103.896 C
P
270.302 104.751 M
269.762 104.751 269.305 104.945 268.93 105.333 C
268.452 105.81 268.213 106.473 268.213 107.32 C
268.213 108.155 268.448 108.806 268.918 109.274 C
269.296 109.654 269.757 109.844 270.302 109.844 C
270.86 109.844 271.326 109.65 271.701 109.263 C
272.168 108.795 272.402 108.133 272.402 107.275 C
272.402 106.47 272.165 105.823 271.69 105.333 C
271.3 104.945 270.837 104.751 270.302 104.751 C
P
288.531 100.941 M
288.531 111.243 L
287.545 111.243 L
287.545 110.403 L
281.271 110.403 L
281.271 111.243 L
280.285 111.243 L
280.285 100.941 L
288.531 100.941 L
P
281.271 101.808 M
281.271 105.13 L
287.545 105.13 L
287.545 101.808 L
281.271 101.808 L
P
281.271 106.011 M
281.271 109.536 L
287.545 109.536 L
287.545 106.011 L
281.271 106.011 L
P
298.142 103.649 M
299.38 105.754 301.052 107.383 303.16 108.535 C
302.432 109.446 L
300.34 108.071 298.796 106.394 297.801 104.414 C
297.801 108.149 L
299.946 108.149 L
299.946 108.989 L
297.835 108.989 L
297.835 111.49 L
296.845 111.49 L
296.845 108.989 L
294.745 108.989 L
294.745 108.149 L
296.871 108.149 L
296.871 104.515 L
295.976 106.57 294.495 108.346 292.427 109.844 C
291.662 109.053 L
293.742 107.825 295.367 106.024 296.537 103.649 C
291.872 103.649 L
291.872 102.756 L
296.845 102.756 L
296.845 100.113 L
297.835 100.113 L
297.835 102.756 L
302.89 102.756 L
302.89 103.649 L
298.142 103.649 L
P
308.691 107.249 M
308.691 110.92 L
305.8 110.92 L
305.8 111.565 L
304.945 111.565 L
304.945 107.249 L
308.691 107.249 L
P
305.8 108.003 M
305.8 110.166 L
307.836 110.166 L
307.836 108.003 L
305.8 108.003 L
P
312.576 101.226 M
312.493 101.944 312.426 102.454 312.373 102.756 C
314.912 102.756 L
314.912 105.385 L
316.221 105.385 L
316.221 106.161 L
309.002 106.161 L
309.002 105.385 L
310.99 105.385 L
310.997 105.338 311.108 104.791 311.323 103.746 C
311.361 103.51 L
309.692 103.51 L
309.692 102.756 L
311.488 102.756 L
311.498 102.741 311.503 102.713 311.503 102.67 C
311.578 102.248 311.652 101.766 311.725 101.226 C
309.433 101.226 L
309.433 100.446 L
315.583 100.446 L
315.583 101.226 L
312.576 101.226 L
P
314.072 103.51 M
312.242 103.51 L
312.07 104.45 311.95 105.075 311.882 105.385 C
314.072 105.385 L
314.072 103.51 L
P
315.208 107.369 M
315.208 111.565 L
314.342 111.565 L
314.342 110.935 L
310.78 110.935 L
310.78 111.58 L
309.913 111.58 L
309.913 107.369 L
315.208 107.369 L
P
310.78 108.123 M
310.78 110.181 L
314.342 110.181 L
314.342 108.123 L
310.78 108.123 L
P
305.143 100.446 M
308.503 100.446 L
308.503 101.226 L
305.143 101.226 L
305.143 100.446 L
P
304.558 102.145 M
309.021 102.145 L
309.021 102.936 L
304.558 102.936 L
304.558 102.145 L
P
305.143 103.859 M
308.503 103.859 L
308.503 104.635 L
305.143 104.635 L
305.143 103.859 L
P
305.143 105.554 M
308.503 105.554 L
308.503 106.334 L
305.143 106.334 L
305.143 105.554 L
P
331.978 110.736 M
331.756 109.331 331.645 107.901 331.645 106.446 C
331.645 104.906 331.921 103.075 332.473 100.953 C
333.448 101.174 L
332.878 103.296 332.593 105.106 332.593 106.604 C
332.593 107.364 332.615 107.943 332.657 108.34 C
332.675 108.293 332.938 107.706 333.448 106.581 C
334.082 107.024 L
333.642 107.989 333.348 108.686 333.201 109.116 C
333.053 109.534 332.98 109.868 332.98 110.118 C
332.98 110.375 332.983 110.553 332.991 110.65 C
331.978 110.736 L
P
335.518 102.486 M
337.048 102.249 338.721 102.158 340.536 102.213 C
340.585 103.206 L
338.725 103.144 337.058 103.235 335.586 103.48 C
335.518 102.486 L
P
341.218 110.144 M
340.401 110.256 339.538 110.313 338.631 110.313 C
337.403 110.313 336.508 110.135 335.946 109.78 C
335.593 109.565 335.343 109.291 335.196 108.959 C
335.056 108.641 334.986 108.233 334.986 107.733 C
334.986 107.575 334.99 107.434 334.997 107.309 C
335.961 107.249 L
335.956 107.346 335.95 107.453 335.942 107.568 C
335.937 107.63 335.935 107.673 335.935 107.695 C
335.935 108.053 335.987 108.33 336.092 108.528 C
336.172 108.675 336.301 108.813 336.478 108.94 C
336.828 109.173 337.481 109.289 338.436 109.289 C
339.266 109.289 340.151 109.231 341.091 109.116 C
341.218 110.144 L
P
347.68 101.365 M
348.41 101.413 349.017 101.436 349.502 101.436 C
350.877 101.436 352.265 101.305 353.665 101.043 C
353.755 101.898 L
352.982 102.035 352.335 102.128 351.812 102.175 C
351.85 104.069 L
352.635 103.989 353.377 103.876 354.077 103.731 C
354.16 104.613 L
353.532 104.75 352.771 104.853 351.876 104.92 C
351.951 107.838 L
352.808 108.138 353.695 108.56 354.61 109.105 C
354.04 109.971 L
353.397 109.499 352.72 109.106 352.007 108.794 C
352.007 109.461 351.868 109.958 351.591 110.283 C
351.303 110.61 350.751 110.774 349.933 110.774 C
349.098 110.774 348.463 110.61 348.028 110.283 C
347.648 109.995 347.458 109.603 347.458 109.105 C
347.458 108.515 347.745 108.071 348.317 107.774 C
348.74 107.556 349.24 107.448 349.817 107.448 C
350.147 107.448 350.557 107.491 351.047 107.579 C
350.957 104.984 L
350.4 105.009 349.951 105.021 349.611 105.021 C
348.888 105.021 348.201 104.993 347.548 104.935 C
347.485 104.08 L
348.217 104.14 348.933 104.17 349.633 104.17 C
350.018 104.17 350.451 104.156 350.931 104.129 C
350.863 102.239 L
350.348 102.264 349.877 102.276 349.45 102.276 C
348.815 102.276 348.237 102.26 347.717 102.228 C
347.68 101.365 L
P
351.058 108.483 M
350.556 108.353 350.115 108.288 349.735 108.288 C
348.837 108.288 348.388 108.555 348.388 109.09 C
348.388 109.37 348.566 109.58 348.921 109.72 C
349.193 109.828 349.538 109.881 349.956 109.881 C
350.468 109.881 350.806 109.718 350.968 109.39 C
351.053 109.208 351.083 108.905 351.058 108.483 C
P
344.751 110.845 M
344.428 109.36 344.267 107.999 344.267 106.761 C
344.267 105.331 344.54 103.314 345.085 100.709 C
346.097 100.889 L
345.52 103.334 345.231 105.416 345.231 107.136 C
345.231 107.579 345.247 108.041 345.28 108.524 C
345.592 107.729 345.868 107.094 346.108 106.619 C
346.757 107.061 L
346.072 108.491 345.73 109.553 345.73 110.245 C
345.73 110.295 345.741 110.438 345.763 110.673 C
344.751 110.845 L
P
357.032 110.598 M
358.417 107.515 360.041 104.205 361.903 100.668 C
362.905 101.136 L
361.855 102.929 360.907 104.686 360.062 106.409 C
360.742 105.771 361.386 105.453 361.993 105.453 C
362.681 105.453 363.135 105.799 363.355 106.491 C
363.465 106.836 363.526 107.453 363.538 108.34 C
363.551 109.445 363.848 109.998 364.431 109.998 C
365.261 109.998 366.038 109.096 366.763 107.294 C
367.596 108.055 L
366.651 110.033 365.587 111.021 364.405 111.021 C
363.19 111.021 362.582 110.18 362.582 108.498 C
362.582 108.396 L
362.582 107.036 362.315 106.356 361.78 106.356 C
360.632 106.356 359.366 107.911 357.981 111.021 C
357.032 110.598 L
P
371.747 101.733 M
372.772 101.813 373.687 101.853 374.492 101.853 C
375.702 101.853 376.782 101.788 377.732 101.658 C
377.953 102.524 L
376.856 102.831 375.685 103.531 374.44 104.624 C
373.712 104.069 L
374.43 103.531 375.098 103.071 375.718 102.689 C
375.018 102.744 374.35 102.771 373.712 102.771 C
373.01 102.771 372.367 102.739 371.785 102.674 C
371.747 101.733 L
P
379.03 110.301 M
377.845 110.541 376.535 110.661 375.1 110.661 C
373.767 110.661 372.696 110.438 371.886 109.99 C
371.133 109.573 370.757 108.996 370.757 108.261 C
370.757 107.531 371.095 106.823 371.77 106.135 C
372.55 106.63 L
372.015 107.115 371.747 107.618 371.747 108.138 C
371.747 109.163 372.8108.794 M
409.277 108.291 409.695 107.77 410.012 107.23 C
410.302 106.733 410.557 106.14 410.777 105.453 C
411.688 105.865 L
411.431 106.68 411.118 107.384 410.751 107.976 C
410.461 108.449 410.065 108.969 409.562 109.536 C
408.76 108.794 L
P
418.296 109.225 M
417.666 107.888 416.988 106.755 416.263 105.828 C
417.092 105.284 L
417.835 106.149 418.548 107.245 419.233 108.573 C
418.296 109.225 L
P
425.447 104.414 M
424.597 103.644 423.66 102.969 422.635 102.389 C
423.295 101.511 L
424.215 101.954 425.182 102.601 426.197 103.454 C
425.447 104.414 L
P
422.725 109.428 M
426.62 108.758 429.397 106.585 431.057 102.91 C
431.875 103.638 L
430.247 107.248 427.423 109.519 423.403 110.451 C
422.725 109.428 L
P
435.482 102.34 M
443.646 102.34 L
443.646 110.56 L
442.607 110.56 L
442.607 109.66 L
435.336 109.66 L
435.336 108.663 L
442.607 108.663 L
442.607 103.326 L
435.482 103.326 L
435.482 102.34 L
P
445.626 101.658 M
445.136 100.923 444.626 100.334 444.096 99.891 C
444.707 99.423 L
445.227 99.84 445.748 100.399 446.271 1108.794 M
409.277 108.291 409.695 107.77 410.012 107.23 C
410.302 106.733 410.557 106.14 410.777 105.453 C
411.688 105.865 L
411.431 106.68 411.118 107.384 410.751 107.976 C
410.461 108.449 410.065 108.969 409.562 109.536 C
408.76 108.794 L
P
418.296 109.225 M
417.666 107.888 416.988 106.755 416.263 105.828 C
417.092 105.284 L
417.835 106.149 418.548 107.245 419.233 108.573 C
418.296 109.225 L
P
425.447 104.414 M
424.597 103.644 423.66 102.969 422.635 102.389 C
423.295 101.511 L
424.215 101.954 425.182 102.601 426.197 103.454 C
425.447 104.414 L
P
422.725 109.428 M
426.62 108.758 429.397 106.585 431.057 102.91 C
431.875 103.638 L
430.247 107.248 427.423 109.519 423.403 110.451 C
422.725 109.428 L
P
435.482 102.34 M
443.646 102.34 L
443.646 110.56 L
442.607 110.56 L
442.607 109.66 L
435.336 109.66 L
435.336 108.663 L
442.607 108.663 L
442.607 103.326 L
435.482 103.326 L
435.482 102.34 L
P
445.626 101.658 M
445.136 100.923 444.626 100.334 444.096 99.891 C
444.707 99.423 L
445.227 99.84 445.748 100.399 446.271 101.099 C
445.626 101.658 L
P
444.422 102.599 M
444.032 101.936 443.535 101.335 442.93 100.795 C
443.563 100.308 L
444.066 100.723 444.576 101.301 445.093 102.044 C
444.422 102.599 L
P
463.075 104.069 M
463.075 111.573 L
462.22 111.573 L
462.22 104.069 L
460.116 104.069 L
460.116 103.251 L
465.238 103.251 L
465.238 104.069 L
463.075 104.069 L
P
465.831 101.253 M
467.506 101.138 469.057 100.831 470.485 100.334 C
471.175 101.136 L
470.435 101.344 469.772 101.5 469.187 101.605 C
469.187 101.68 L
469.187 101.721 L
469.187 102.889 469.201 103.86 469.228 104.635 C
471.583 104.635 L
471.583 105.453 L
469.27 105.453 L
469.281 105.655 L
469.368 107.03 469.587 108.171 469.937 109.079 C
470.212 109.779 470.435 110.129 470.605 110.129 C
470.717 110.129 470.832 109.619 470.95 108.599 C
470.976 108.351 L
471.756 109.015 L
471.536 110.658 471.215 111.479 470.792 111.479 C
470.385 111.479 469.958 111.068 469.513 110.245 C
468.886 109.098 468.513 107.539 468.396 105.569 C
466.66 105.569 L
466.66 109.998 L
466.695 109.985 466.771 109.958 466.888 109.915 C
467.011 109.873 467.112 109.836 467.192 109.806 C
467.552 109.681 467.976 109.513 468.463 109.3 C
468.565 110.118 L
467.552 110.598 466.426 111.025 465.186 111.4 C
464.833 110.515 L
464.901 110.503 465.138 110.444 465.546 110.339 C
465.831 110.256 L
465.831 101.253 L
P
468.306 101.759 M
468.268 101.759 468.165 101.771 467.995 101.796 C
467.485 101.881 467.04 101.938 466.66 101.965 C
466.66 104.736 L
468.358 104.736 L
468.323 103.991 468.306 102.999 468.306 101.759 C
P
460.573 100.656 M
464.852 100.656 L
464.852 101.485 L
460.573 101.485 L
460.573 100.656 L
P
460.105 109.881 M
460.43 108.911 460.598 107.313 460.611 105.085 C
461.428 105.085 L
461.416 107.635 461.217 109.441 460.832 110.504 C
460.105 109.881 L
P
463.926 105.085 M
464.743 105.085 L
464.743 110.001 L
463.926 110.001 L
463.926 105.085 L
P
494.556 104.264 M
495.058 103.859 495.55 103.43 496.03 102.978 C
496.81 103.484 L
495.965 104.194 495.23 104.751 494.605 105.156 C
497.455 105.156 L
497.455 105.884 L
493.348 105.884 L
492.591 106.369 491.757 106.804 490.847 107.189 C
495.966 107.189 L
495.966 111.565 L
495.088 111.565 L
495.088 111.048 L
489.872 111.048 L
489.872 111.565 L
488.98 111.565 L
488.98 107.916 L
488.127 108.254 487.203 108.561 486.208 108.839 C
485.792 108.16 L
487.935 107.605 489.938 106.871 491.803 105.959 C
486.137 105.959 L
486.137 105.231 L
490.986 105.231 L
490.986 104.313 L
487.513 104.313 L
487.513 103.611 L
491.068 103.611 L
491.068 102.756 L
491.935 102.756 L
491.935 103.611 L
494.556 103.611 L
494.556 104.264 L
P
494.485 104.313 M
491.852 104.313 L
491.852 105.231 L
493.123 105.231 L
493.611 104.949 494.065 104.643 494.485 104.313 C
P
489.872 107.89 M
489.872 108.738 L
495.088 108.738 L
495.088 107.89 L
489.872 107.89 L
P
489.872 109.428 M
489.872 110.346 L
495.088 110.346 L
495.088 109.428 L
489.872 109.428 L
P
488.263 100.953 M
491.788 100.953 L
491.788 101.68 L
489.835 101.68 L
490.007 102.003 490.176 102.383 490.341 102.82 C
489.486 103.094 L
489.293 102.486 489.116 102.015 488.953 101.68 C
487.941 101.68 L
487.558 102.395 487.122 103.023 486.632 103.563 C
485.957 103.041 L
486.72 102.229 487.316 101.17 487.746 99.865 C
488.59 100.06 L
488.5 100.353 488.391 100.65 488.263 100.953 C
P
493.348 100.953 M
497.466 100.953 L
497.466 101.68 L
494.785 101.68 L
494.995 101.993 495.188 102.326 495.366 102.681 C
494.537 103.041 L
494.365 102.574 494.141 102.12 493.866 101.68 C
493.022 101.68 L
492.985 101.759 L
492.775 102.164 492.528 102.554 492.246 102.929 C
491.582 102.385 L
492.105 101.655 492.511 100.824 492.801 99.891 C
493.671 100.075 L
493.536 100.463 493.428 100.755 493.348 100.953 C
P
494.833 107.148 M
494.411 106.858 493.95 106.615 493.45 106.42 C
494.076 105.903 L
494.496 106.058 494.97 106.284 495.497 106.581 C
494.833 107.148 L
P
G
WC
WF
R N
pgSave restore
showpage
%%EOF
