%!PS-Adobe-3.0
%%Page: 1 1

/Time-Roman findfont 25 scalefont setfont
100 600 moveto (The five boxing wizards jump quickly.) show

/Time-Italic findfont 25 scalefont setfont
100 500 moveto (The five boxing wizards jump quickly.) show

/Time-Bold findfont 25 scalefont setfont
100 400 moveto (The five boxing wizards jump quickly.) show

/Time-BoldItalic findfont 25 scalefont setfont
100 300 moveto (The five boxing wizards jump quickly.) show

% Helvetica
% Helvetica-Oblique
% Helvetica-Bold
% Helvetica-BoldOblique

% Courier
% Courier-Oblique
% Courier-Bold
% Courier-BoldOblique

% Symbol

showpage

%%EOF
