%!PS-Adobe-3.0
%%Page: 1 1

/mytext {(The five boxing wizards jump quickly.)}def

/rightshow{
    dup stringwidth pop
    0 exch sub
    0 rmoveto
    show }def

/centershow{
    dup stringwidth pop
    0.5 mul
    0 exch sub
    0 rmoveto
    show }def

/Helvetica findfont 15 scalefont setfont

300 700 moveto mytext show
300 650 moveto mytext centershow
300 600 moveto mytext rightshow


200 500 moveto 10 rotate mytext show -10 rotate
200 450 moveto 2 0 mytext ashow
200 400 moveto -1 0 mytext ashow
200 350 moveto 0 1 mytext ashow

/Helvetica-Bold findfont 25 scalefont setfont

100 250 moveto mytext show

newpath
    100 200 moveto mytext false charpath 0.5 setlinewidth
stroke

newpath
    100 100 moveto -22 -22 rmoveto
    500 0 rlineto 0 60 rlineto
    -500 0 rlineto 0 -60 rlineto closepath
    0.8 setgray fill
stroke

newpath
    100 100 moveto mytext false charpath
    5 setlinewidth 1 setlinecap 1 setlinejoin 1 setgray
stroke

100 100 moveto mytext 0 setgray show

showpage

%%EOF