%!PS-Adobe-3.0
%%Page: 1 1

/FONT /Symbol findfont 13 scalefont def
/TR /Times-Roman findfont 11 scalefont def

TR setfont
0 1 7 {
    60 mul 96 add 620 moveto
    (Hex Char)show
}for

/showstring 1 string def
/counterstring 2 string def

/xpos 100 def
/ypos 600 def

0 1 255 {
	/counter exch def
	/charstring showstring dup 0 counter put def
	TR setfont
	xpos ypos moveto
	counter 16 counterstring cvrs show
	FONT setfont
	xpos 25 add ypos moveto
	charstring show
	/ypos ypos 16 sub def
	counter 1 add 32 mod 0 eq {
	    
	    /xpos xpos 60 add def
	    /ypos 600 def
	}if
}for

showpage

%%EOF