%!PS-Adobe-3.0
%%Page: 1 1

/outlinefont {/Helvetica-Bold findfont 100 scalefont setfont} def
/outlinepath{(SAMPLE) true charpath} def

1 setlinejoin
4 setlinewidth 0.8 setgray
outlinefont
103 97 moveto outlinepath
fill stroke

0 setlinewidth 1 setgray
100 100 moveto outlinepath
gsave
clip
fill stroke

0.4 setgray
/Time-BoldItalic findfont 10 scalefont setfont
0 1 8 {
    /j exch def
    50 6 j mul add 100 10 j mul add moveto
    0 1 15 {(sample ) show}for
}for
grestore

1 setlinewidth 0 setgray
stroke


showpage

%%EOF