%!PS-Adobe-3.0
%%BeginProlog
/imStr 0 def /imageSrc {currentfile /ASCII85Decode filter /RunLengthDecode filter  imStr readstring pop } def
/BD {bind def} bind def
/D {def} BD
/C {curveto} BD
/L {lineto} BD
/M {moveto} BD
/R {grestore} BD
/G {gsave} BD
/N {newpath} BD
/P {closepath} BD
/EC {eoclip} BD
/WC {clip} BD
/EF {eofill} BD
/WF {fill} BD
/SG {setgray} BD
/SC {setrgbcolor} BD
/ISOF {
     dup findfont dup length 1 add dict begin {
             1 index /FID eq {pop pop} {D} ifelse
     } forall /Encoding ISOLatin1Encoding D
     currentdict end definefont
} BD
/NZ {dup 1 lt {pop 1} if} BD
/S {
     moveto 1 index stringwidth pop NZ sub
     1 index length 1 sub NZ div 0
     3 2 roll ashow newpath} BD
/FL [
    /Helvetica ISOF
    /Helvetica-Bold ISOF
    /Helvetica-Oblique ISOF
    /Helvetica-BoldOblique ISOF
    /Times-Roman ISOF
    /Times-Bold ISOF
    /Times-Italic ISOF
    /Times-BoldItalic ISOF
    /Courier ISOF
    /Courier-Bold ISOF
    /Courier-Oblique ISOF
    /Courier-BoldOblique ISOF
    /GothicBBB-Medium-H findfont
    /Ryumin-Light-H findfont
    /GothicBBB-Medium.Hankaku findfont
    /Ryumin-Light.Hankaku findfont
] D
/F {
     FL exch get exch scalefont
     [1 0 0 -1 0 0] makefont setfont} BD
%%EndProlog
%%BeginSetup
<< /PageSize [595.2755737304688 841.8897705078125] /DeferredMediaSelection true /ImagingBBox null /ManualFeed false /NumCopies 1 >> setpagedevice 
%%EndSetup
%%Page: 1 1
/pgSave save def
841.8897705078125 0 exch translate 1 -1 scale[72 300 div 0 0 72 300 div 0 0]concat
1.0 SG
G
[4.1666665 0.0 0.0 4.1666665 -0.0 -0.0] concat
N
0.0 0.0 M
595.276 0.0 L
595.276 841.89 L
0.0 841.89 L
0.0 0.0 L
P
WC
N
0.0 0.0 M
596.0 0.0 L
596.0 842.0 L
0.0 842.0 L
0.0 0.0 L
P
G
WC
WF
R N
0.0 SG
20.0 4 F
<546c35303137332052796f746154616e696d6f746f> 226.31999 87.03937 150.0315 S
20.0 4 F
<50> 12.48 87.03937 180.0315 S
11.0 0 F
<487565202f2053617475726174696f6e202f204272696768746e657373> 151.19998 370.50394 180.0315 S
11.0 0 F
<20302e37303030202f2020302e31303030202f2020312e30303030> 144.23999 372.50394 200.0315 S
0.92156863 0.9019608 1.0  SC
N
85.039 190.032 M
368.504 190.032 L
368.504 331.764 L
85.039 331.764 L
85.039 190.032 L
P
G
WC
WF
R N
0.0 SG
11.0 0 F
<20302e37303030202f2020302e32303030202f2020312e30303030> 144.23999 372.50394 341.7638 S
0.8392157 0.8 1.0  SC
N
85.039 331.764 M
368.504 331.764 L
368.504 473.496 L
85.039 473.496 L
85.039 331.764 L
P
G
WC
WF
R N
0.0 SG
11.0 0 F
<20302e32303030202f2020302e32303030202f2020312e30303030> 144.23999 372.50394 483.49606 S
0.9607843 1.0 0.8  SC
N
85.039 473.496 M
368.504 473.496 L
368.504 615.228 L
85.039 615.228 L
85.039 473.496 L
P
G
WC
WF
R N
0.0 SG
11.0 0 F
<20302e36303030202f2020302e33303030202f2020312e30303030> 144.23999 372.50394 625.22833 S
0.7019608 0.81960785 1.0  SC
N
85.039 615.228 M
368.504 615.228 L
368.504 756.961 L
85.039 756.961 L
85.039 615.228 L
P
G
WC
WF
R N
pgSave restore
showpage
%%EOF
