%!PS-Adobe-3.0
%%BeginProlog
/imStr 0 def /imageSrc {currentfile /ASCII85Decode filter /RunLengthDecode filter  imStr readstring pop } def
/BD {bind def} bind def
/D {def} BD
/C {curveto} BD
/L {lineto} BD
/M {moveto} BD
/R {grestore} BD
/G {gsave} BD
/N {newpath} BD
/P {closepath} BD
/EC {eoclip} BD
/WC {clip} BD
/EF {eofill} BD
/WF {fill} BD
/SG {setgray} BD
/SC {setrgbcolor} BD
/ISOF {
     dup findfont dup length 1 add dict begin {
             1 index /FID eq {pop pop} {D} ifelse
     } forall /Encoding ISOLatin1Encoding D
     currentdict end definefont
} BD
/NZ {dup 1 lt {pop 1} if} BD
/S {
     moveto 1 index stringwidth pop NZ sub
     1 index length 1 sub NZ div 0
     3 2 roll ashow newpath} BD
/FL [
    /Helvetica ISOF
    /Helvetica-Bold ISOF
    /Helvetica-Oblique ISOF
    /Helvetica-BoldOblique ISOF
    /Times-Roman ISOF
    /Times-Bold ISOF
    /Times-Italic ISOF
    /Times-BoldItalic ISOF
    /Courier ISOF
    /Courier-Bold ISOF
    /Courier-Oblique ISOF
    /Courier-BoldOblique ISOF
    /GothicBBB-Medium-H findfont
    /Ryumin-Light-H findfont
    /GothicBBB-Medium.Hankaku findfont
    /Ryumin-Light.Hankaku findfont
] D
/F {
     FL exch get exch scalefont
     [1 0 0 -1 0 0] makefont setfont} BD
%%EndProlog
%%BeginSetup
<< /PageSize [595.2755737304688 841.8897705078125] /DeferredMediaSelection true /ImagingBBox null /ManualFeed false /NumCopies 1 >> setpagedevice 
%%EndSetup
%%Page: 1 1
/pgSave save def
841.8897705078125 0 exch translate 1 -1 scale[72 300 div 0 0 72 300 div 0 0]concat
1.0 SG
G
[4.1666665 0.0 0.0 4.1666665 -0.0 -0.0] concat
N
0.0 0.0 M
595.276 0.0 L
595.276 841.89 L
0.0 841.89 L
0.0 0.0 L
P
WC
N
0.0 0.0 M
596.0 0.0 L
596.0 842.0 L
0.0 842.0 L
0.0 0.0 L
P
G
WC
WF
R N
0.0 SG
11.0 0 F
<487565202f2053617475726174696f6e202f204272696768746e657373> 151.19998 376.50394 1150.6082 S
11.0 0 F
<20203834> 19.68 61.35937 760.96063 S
11.0 0 F
<20302e3733303020202f2020302e3430303020202f2020312e30303030> 150.0 372.50394 760.96063 S
11.0 0 F
<20203836> 19.68 61.35937 751.186 S
11.0 0 F
<20302e3533303020202f2020302e3430303020202f2020312e30303030> 150.0 372.50394 751.186 S
11.0 0 F
<20203934> 19.68 61.35937 712.0874 S
11.0 0 F
<20302e3333303020202f2020302e3335303020202f2020312e30303030> 150.0 372.50394 712.0874 S
11.0 0 F
<20313130> 23.759998 57.279373 633.8903 S
11.0 0 F
<20302e3137303020202f2020302e3335303020202f2020312e30303030> 150.0 372.50394 633.8903 S
11.0 0 F
<20323030> 23.759998 57.279373 194.0315 S
11.0 0 F
<20302e3130303020202f2020302e3335303020202f2020312e30303030> 150.0 372.50394 194.0315 S
0.7529412 0.6 1.0  SC
N
85.039 755.739 M
368.504 755.739 L
368.504 758.182 L
85.039 758.182 L
85.039 755.739 L
P
G
WC
WF
R N
0.6313726 0.6 1.0  SC
N
85.039 753.295 M
368.504 753.295 L
368.504 755.739 L
85.039 755.739 L
85.039 753.295 L
P
G
WC
WF
R N
0.6 0.6862745 1.0  SC
N
85.039 750.852 M
368.504 750.852 L
368.504 753.295 L
85.039 753.295 L
85.039 750.852 L
P
G
WC
WF
R N
0.6 0.80784315 1.0  SC
N
85.039 748.408 M
368.504 748.408 L
368.504 750.852 L
85.039 750.852 L
85.039 748.408 L
P
G
WC
WF
R N
0.6 0.92941177 1.0  SC
N
85.039 745.964 M
368.504 745.964 L
368.504 748.408 L
85.039 748.408 L
85.039 745.964 L
P
G
WC
WF
R N
0.6039216 0.95686275 1.0  SC
N
85.039 743.521 M
368.504 743.521 L
368.504 745.964 L
85.039 745.964 L
85.039 743.521 L
P
G
WC
WF
R N
0.60784316 0.9882353 1.0  SC
N
85.039 741.077 M
368.504 741.077 L
368.504 743.521 L
85.039 743.521 L
85.039 741.077 L
P
G
WC
WF
R N
0.60784316 1.0 0.9843137  SC
N
85.039 738.633 M
368.504 738.633 L
368.504 741.077 L
85.039 741.077 L
85.039 738.633 L
P
G
WC
WF
R N
0.6117647 1.0 0.9529412  SC
N
85.039 736.19 M
368.504 736.19 L
368.504 738.633 L
85.039 738.633 L
85.039 736.19 L
P
G
WC
WF
R N
0.6156863 1.0 0.9254902  SC
N
85.039 733.746 M
368.504 733.746 L
368.504 736.19 L
85.039 736.19 L
85.039 733.746 L
P
G
WC
WF
R N
0.61960787 1.0 0.8980392  SC
N
85.039 731.302 M
368.504 731.302 L
368.504 733.746 L
85.039 733.746 L
85.039 731.302 L
P
G
WC
WF
R N
0.62352943 1.0 0.87058824  SC
N
85.039 728.859 M
368.504 728.859 L
368.504 731.302 L
85.039 731.302 L
85.039 728.859 L
P
G
WC
WF
R N
0.62352943 1.0 0.84313726  SC
N
85.039 726.415 M
368.504 726.415 L
368.504 728.859 L
85.039 728.859 L
85.039 726.415 L
P
G
WC
WF
R N
0.627451 1.0 0.8156863  SC
N
85.039 723.971 M
368.504 723.971 L
368.504 726.415 L
85.039 726.415 L
85.039 723.971 L
P
G
WC
WF
R N
0.6313726 1.0 0.7882353  SC
N
85.039 721.528 M
368.504 721.528 L
368.504 723.971 L
85.039 723.971 L
85.039 721.528 L
P
G
WC
WF
R N
0.63529414 1.0 0.7647059  SC
N
85.039 719.084 M
368.504 719.084 L
368.504 721.528 L
85.039 721.528 L
85.039 719.084 L
P
G
WC
WF
R N
0.6392157 1.0 0.7372549  SC
N
85.039 716.64 M
368.504 716.64 L
368.504 719.084 L
85.039 719.084 L
85.039 716.64 L
P
G
WC
WF
R N
0.6392157 1.0 0.7137255  SC
N
85.039 714.197 M
368.504 714.197 L
368.504 716.64 L
85.039 716.64 L
85.039 714.197 L
P
G
WC
WF
R N
0.6431373 1.0 0.6901961  SC
N
85.039 711.753 M
368.504 711.753 L
368.504 714.197 L
85.039 714.197 L
85.039 711.753 L
P
G
WC
WF
R N
0.64705884 1.0 0.6666667  SC
N
85.039 709.309 M
368.504 709.309 L
368.504 711.753 L
85.039 711.753 L
85.039 709.309 L
P
G
WC
WF
R N
0.65882355 1.0 0.6509804  SC
N
85.039 706.866 M
368.504 706.866 L
368.504 709.309 L
85.039 709.309 L
85.039 706.866 L
P
G
WC
WF
R N
0.6666667 1.0 0.6509804  SC
N
85.039 704.422 M
368.504 704.422 L
368.504 706.866 L
85.039 706.866 L
85.039 704.422 L
P
G
WC
WF
R N
0.6784314 1.0 0.6509804  SC
N
85.039 701.978 M
368.504 701.978 L
368.504 704.422 L
85.039 704.422 L
85.039 701.978 L
P
G
WC
WF
R N
0.6901961 1.0 0.6509804  SC
N
85.039 699.535 M
368.504 699.535 L
368.504 701.978 L
85.039 701.978 L
85.039 699.535 L
P
G
WC
WF
R N
0.69803923 1.0 0.6509804  SC
N
85.039 697.091 M
368.504 697.091 L
368.504 699.535 L
85.039 699.535 L
85.039 697.091 L
P
G
WC
WF
R N
0.70980394 1.0 0.6509804  SC
N
85.039 694.647 M
368.504 694.647 L
368.504 697.091 L
85.039 697.091 L
85.039 694.647 L
P
G
WC
WF
R N
0.72156864 1.0 0.6509804  SC
N
85.039 692.204 M
368.504 692.204 L
368.504 694.647 L
85.039 694.647 L
85.039 692.204 L
P
G
WC
WF
R N
0.7294118 1.0 0.6509804  SC
N
85.039 689.76 M
368.504 689.76 L
368.504 692.204 L
85.039 692.204 L
85.039 689.76 L
P
G
WC
WF
R N
0.7411765 1.0 0.6509804  SC
N
85.039 687.316 M
368.504 687.316 L
368.504 689.76 L
85.039 689.76 L
85.039 687.316 L
P
G
WC
WF
R N
0.7529412 1.0 0.6509804  SC
N
85.039 684.873 M
368.504 684.873 L
368.504 687.316 L
85.039 687.316 L
85.039 684.873 L
P
G
WC
WF
R N
0.7607843 1.0 0.6509804  SC
N
85.039 682.429 M
368.504 682.429 L
368.504 684.873 L
85.039 684.873 L
85.039 682.429 L
P
G
WC
WF
R N
0.77254903 1.0 0.6509804  SC
N
85.039 679.985 M
368.504 679.985 L
368.504 682.429 L
85.039 682.429 L
85.039 679.985 L
P
G
WC
WF
R N
0.78431374 1.0 0.6509804  SC
N
85.039 677.542 M
368.504 677.542 L
368.504 679.985 L
85.039 679.985 L
85.039 677.542 L
P
G
WC
WF
R N
0.7921569 1.0 0.6509804  SC
N
85.039 675.098 M
368.504 675.098 L
368.504 677.542 L
85.039 677.542 L
85.039 675.098 L
P
G
WC
WF
R N
0.8039216 1.0 0.6509804  SC
N
85.039 672.654 M
368.504 672.654 L
368.504 675.098 L
85.039 675.098 L
85.039 672.654 L
P
G
WC
WF
R N
0.8156863 1.0 0.6509804  SC
N
85.039 670.211 M
368.504 670.211 L
368.504 672.654 L
85.039 672.654 L
85.039 670.211 L
P
G
WC
WF
R N
0.8235294 1.0 0.6509804  SC
N
85.039 667.767 M
368.504 667.767 L
368.504 670.211 L
85.039 670.211 L
85.039 667.767 L
P
G
WC
WF
R N
0.8352941 1.0 0.6509804  SC
N
85.039 665.323 M
368.504 665.323 L
368.504 667.767 L
85.039 667.767 L
85.039 665.323 L
P
G
WC
WF
R N
0.84705883 1.0 0.6509804  SC
N
85.039 662.88 M
368.504 662.88 L
368.504 665.323 L
85.039 665.323 L
85.039 662.88 L
P
G
WC
WF
R N
0.85490197 1.0 0.6509804  SC
N
85.039 660.436 M
368.504 660.436 L
368.504 662.88 L
85.039 662.88 L
85.039 660.436 L
P
G
WC
WF
R N
0.8666667 1.0 0.6509804  SC
N
85.039 657.992 M
368.504 657.992 L
368.504 660.436 L
85.039 660.436 L
85.039 657.992 L
P
G
WC
WF
R N
0.8784314 1.0 0.6509804  SC
N
85.039 655.549 M
368.504 655.549 L
368.504 657.992 L
85.039 657.992 L
85.039 655.549 L
P
G
WC
WF
R N
0.8862745 1.0 0.6509804  SC
N
85.039 653.105 M
368.504 653.105 L
368.504 655.549 L
85.039 655.549 L
85.039 653.105 L
P
G
WC
WF
R N
0.8980392 1.0 0.6509804  SC
N
85.039 650.661 M
368.504 650.661 L
368.504 653.105 L
85.039 653.105 L
85.039 650.661 L
P
G
WC
WF
R N
0.9098039 1.0 0.6509804  SC
N
85.039 648.218 M
368.504 648.218 L
368.504 650.661 L
85.039 650.661 L
85.039 648.218 L
P
G
WC
WF
R N
0.91764706 1.0 0.6509804  SC
N
85.039 645.774 M
368.504 645.774 L
368.504 648.218 L
85.039 648.218 L
85.039 645.774 L
P
G
WC
WF
R N
0.92941177 1.0 0.6509804  SC
N
85.039 643.33 M
368.504 643.33 L
368.504 645.774 L
85.039 645.774 L
85.039 643.33 L
P
G
WC
WF
R N
0.9411765 1.0 0.6509804  SC
N
85.039 640.887 M
368.504 640.887 L
368.504 643.33 L
85.039 643.33 L
85.039 640.887 L
P
G
WC
WF
R N
0.9529412 1.0 0.6509804  SC
N
85.039 638.443 M
368.504 638.443 L
368.504 640.887 L
85.039 640.887 L
85.039 638.443 L
P
G
WC
WF
R N
0.9607843 1.0 0.6509804  SC
N
85.039 635.999 M
368.504 635.999 L
368.504 638.443 L
85.039 638.443 L
85.039 635.999 L
P
G
WC
WF
R N
0.972549 1.0 0.6509804  SC
N
85.039 633.556 M
368.504 633.556 L
368.504 635.999 L
85.039 635.999 L
85.039 633.556 L
P
G
WC
WF
R N
0.9843137 1.0 0.6509804  SC
N
85.039 631.112 M
368.504 631.112 L
368.504 633.556 L
85.039 633.556 L
85.039 631.112 L
P
G
WC
WF
R N
0.99215686 1.0 0.6509804  SC
N
85.039 628.668 M
368.504 628.668 L
368.504 631.112 L
85.039 631.112 L
85.039 628.668 L
P
G
WC
WF
R N
N
85.039 626.225 M
368.504 626.225 L
368.504 628.668 L
85.039 628.668 L
85.039 626.225 L
P
G
WC
WF
R N
0.99607843 1.0 0.6509804  SC
N
85.039 623.781 M
368.504 623.781 L
368.504 626.225 L
85.039 626.225 L
85.039 623.781 L
P
G
WC
WF
R N
N
85.039 621.338 M
368.504 621.338 L
368.504 623.781 L
85.039 623.781 L
85.039 621.338 L
P
G
WC
WF
R N
N
85.039 618.894 M
368.504 618.894 L
368.504 621.338 L
85.039 621.338 L
85.039 618.894 L
P
G
WC
WF
R N
N
85.039 616.45 M
368.504 616.45 L
368.504 618.894 L
85.039 618.894 L
85.039 616.45 L
P
G
WC
WF
R N
N
85.039 614.007 M
368.504 614.007 L
368.504 616.45 L
85.039 616.45 L
85.039 614.007 L
P
G
WC
WF
R N
1.0 1.0 0.6509804  SC
N
85.039 611.563 M
368.504 611.563 L
368.504 614.007 L
85.039 614.007 L
85.039 611.563 L
P
G
WC
WF
R N
N
85.039 609.119 M
368.504 609.119 L
368.504 611.563 L
85.039 611.563 L
85.039 609.119 L
P
G
WC
WF
R N
N
85.039 606.676 M
368.504 606.676 L
368.504 609.119 L
85.039 609.119 L
85.039 606.676 L
P
G
WC
WF
R N
N
85.039 604.232 M
368.504 604.232 L
368.504 606.676 L
85.039 606.676 L
85.039 604.232 L
P
G
WC
WF
R N
1.0 0.99607843 0.6509804  SC
N
85.039 601.788 M
368.504 601.788 L
368.504 604.232 L
85.039 604.232 L
85.039 601.788 L
P
G
WC
WF
R N
N
85.039 599.345 M
368.504 599.345 L
368.504 601.788 L
85.039 601.788 L
85.039 599.345 L
P
G
WC
WF
R N
N
85.039 596.901 M
368.504 596.901 L
368.504 599.345 L
85.039 599.345 L
85.039 596.901 L
P
G
WC
WF
R N
N
85.039 594.457 M
368.504 594.457 L
368.504 596.901 L
85.039 596.901 L
85.039 594.457 L
P
G
WC
WF
R N
N
85.039 592.014 M
368.504 592.014 L
368.504 594.457 L
85.039 594.457 L
85.039 592.014 L
P
G
WC
WF
R N
1.0 0.99215686 0.6509804  SC
N
85.039 589.57 M
368.504 589.57 L
368.504 592.014 L
85.039 592.014 L
85.039 589.57 L
P
G
WC
WF
R N
N
85.039 587.126 M
368.504 587.126 L
368.504 589.57 L
85.039 589.57 L
85.039 587.126 L
P
G
WC
WF
R N
N
85.039 584.683 M
368.504 584.683 L
368.504 587.126 L
85.039 587.126 L
85.039 584.683 L
P
G
WC
WF
R N
N
85.039 582.239 M
368.504 582.239 L
368.504 584.683 L
85.039 584.683 L
85.039 582.239 L
P
G
WC
WF
R N
N
85.039 579.795 M
368.504 579.795 L
368.504 582.239 L
85.039 582.239 L
85.039 579.795 L
P
G
WC
WF
R N
1.0 0.9882353 0.6509804  SC
N
85.039 577.352 M
368.504 577.352 L
368.504 579.795 L
85.039 579.795 L
85.039 577.352 L
P
G
WC
WF
R N
N
85.039 574.908 M
368.504 574.908 L
368.504 577.352 L
85.039 577.352 L
85.039 574.908 L
P
G
WC
WF
R N
N
85.039 572.464 M
368.504 572.464 L
368.504 574.908 L
85.039 574.908 L
85.039 572.464 L
P
G
WC
WF
R N
N
85.039 570.021 M
368.504 570.021 L
368.504 572.464 L
85.039 572.464 L
85.039 570.021 L
P
G
WC
WF
R N
N
85.039 567.577 M
368.504 567.577 L
368.504 570.021 L
85.039 570.021 L
85.039 567.577 L
P
G
WC
WF
R N
1.0 0.9843137 0.6509804  SC
N
85.039 565.133 M
368.504 565.133 L
368.504 567.577 L
85.039 567.577 L
85.039 565.133 L
P
G
WC
WF
R N
N
85.039 562.69 M
368.504 562.69 L
368.504 565.133 L
85.039 565.133 L
85.039 562.69 L
P
G
WC
WF
R N
N
85.039 560.246 M
368.504 560.246 L
368.504 562.69 L
85.039 562.69 L
85.039 560.246 L
P
G
WC
WF
R N
N
85.039 557.802 M
368.504 557.802 L
368.504 560.246 L
85.039 560.246 L
85.039 557.802 L
P
G
WC
WF
R N
N
85.039 555.359 M
368.504 555.359 L
368.504 557.802 L
85.039 557.802 L
85.039 555.359 L
P
G
WC
WF
R N
1.0 0.98039216 0.6509804  SC
N
85.039 552.915 M
368.504 552.915 L
368.504 555.359 L
85.039 555.359 L
85.039 552.915 L
P
G
WC
WF
R N
N
85.039 550.471 M
368.504 550.471 L
368.504 552.915 L
85.039 552.915 L
85.039 550.471 L
P
G
WC
WF
R N
N
85.039 548.028 M
368.504 548.028 L
368.504 550.471 L
85.039 550.471 L
85.039 548.028 L
P
G
WC
WF
R N
N
85.039 545.584 M
368.504 545.584 L
368.504 548.028 L
85.039 548.028 L
85.039 545.584 L
P
G
WC
WF
R N
1.0 0.9764706 0.6509804  SC
N
85.039 543.14 M
368.504 543.14 L
368.504 545.584 L
85.039 545.584 L
85.039 543.14 L
P
G
WC
WF
R N
N
85.039 540.697 M
368.504 540.697 L
368.504 543.14 L
85.039 543.14 L
85.039 540.697 L
P
G
WC
WF
R N
N
85.039 538.253 M
368.504 538.253 L
368.504 540.697 L
85.039 540.697 L
85.039 538.253 L
P
G
WC
WF
R N
N
85.039 535.809 M
368.504 535.809 L
368.504 538.253 L
85.039 538.253 L
85.039 535.809 L
P
G
WC
WF
R N
N
85.039 533.366 M
368.504 533.366 L
368.504 535.809 L
85.039 535.809 L
85.039 533.366 L
P
G
WC
WF
R N
1.0 0.972549 0.6509804  SC
N
85.039 530.922 M
368.504 530.922 L
368.504 533.366 L
85.039 533.366 L
85.039 530.922 L
P
G
WC
WF
R N
N
85.039 528.478 M
368.504 528.478 L
368.504 530.922 L
85.039 530.922 L
85.039 528.478 L
P
G
WC
WF
R N
N
85.039 526.035 M
368.504 526.035 L
368.504 528.478 L
85.039 528.478 L
85.039 526.035 L
P
G
WC
WF
R N
N
85.039 523.591 M
368.504 523.591 L
368.504 526.035 L
85.039 526.035 L
85.039 523.591 L
P
G
WC
WF
R N
N
85.039 521.147 M
368.504 521.147 L
368.504 523.591 L
85.039 523.591 L
85.039 521.147 L
P
G
WC
WF
R N
1.0 0.96862745 0.6509804  SC
N
85.039 518.704 M
368.504 518.704 L
368.504 521.147 L
85.039 521.147 L
85.039 518.704 L
P
G
WC
WF
R N
N
85.039 516.26 M
368.504 516.26 L
368.504 518.704 L
85.039 518.704 L
85.039 516.26 L
P
G
WC
WF
R N
N
85.039 513.816 M
368.504 513.816 L
368.504 516.26 L
85.039 516.26 L
85.039 513.816 L
P
G
WC
WF
R N
N
85.039 511.373 M
368.504 511.373 L
368.504 513.816 L
85.039 513.816 L
85.039 511.373 L
P
G
WC
WF
R N
N
85.039 508.929 M
368.504 508.929 L
368.504 511.373 L
85.039 511.373 L
85.039 508.929 L
P
G
WC
WF
R N
1.0 0.9647059 0.6509804  SC
N
85.039 506.485 M
368.504 506.485 L
368.504 508.929 L
85.039 508.929 L
85.039 506.485 L
P
G
WC
WF
R N
N
85.039 504.042 M
368.504 504.042 L
368.504 506.485 L
85.039 506.485 L
85.039 504.042 L
P
G
WC
WF
R N
N
85.039 501.598 M
368.504 501.598 L
368.504 504.042 L
85.039 504.042 L
85.039 501.598 L
P
G
WC
WF
R N
N
85.039 499.154 M
368.504 499.154 L
368.504 501.598 L
85.039 501.598 L
85.039 499.154 L
P
G
WC
WF
R N
N
85.039 496.711 M
368.504 496.711 L
368.504 499.155 L
85.039 499.155 L
85.039 496.711 L
P
G
WC
WF
R N
1.0 0.9607843 0.6509804  SC
N
85.039 494.267 M
368.504 494.267 L
368.504 496.711 L
85.039 496.711 L
85.039 494.267 L
P
G
WC
WF
R N
N
85.039 491.824 M
368.504 491.824 L
368.504 494.267 L
85.039 494.267 L
85.039 491.824 L
P
G
WC
WF
R N
N
85.039 489.38 M
368.504 489.38 L
368.504 491.824 L
85.039 491.824 L
85.039 489.38 L
P
G
WC
WF
R N
N
85.039 486.936 M
368.504 486.936 L
368.504 489.38 L
85.039 489.38 L
85.039 486.936 L
P
G
WC
WF
R N
1.0 0.95686275 0.6509804  SC
N
85.039 484.493 M
368.504 484.493 L
368.504 486.936 L
85.039 486.936 L
85.039 484.493 L
P
G
WC
WF
R N
N
85.039 482.049 M
368.504 482.049 L
368.504 484.493 L
85.039 484.493 L
85.039 482.049 L
P
G
WC
WF
R N
N
85.039 479.605 M
368.504 479.605 L
368.504 482.049 L
85.039 482.049 L
85.039 479.605 L
P
G
WC
WF
R N
N
85.039 477.162 M
368.504 477.162 L
368.504 479.605 L
85.039 479.605 L
85.039 477.162 L
P
G
WC
WF
R N
N
85.039 474.718 M
368.504 474.718 L
368.504 477.162 L
85.039 477.162 L
85.039 474.718 L
P
G
WC
WF
R N
1.0 0.9529412 0.6509804  SC
N
85.039 472.274 M
368.504 472.274 L
368.504 474.718 L
85.039 474.718 L
85.039 472.274 L
P
G
WC
WF
R N
N
85.039 469.831 M
368.504 469.831 L
368.504 472.274 L
85.039 472.274 L
85.039 469.831 L
P
G
WC
WF
R N
N
85.039 467.387 M
368.504 467.387 L
368.504 469.831 L
85.039 469.831 L
85.039 467.387 L
P
G
WC
WF
R N
N
85.039 464.943 M
368.504 464.943 L
368.504 467.387 L
85.039 467.387 L
85.039 464.943 L
P
G
WC
WF
R N
N
85.039 462.5 M
368.504 462.5 L
368.504 464.943 L
85.039 464.943 L
85.039 462.5 L
P
G
WC
WF
R N
1.0 0.9490196 0.6509804  SC
N
85.039 460.056 M
368.504 460.056 L
368.504 462.5 L
85.039 462.5 L
85.039 460.056 L
P
G
WC
WF
R N
N
85.039 457.612 M
368.504 457.612 L
368.504 460.056 L
85.039 460.056 L
85.039 457.612 L
P
G
WC
WF
R N
N
85.039 455.169 M
368.504 455.169 L
368.504 457.612 L
85.039 457.612 L
85.039 455.169 L
P
G
WC
WF
R N
N
85.039 452.725 M
368.504 452.725 L
368.504 455.169 L
85.039 455.169 L
85.039 452.725 L
P
G
WC
WF
R N
N
85.039 450.281 M
368.504 450.281 L
368.504 452.725 L
85.039 452.725 L
85.039 450.281 L
P
G
WC
WF
R N
1.0 0.94509804 0.6509804  SC
N
85.039 447.838 M
368.504 447.838 L
368.504 450.281 L
85.039 450.281 L
85.039 447.838 L
P
G
WC
WF
R N
N
85.039 445.394 M
368.504 445.394 L
368.504 447.838 L
85.039 447.838 L
85.039 445.394 L
P
G
WC
WF
R N
N
85.039 442.95 M
368.504 442.95 L
368.504 445.394 L
85.039 445.394 L
85.039 442.95 L
P
G
WC
WF
R N
N
85.039 440.507 M
368.504 440.507 L
368.504 442.95 L
85.039 442.95 L
85.039 440.507 L
P
G
WC
WF
R N
N
85.039 438.063 M
368.504 438.063 L
368.504 440.507 L
85.039 440.507 L
85.039 438.063 L
P
G
WC
WF
R N
1.0 0.9411765 0.6509804  SC
N
85.039 435.619 M
368.504 435.619 L
368.504 438.063 L
85.039 438.063 L
85.039 435.619 L
P
G
WC
WF
R N
N
85.039 433.176 M
368.504 433.176 L
368.504 435.619 L
85.039 435.619 L
85.039 433.176 L
P
G
WC
WF
R N
N
85.039 430.732 M
368.504 430.732 L
368.504 433.176 L
85.039 433.176 L
85.039 430.732 L
P
G
WC
WF
R N
N
85.039 428.288 M
368.504 428.288 L
368.504 430.732 L
85.039 430.732 L
85.039 428.288 L
P
G
WC
WF
R N
N
85.039 425.845 M
368.504 425.845 L
368.504 428.288 L
85.039 428.288 L
85.039 425.845 L
P
G
WC
WF
R N
1.0 0.9372549 0.6509804  SC
N
85.039 423.401 M
368.504 423.401 L
368.504 425.845 L
85.039 425.845 L
85.039 423.401 L
P
G
WC
WF
R N
N
85.039 420.957 M
368.504 420.957 L
368.504 423.401 L
85.039 423.401 L
85.039 420.957 L
P
G
WC
WF
R N
N
85.039 418.514 M
368.504 418.514 L
368.504 420.957 L
85.039 420.957 L
85.039 418.514 L
P
G
WC
WF
R N
N
85.039 416.07 M
368.504 416.07 L
368.504 418.514 L
85.039 418.514 L
85.039 416.07 L
P
G
WC
WF
R N
1.0 0.93333334 0.6509804  SC
N
85.039 413.626 M
368.504 413.626 L
368.504 416.07 L
85.039 416.07 L
85.039 413.626 L
P
G
WC
WF
R N
N
85.039 411.183 M
368.504 411.183 L
368.504 413.626 L
85.039 413.626 L
85.039 411.183 L
P
G
WC
WF
R N
N
85.039 408.739 M
368.504 408.739 L
368.504 411.183 L
85.039 411.183 L
85.039 408.739 L
P
G
WC
WF
R N
N
85.039 406.295 M
368.504 406.295 L
368.504 408.739 L
85.039 408.739 L
85.039 406.295 L
P
G
WC
WF
R N
N
85.039 403.852 M
368.504 403.852 L
368.504 406.295 L
85.039 406.295 L
85.039 403.852 L
P
G
WC
WF
R N
1.0 0.92941177 0.6509804  SC
N
85.039 401.408 M
368.504 401.408 L
368.504 403.852 L
85.039 403.852 L
85.039 401.408 L
P
G
WC
WF
R N
N
85.039 398.964 M
368.504 398.964 L
368.504 401.408 L
85.039 401.408 L
85.039 398.964 L
P
G
WC
WF
R N
N
85.039 396.521 M
368.504 396.521 L
368.504 398.964 L
85.039 398.964 L
85.039 396.521 L
P
G
WC
WF
R N
N
85.039 394.077 M
368.504 394.077 L
368.504 396.521 L
85.039 396.521 L
85.039 394.077 L
P
G
WC
WF
R N
N
85.039 391.633 M
368.504 391.633 L
368.504 394.077 L
85.039 394.077 L
85.039 391.633 L
P
G
WC
WF
R N
1.0 0.9254902 0.6509804  SC
N
85.039 389.19 M
368.504 389.19 L
368.504 391.633 L
85.039 391.633 L
85.039 389.19 L
P
G
WC
WF
R N
N
85.039 386.746 M
368.504 386.746 L
368.504 389.19 L
85.039 389.19 L
85.039 386.746 L
P
G
WC
WF
R N
N
85.039 384.302 M
368.504 384.302 L
368.504 386.746 L
85.039 386.746 L
85.039 384.302 L
P
G
WC
WF
R N
N
85.039 381.859 M
368.504 381.859 L
368.504 384.303 L
85.039 384.303 L
85.039 381.859 L
P
G
WC
WF
R N
N
85.039 379.415 M
368.504 379.415 L
368.504 381.859 L
85.039 381.859 L
85.039 379.415 L
P
G
WC
WF
R N
1.0 0.92156863 0.6509804  SC
N
85.039 376.972 M
368.504 376.972 L
368.504 379.415 L
85.039 379.415 L
85.039 376.972 L
P
G
WC
WF
R N
N
85.039 374.528 M
368.504 374.528 L
368.504 376.972 L
85.039 376.972 L
85.039 374.528 L
P
G
WC
WF
R N
N
85.039 372.084 M
368.504 372.084 L
368.504 374.528 L
85.039 374.528 L
85.039 372.084 L
P
G
WC
WF
R N
N
85.039 369.641 M
368.504 369.641 L
368.504 372.084 L
85.039 372.084 L
85.039 369.641 L
P
G
WC
WF
R N
N
85.039 367.197 M
368.504 367.197 L
368.504 369.641 L
85.039 369.641 L
85.039 367.197 L
P
G
WC
WF
R N
1.0 0.91764706 0.6509804  SC
N
85.039 364.753 M
368.504 364.753 L
368.504 367.197 L
85.039 367.197 L
85.039 364.753 L
P
G
WC
WF
R N
N
85.039 362.31 M
368.504 362.31 L
368.504 364.753 L
85.039 364.753 L
85.039 362.31 L
P
G
WC
WF
R N
N
85.039 359.866 M
368.504 359.866 L
368.504 362.31 L
85.039 362.31 L
85.039 359.866 L
P
G
WC
WF
R N
N
85.039 357.422 M
368.504 357.422 L
368.504 359.866 L
85.039 359.866 L
85.039 357.422 L
P
G
WC
WF
R N
1.0 0.9137255 0.6509804  SC
N
85.039 354.979 M
368.504 354.979 L
368.504 357.422 L
85.039 357.422 L
85.039 354.979 L
P
G
WC
WF
R N
N
85.039 352.535 M
368.504 352.535 L
368.504 354.979 L
85.039 354.979 L
85.039 352.535 L
P
G
WC
WF
R N
N
85.039 350.091 M
368.504 350.091 L
368.504 352.535 L
85.039 352.535 L
85.039 350.091 L
P
G
WC
WF
R N
N
85.039 347.648 M
368.504 347.648 L
368.504 350.091 L
85.039 350.091 L
85.039 347.648 L
P
G
WC
WF
R N
N
85.039 345.204 M
368.504 345.204 L
368.504 347.648 L
85.039 347.648 L
85.039 345.204 L
P
G
WC
WF
R N
1.0 0.9098039 0.6509804  SC
N
85.039 342.76 M
368.504 342.76 L
368.504 345.204 L
85.039 345.204 L
85.039 342.76 L
P
G
WC
WF
R N
N
85.039 340.317 M
368.504 340.317 L
368.504 342.76 L
85.039 342.76 L
85.039 340.317 L
P
G
WC
WF
R N
N
85.039 337.873 M
368.504 337.873 L
368.504 340.317 L
85.039 340.317 L
85.039 337.873 L
P
G
WC
WF
R N
N
85.039 335.429 M
368.504 335.429 L
368.504 337.873 L
85.039 337.873 L
85.039 335.429 L
P
G
WC
WF
R N
N
85.039 332.986 M
368.504 332.986 L
368.504 335.429 L
85.039 335.429 L
85.039 332.986 L
P
G
WC
WF
R N
1.0 0.90588236 0.6509804  SC
N
85.039 330.542 M
368.504 330.542 L
368.504 332.986 L
85.039 332.986 L
85.039 330.542 L
P
G
WC
WF
R N
N
85.039 328.098 M
368.504 328.098 L
368.504 330.542 L
85.039 330.542 L
85.039 328.098 L
P
G
WC
WF
R N
N
85.039 325.655 M
368.504 325.655 L
368.504 328.098 L
85.039 328.098 L
85.039 325.655 L
P
G
WC
WF
R N
N
85.039 323.211 M
368.504 323.211 L
368.504 325.655 L
85.039 325.655 L
85.039 323.211 L
P
G
WC
WF
R N
N
85.039 320.767 M
368.504 320.767 L
368.504 323.211 L
85.039 323.211 L
85.039 320.767 L
P
G
WC
WF
R N
1.0 0.9019608 0.6509804  SC
N
85.039 318.324 M
368.504 318.324 L
368.504 320.767 L
85.039 320.767 L
85.039 318.324 L
P
G
WC
WF
R N
N
85.039 315.88 M
368.504 315.88 L
368.504 318.324 L
85.039 318.324 L
85.039 315.88 L
P
G
WC
WF
R N
N
85.039 313.436 M
368.504 313.436 L
368.504 315.88 L
85.039 315.88 L
85.039 313.436 L
P
G
WC
WF
R N
N
85.039 310.993 M
368.504 310.993 L
368.504 313.436 L
85.039 313.436 L
85.039 310.993 L
P
G
WC
WF
R N
N
85.039 308.549 M
368.504 308.549 L
368.504 310.993 L
85.039 310.993 L
85.039 308.549 L
P
G
WC
WF
R N
1.0 0.8980392 0.6509804  SC
N
85.039 306.105 M
368.504 306.105 L
368.504 308.549 L
85.039 308.549 L
85.039 306.105 L
P
G
WC
WF
R N
N
85.039 303.662 M
368.504 303.662 L
368.504 306.105 L
85.039 306.105 L
85.039 303.662 L
P
G
WC
WF
R N
N
85.039 301.218 M
368.504 301.218 L
368.504 303.662 L
85.039 303.662 L
85.039 301.218 L
P
G
WC
WF
R N
N
85.039 298.774 M
368.504 298.774 L
368.504 301.218 L
85.039 301.218 L
85.039 298.774 L
P
G
WC
WF
R N
1.0 0.89411765 0.6509804  SC
N
85.039 296.331 M
368.504 296.331 L
368.504 298.774 L
85.039 298.774 L
85.039 296.331 L
P
G
WC
WF
R N
N
85.039 293.887 M
368.504 293.887 L
368.504 296.331 L
85.039 296.331 L
85.039 293.887 L
P
G
WC
WF
R N
N
85.039 291.443 M
368.504 291.443 L
368.504 293.887 L
85.039 293.887 L
85.039 291.443 L
P
G
WC
WF
R N
N
85.039 289.0 M
368.504 289.0 L
368.504 291.443 L
85.039 291.443 L
85.039 289.0 L
P
G
WC
WF
R N
N
85.039 286.556 M
368.504 286.556 L
368.504 289.0 L
85.039 289.0 L
85.039 286.556 L
P
G
WC
WF
R N
1.0 0.8901961 0.6509804  SC
N
85.039 284.112 M
368.504 284.112 L
368.504 286.556 L
85.039 286.556 L
85.039 284.112 L
P
G
WC
WF
R N
N
85.039 281.669 M
368.504 281.669 L
368.504 284.112 L
85.039 284.112 L
85.039 281.669 L
P
G
WC
WF
R N
N
85.039 279.225 M
368.504 279.225 L
368.504 281.669 L
85.039 281.669 L
85.039 279.225 L
P
G
WC
WF
R N
N
85.039 276.781 M
368.504 276.781 L
368.504 279.225 L
85.039 279.225 L
85.039 276.781 L
P
G
WC
WF
R N
N
85.039 274.338 M
368.504 274.338 L
368.504 276.781 L
85.039 276.781 L
85.039 274.338 L
P
G
WC
WF
R N
1.0 0.8862745 0.6509804  SC
N
85.039 271.894 M
368.504 271.894 L
368.504 274.338 L
85.039 274.338 L
85.039 271.894 L
P
G
WC
WF
R N
N
85.039 269.45 M
368.504 269.45 L
368.504 271.894 L
85.039 271.894 L
85.039 269.45 L
P
G
WC
WF
R N
N
85.039 267.007 M
368.504 267.007 L
368.504 269.45 L
85.039 269.45 L
85.039 267.007 L
P
G
WC
WF
R N
N
85.039 264.563 M
368.504 264.563 L
368.504 267.007 L
85.039 267.007 L
85.039 264.563 L
P
G
WC
WF
R N
N
85.039 262.119 M
368.504 262.119 L
368.504 264.563 L
85.039 264.563 L
85.039 262.119 L
P
G
WC
WF
R N
1.0 0.88235295 0.6509804  SC
N
85.039 259.676 M
368.504 259.676 L
368.504 262.119 L
85.039 262.119 L
85.039 259.676 L
P
G
WC
WF
R N
N
85.039 257.232 M
368.504 257.232 L
368.504 259.676 L
85.039 259.676 L
85.039 257.232 L
P
G
WC
WF
R N
N
85.039 254.788 M
368.504 254.788 L
368.504 257.232 L
85.039 257.232 L
85.039 254.788 L
P
G
WC
WF
R N
N
85.039 252.345 M
368.504 252.345 L
368.504 254.789 L
85.039 254.789 L
85.039 252.345 L
P
G
WC
WF
R N
N
85.039 249.901 M
368.504 249.901 L
368.504 252.345 L
85.039 252.345 L
85.039 249.901 L
P
G
WC
WF
R N
1.0 0.8784314 0.6509804  SC
N
85.039 247.458 M
368.504 247.458 L
368.504 249.901 L
85.039 249.901 L
85.039 247.458 L
P
G
WC
WF
R N
N
85.039 245.014 M
368.504 245.014 L
368.504 247.458 L
85.039 247.458 L
85.039 245.014 L
P
G
WC
WF
R N
N
85.039 242.57 M
368.504 242.57 L
368.504 245.014 L
85.039 245.014 L
85.039 242.57 L
P
G
WC
WF
R N
N
85.039 240.127 M
368.504 240.127 L
368.504 242.57 L
85.039 242.57 L
85.039 240.127 L
P
G
WC
WF
R N
1.0 0.8745098 0.6509804  SC
N
85.039 237.683 M
368.504 237.683 L
368.504 240.127 L
85.039 240.127 L
85.039 237.683 L
P
G
WC
WF
R N
N
85.039 235.239 M
368.504 235.239 L
368.504 237.683 L
85.039 237.683 L
85.039 235.239 L
P
G
WC
WF
R N
N
85.039 232.796 M
368.504 232.796 L
368.504 235.239 L
85.039 235.239 L
85.039 232.796 L
P
G
WC
WF
R N
N
85.039 230.352 M
368.504 230.352 L
368.504 232.796 L
85.039 232.796 L
85.039 230.352 L
P
G
WC
WF
R N
N
85.039 227.908 M
368.504 227.908 L
368.504 230.352 L
85.039 230.352 L
85.039 227.908 L
P
G
WC
WF
R N
1.0 0.87058824 0.6509804  SC
N
85.039 225.465 M
368.504 225.465 L
368.504 227.908 L
85.039 227.908 L
85.039 225.465 L
P
G
WC
WF
R N
N
85.039 223.021 M
368.504 223.021 L
368.504 225.465 L
85.039 225.465 L
85.039 223.021 L
P
G
WC
WF
R N
N
85.039 220.577 M
368.504 220.577 L
368.504 223.021 L
85.039 223.021 L
85.039 220.577 L
P
G
WC
WF
R N
N
85.039 218.134 M
368.504 218.134 L
368.504 220.577 L
85.039 220.577 L
85.039 218.134 L
P
G
WC
WF
R N
N
85.039 215.69 M
368.504 215.69 L
368.504 218.134 L
85.039 218.134 L
85.039 215.69 L
P
G
WC
WF
R N
1.0 0.8666667 0.6509804  SC
N
85.039 213.246 M
368.504 213.246 L
368.504 215.69 L
85.039 215.69 L
85.039 213.246 L
P
G
WC
WF
R N
N
85.039 210.803 M
368.504 210.803 L
368.504 213.246 L
85.039 213.246 L
85.039 210.803 L
P
G
WC
WF
R N
N
85.039 208.359 M
368.504 208.359 L
368.504 210.803 L
85.039 210.803 L
85.039 208.359 L
P
G
WC
WF
R N
N
85.039 205.915 M
368.504 205.915 L
368.504 208.359 L
85.039 208.359 L
85.039 205.915 L
P
G
WC
WF
R N
N
85.039 203.472 M
368.504 203.472 L
368.504 205.915 L
85.039 205.915 L
85.039 203.472 L
P
G
WC
WF
R N
1.0 0.8627451 0.6509804  SC
N
85.039 201.028 M
368.504 201.028 L
368.504 203.472 L
85.039 203.472 L
85.039 201.028 L
P
G
WC
WF
R N
N
85.039 198.584 M
368.504 198.584 L
368.504 201.028 L
85.039 201.028 L
85.039 198.584 L
P
G
WC
WF
R N
N
85.039 196.141 M
368.504 196.141 L
368.504 198.584 L
85.039 198.584 L
85.039 196.141 L
P
G
WC
WF
R N
N
85.039 193.697 M
368.504 193.697 L
368.504 196.141 L
85.039 196.141 L
85.039 193.697 L
P
G
WC
WF
R N
N
85.039 191.253 M
368.504 191.253 L
368.504 193.697 L
85.039 193.697 L
85.039 191.253 L
P
G
WC
WF
R N
1.0 0.85882354 0.6509804  SC
N
85.039 188.81 M
368.504 188.81 L
368.504 191.253 L
85.039 191.253 L
85.039 188.81 L
P
G
WC
WF
R N
pgSave restore
showpage
%%EOF
