{ "type": "FeatureCollection",
  "features": [

    { "type": "Feature",
      "geometry": {
        "type": "Point",
        "coordinates": [135.769917,34.981575]
      },
      "properties": {
        "name": "T150173 TanimotoRyota",
        "elevation": "96.2m",
        "_markerType": "Circle",
        "_color": "#ff2f6f",
        "_opacity": 0.8,
        "_weight": 5,
        "_fillColor": "#bf8fdf",
        "_fillOpacity": 0.2,
        "_radius": 40
      }
    },

    { "type": "Feature",
      "geometry": {
        "type": "MultiLineString",
        "coordinates": [
         [[135.769917,34.981575],[135.769714,34.981557],[135.769456,34.982014],
[135.769241,34.982305],[135.767182,34.984177],[135.765937,34.985117],[135.765519,34.985320],[135.764778,34.985390],[135.763169,34.985425],[135.762214,34.985372],[135.760573,34.985135],[135.758491,34.985135],
[135.758513,34.985337],[135.760294,34.985364],[135.762375,34.985557],[135.764253,34.985610],
[135.769692,34.985592],[135.773780,34.985706],[135.777352,34.985996],
[135.797673,34.988756],[135.798606,34.988923],[135.799293,34.989143],[135.801761,34.990655],
[135.804089,34.991894],[135.805290,34.992193],[135.806261,34.992299],
[135.816641,34.992597],[135.818937,34.992668],[135.822392,34.992694],[135.823916,34.992905],
[135.825021,34.993072],[135.826373,34.993389],[135.827520,34.993740],[135.829441,34.994777],[135.831909,34.996746],[135.832778,34.997097],
[135.839821,34.998679],[135.861123,35.003390],[135.862185,35.003346],
[135.875248,35.001949],[135.876691,35.001518],[135.878128,35.000868],
[135.880961,34.998926],[135.882420,34.997722],[135.887699,34.990708],[135.889362,34.988484],[135.894029,34.982489],[135.896088,34.981004],
[135.895659,34.981232],[135.897312,34.980467],[135.899532,34.979922],[135.903089,34.979834],[135.909226,34.980010],
	[135.915084, 34.981135],[135.924933,34.986621],
	[135.925480, 34.986003], [135.926328, 34.984816],
          [135.929745, 34.982140], [135.933693, 34.977911],
          [135.934718, 34.975423], [135.936413, 34.971208]]
        ]
      },
      "properties": {
        "name": "Gaku-en Street",
        "_color": "#2682ef",
        "_opacity": 0.6,
        "_weight": 8,
        "_lineCap": "square",
        "_lineJoin": "bevel"
      }
    }

  ]
}
