** Profile: "SCHEMATIC1-Fujiwara_Ryo_11_DC"  [ H:\OrcadLite\Capture\Circuit\fujiwara_ryo_11-schematic1-fujiwara_ryo_11_dc.sim ] 

** Creating circuit file "fujiwara_ryo_11-schematic1-fujiwara_ryo_11_dc.sim.cir" 
** WARNING: THIS AUTOMATICALLY GENERATED FILE MAY BE OVERWRITTEN BY SUBSEQUENT SIMULATIONS

*Libraries: 
* Local Libraries :
.LIB "..\library\pspice\eval.lib" 
.LIB "..\library\pspice\breakout.lib" 
.LIB "..\library\pspice\toragi.lib" 
* From [PSPICE NETLIST] section of C:\Program Files\OrcadLite\PSpice\PSpice.ini file:

*Analysis directives: 
.DC LIN V_VCC 0V 15V 1V 
.PROBE V(*) I(*) W(*) D(*) NOISE(*) 
.INC ".\fujiwara_ryo_11-SCHEMATIC1.net" 


.END
