** Profile: "SCHEMATIC1-Fujiwara_Ryo_10"  [ E:\OrcadLite\Capture\Circuit\fujiwara_ryo_-SCHEMATIC1-Fujiwara_Ryo_10.sim ] 

** Creating circuit file "fujiwara_ryo_-SCHEMATIC1-Fujiwara_Ryo_10.sim.cir" 
** WARNING: THIS AUTOMATICALLY GENERATED FILE MAY BE OVERWRITTEN BY SUBSEQUENT SIMULATIONS

*Libraries: 
* Local Libraries :
* From [PSPICE NETLIST] section of C:\Program Files\OrcadLite\PSpice\PSpice.ini file:
.lib "C:\Program Files\OrcadLite\Capture\Library\PSpice\toragi.lib" 
.lib "nom.lib" 

*Analysis directives: 
.AC DEC 20 10 100k
.PROBE V(*) I(*) W(*) D(*) NOISE(*) 
.INC ".\fujiwara_ryo_-SCHEMATIC1.net" 


.END
