** Profile: "SCHEMATIC1-Fujiwara_Ryo_13"  [ H:\OrcadLite\Capture\Circuit\fujiwara_ryo_13-schematic1-fujiwara_ryo_13.sim ] 

** Creating circuit file "fujiwara_ryo_13-schematic1-fujiwara_ryo_13.sim.cir" 
** WARNING: THIS AUTOMATICALLY GENERATED FILE MAY BE OVERWRITTEN BY SUBSEQUENT SIMULATIONS

*Libraries: 
* Local Libraries :
* From [PSPICE NETLIST] section of C:\Program Files\OrcadLite\PSpice\PSpice.ini file:
.lib "H:\OrcadLite\Capture\Library\PSpice\toragi.lib" 

*Analysis directives: 
.AC DEC 100 10 10meg
.TEMP 0 10 20 30 40 50
.PROBE V(*) I(*) W(*) D(*) NOISE(*) 
.INC ".\fujiwara_ryo_13-SCHEMATIC1.net" 


.END
