** Profile: "SCHEMATIC1-Fujiwara_Ryo_12-R-1"  [ H:\OrcadLite\Capture\Circuit\fujiwara_ryo_12-r-1-schematic1-fujiwara_ryo_12-r-1.sim ] 

** Creating circuit file "fujiwara_ryo_12-r-1-schematic1-fujiwara_ryo_12-r-1.sim.cir" 
** WARNING: THIS AUTOMATICALLY GENERATED FILE MAY BE OVERWRITTEN BY SUBSEQUENT SIMULATIONS

*Libraries: 
* Local Libraries :
* From [PSPICE NETLIST] section of C:\Program Files\OrcadLite\PSpice\PSpice.ini file:

*Analysis directives: 
.TRAN  0 20u 0 1n 
.PROBE V(*) I(*) W(*) D(*) NOISE(*) 
.INC ".\fujiwara_ryo_12-r-1-SCHEMATIC1.net" 


.END
