** Profile: "SCHEMATIC1-Fujiwara_Ryo_11"  [ H:\OrcadLite\Capture\Circuit\fujiwara_ryo_11-SCHEMATIC1-Fujiwara_Ryo_11.sim ] 

** Creating circuit file "fujiwara_ryo_11-SCHEMATIC1-Fujiwara_Ryo_11.sim.cir" 
** WARNING: THIS AUTOMATICALLY GENERATED FILE MAY BE OVERWRITTEN BY SUBSEQUENT SIMULATIONS

*Libraries: 
* Local Libraries :
* From [PSPICE NETLIST] section of C:\Program Files\OrcadLite\PSpice\PSpice.ini file:
.lib "H:\OrcadLite\Capture\Library\PSpice\toragi.lib" 

*Analysis directives: 
.AC DEC 50 10k 100Meg
.PROBE V(*) I(*) W(*) D(*) NOISE(*) 
.INC ".\fujiwara_ryo_11-SCHEMATIC1.net" 


.END
