* source FUJIWARA_RYO_11-TRAN
Q_Q1         COLLECTOR BASE EMITTER QC1815 
V_Vcc         N01662 0 DC 15V AC 0V 
R_Rc         COLLECTOR N01662 R_Rc 10k  
.model        R_Rc RES R=1 DEV=1%
C_CL         0 OUTPUT  8p  
R_R1         BASE N01662 R_R1 100k  
.model        R_R1 RES R=1 DEV=1%
R_R2         0 BASE R_R2 22k  
.model        R_R2 RES R=1 DEV=1%
R_Re         0 EMITTER R_Re 2k  
.model        R_Re RES R=1 DEV=1%
R_RL         0 OUTPUT  10Meg  
C_C1         INPUT BASE  10u  
C_C2         COLLECTOR OUTPUT  10u  
V_Vin         INPUT 0 DC 0V AC 1V sin(0V 0.5V 1kHz 0s 0 0)
