
**** 07/24/16 02:37:15 ************** PSpice Lite (Mar 2000) *****************

 ** Profile: "SCHEMATIC1-Fujiwara_Ryo_kadai"  [ H:\OrcadLite\Capture\Circuit\fujiwara_ryo_kadai-SCHEMATIC1-Fujiwara_Ryo_kadai.sim ] 


 ****     CIRCUIT DESCRIPTION


******************************************************************************




** Creating circuit file "fujiwara_ryo_kadai-SCHEMATIC1-Fujiwara_Ryo_kadai.sim.cir" 
** WARNING: THIS AUTOMATICALLY GENERATED FILE MAY BE OVERWRITTEN BY SUBSEQUENT SIMULATIONS

*Libraries: 
* Local Libraries :
* From [PSPICE NETLIST] section of C:\Program Files\OrcadLite\PSpice\PSpice.ini file:
.lib "H:\OrcadLite\Capture\Library\PSpice\toragi.lib" 

*Analysis directives: 
.TRAN  0 500us 0 
.PROBE V(*) I(*) W(*) D(*) NOISE(*) 
.INC ".\fujiwara_ryo_kadai-SCHEMATIC1.net" 



**** INCLUDING fujiwara_ryo_kadai-SCHEMATIC1.net ****
* source FUJIWARA_RYO_KADAI
V_V1         N00622 0  
+PULSE 0V 9V 10us 1ns 1ns 1s 1s
R_R1         N00622 N00676  14k  
C_C1         0 N00676  16n  

**** RESUMING fujiwara_ryo_kadai-SCHEMATIC1-Fujiwara_Ryo_kadai.sim.cir ****
.END

**** 07/24/16 02:37:15 ************** PSpice Lite (Mar 2000) *****************

 ** Profile: "SCHEMATIC1-Fujiwara_Ryo_kadai"  [ H:\OrcadLite\Capture\Circuit\fujiwara_ryo_kadai-SCHEMATIC1-Fujiwara_Ryo_kadai.sim ] 


 ****     INITIAL TRANSIENT SOLUTION       TEMPERATURE =   27.000 DEG C


******************************************************************************



 NODE   VOLTAGE     NODE   VOLTAGE     NODE   VOLTAGE     NODE   VOLTAGE


(N00622)    0.0000 (N00676)    0.0000 




    VOLTAGE SOURCE CURRENTS
    NAME         CURRENT

    V_V1         0.000E+00

    TOTAL POWER DISSIPATION   0.00E+00  WATTS



          JOB CONCLUDED

          TOTAL JOB TIME             .05
