
**** 07/21/16 02:54:14 ************** PSpice Lite (Mar 2000) *****************

 ** Profile: "SCHEMATIC1-Fujiwara_Ryo_13-2"  [ H:\OrcadLite\Capture\Circuit\fujiwara_ryo_13-2-SCHEMATIC1-Fujiwara_Ryo_13-2.sim ] 


 ****     CIRCUIT DESCRIPTION


******************************************************************************




** Creating circuit file "fujiwara_ryo_13-2-SCHEMATIC1-Fujiwara_Ryo_13-2.sim.cir" 
** WARNING: THIS AUTOMATICALLY GENERATED FILE MAY BE OVERWRITTEN BY SUBSEQUENT SIMULATIONS

*Libraries: 
* Local Libraries :
.LIB "..\library\pspice\eval.lib" 
.LIB "..\library\pspice\breakout.lib" 
.LIB "..\library\pspice\nom.lib" 
.LIB "..\library\pspice\toragi.lib" 
* From [PSPICE NETLIST] section of C:\Program Files\OrcadLite\PSpice\PSpice.ini file:

*Analysis directives: 
.AC DEC 100 10 10meg
.PROBE V(*) I(*) W(*) D(*) NOISE(*) 
.INC ".\fujiwara_ryo_13-2-SCHEMATIC1.net" 



**** INCLUDING fujiwara_ryo_13-2-SCHEMATIC1.net ****
* source FUJIWARA_RYO_13-2
V_V3         N14386 0 10Vdc
V_V4         0 N14607 10Vdc
Q_Q1         N14357 N14321 N14502 QC1815 
V_V1         N14321 0 DC 0Vdc AC 1Vac 
Q_Q3         N14534 N16628 N14607 QC1815 
V_V2         N14653 0 DC 0Vdc AC 1Vac 
R_R1         N14357 N14386  4.7k  
Q_Q4         N16628 N16628 N14607 QC1815 
R_R2         N14534 N14502  100  
R_R5         N16628 N14386  11k  
Q_Q2         N14441 N14653 N14470 QC1815 
R_R4         N14470 N14534  100  
R_R3         N14386 N14441  4.7k  

**** RESUMING fujiwara_ryo_13-2-SCHEMATIC1-Fujiwara_Ryo_13-2.sim.cir ****
.END

**** 07/21/16 02:54:14 ************** PSpice Lite (Mar 2000) *****************

 ** Profile: "SCHEMATIC1-Fujiwara_Ryo_13-2"  [ H:\OrcadLite\Capture\Circuit\fujiwara_ryo_13-2-SCHEMATIC1-Fujiwara_Ryo_13-2.sim ] 


 ****     BJT MODEL PARAMETERS


******************************************************************************




               QC1815          
               NPN             
          IS   40.000000E-15 
          BF  170            
          NF    1            
         VAF  100            
         IKF     .25         
          BR    3.6          
          NR    1            
          RB   50            
          RC     .76         
         CJE   12.000000E-12 
         CJC    4.800000E-12 
          TF  630.000000E-12 
          TR   25.000000E-09 
          CN    2.42         
           D     .87         


**** 07/21/16 02:54:14 ************** PSpice Lite (Mar 2000) *****************

 ** Profile: "SCHEMATIC1-Fujiwara_Ryo_13-2"  [ H:\OrcadLite\Capture\Circuit\fujiwara_ryo_13-2-SCHEMATIC1-Fujiwara_Ryo_13-2.sim ] 


 ****     SMALL SIGNAL BIAS SOLUTION       TEMPERATURE =   27.000 DEG C


******************************************************************************



 NODE   VOLTAGE     NODE   VOLTAGE     NODE   VOLTAGE     NODE   VOLTAGE


(N14321)    0.0000 (N14357)    5.5820 (N14386)   10.0000 (N14441)    5.5820     

(N14470)    -.6166 (N14502)    -.6166 (N14534)    -.7111 (N14607)  -10.0000     

(N14653)    0.0000 (N16628)   -9.3657 




    VOLTAGE SOURCE CURRENTS
    NAME         CURRENT

    V_V3        -3.641E-03
    V_V4        -3.651E-03
    V_V1        -5.256E-06
    V_V2        -5.256E-06

    TOTAL POWER DISSIPATION   7.29E-02  WATTS



          JOB CONCLUDED

          TOTAL JOB TIME             .33
