* source FUJIWARA_RYO_11-2
R_R1         BASE N09863 R_R1 100k  
.model        R_R1 RES R=1 DEV=1%
V_Vcc         N09863 0 DC 15V AC 0V 
C_CL         0 OUTPUT  8p  
Q_Q1         COLLECTOR BASE EMITTER QC1815 
R_Rc         COLLECTOR N09863 R_Rc 10k  
.model        R_Rc RES R=1 DEV=1%
R_Re         0 EMITTER R_Re 2k  
.model        R_Re RES R=1 DEV=1%
C_C2         COLLECTOR OUTPUT  10u  
R_RL         0 OUTPUT  10Meg  
V_Vin         INPUT 0 DC 0V AC 1V sin(0V 0.5V 1kHz 0s 0 0)
R_R2         0 BASE R_R2 22k  
.model        R_R2 RES R=1 DEV=1%
C_C1         INPUT BASE  10u  
