** Profile: "SCHEMATIC1-Fujiwara_Ryo_11_Parameter-AC"  [ E:\OrcadLite\Capture\Circuit\fujiwara_ryo_11-SCHEMATIC1-Fujiwara_Ryo_11_Parameter-AC.sim ] 

** Creating circuit file "fujiwara_ryo_11-SCHEMATIC1-Fujiwara_Ryo_11_Parameter-AC.sim.cir" 
** WARNING: THIS AUTOMATICALLY GENERATED FILE MAY BE OVERWRITTEN BY SUBSEQUENT SIMULATIONS

*Libraries: 
* Local Libraries :
* From [PSPICE NETLIST] section of C:\Program Files\OrcadLite\PSpice\PSpice.ini file:
.lib "C:\Program Files\OrcadLite\Capture\Library\PSpice\toragi.lib" 
.lib "nom.lib" 

*Analysis directives: 
.AC DEC 50 10k 100Meg
.STEP LIN PARAM Ie 1mA 10mA 1mA 
.PROBE V(*) I(*) W(*) D(*) NOISE(*) 
.INC ".\fujiwara_ryo_11-SCHEMATIC1.net" 


.END
