%!PS-Adobe-2.0 EPSF-2.0
%%Title: rand1000.eps
%%Creator: gnuplot 4.2 patchlevel 6 
%%CreationDate: Fri May  9 16:15:26 2014
%%DocumentFonts: (atend)
%%BoundingBox: 50 50 410 302
%%EndComments
%%BeginProlog
/gnudict 256 dict def
gnudict begin
%
% The following 6 true/false flags may be edited by hand if required
% The unit line width may also be changed
%
/Color true def
/Blacktext false def
/Solid false def
/Dashlength 1 def
/Landscape false def
/Level1 false def
/Rounded false def
/TransparentPatterns false def
/gnulinewidth 5.000 def
/userlinewidth gnulinewidth def
%
/vshift -46 def
/dl1 {
  10.0 Dashlength mul mul
  Rounded { currentlinewidth 0.75 mul sub dup 0 le { pop 0.01 } if } if
} def
/dl2 {
  10.0 Dashlength mul mul
  Rounded { currentlinewidth 0.75 mul add } if
} def
/hpt_ 31.5 def
/vpt_ 31.5 def
/hpt hpt_ def
/vpt vpt_ def
Level1 {} {
/SDict 10 dict def
systemdict /pdfmark known not {
  userdict /pdfmark systemdict /cleartomark get put
} if
SDict begin [
  /Title (rand1000.eps)
  /Subject (gnuplot plot)
  /Creator (gnuplot 4.2 patchlevel 6 )
  /Author (TAKUTO OURUMA)
%  /Producer (gnuplot)
%  /Keywords ()
  /CreationDate (Fri May  9 16:15:26 2014)
  /DOCINFO pdfmark
end
} ifelse
%
% Gnuplot Prolog Version 4.2 (August 2006)
%
/M {moveto} bind def
/L {lineto} bind def
/R {rmoveto} bind def
/V {rlineto} bind def
/N {newpath moveto} bind def
/Z {closepath} bind def
/C {setrgbcolor} bind def
/f {rlineto fill} bind def
/vpt2 vpt 2 mul def
/hpt2 hpt 2 mul def
/Lshow {currentpoint stroke M 0 vshift R 
	Blacktext {gsave 0 setgray show grestore} {show} ifelse} def
/Rshow {currentpoint stroke M dup stringwidth pop neg vshift R
	Blacktext {gsave 0 setgray show grestore} {show} ifelse} def
/Cshow {currentpoint stroke M dup stringwidth pop -2 div vshift R 
	Blacktext {gsave 0 setgray show grestore} {show} ifelse} def
/UP {dup vpt_ mul /vpt exch def hpt_ mul /hpt exch def
  /hpt2 hpt 2 mul def /vpt2 vpt 2 mul def} def
/DL {Color {setrgbcolor Solid {pop []} if 0 setdash}
 {pop pop pop 0 setgray Solid {pop []} if 0 setdash} ifelse} def
/BL {stroke userlinewidth 2 mul setlinewidth
	Rounded {1 setlinejoin 1 setlinecap} if} def
/AL {stroke userlinewidth 2 div setlinewidth
	Rounded {1 setlinejoin 1 setlinecap} if} def
/UL {dup gnulinewidth mul /userlinewidth exch def
	dup 1 lt {pop 1} if 10 mul /udl exch def} def
/PL {stroke userlinewidth setlinewidth
	Rounded {1 setlinejoin 1 setlinecap} if} def
% Default Line colors
/LCw {1 1 1} def
/LCb {0 0 0} def
/LCa {0 0 0} def
/LC0 {1 0 0} def
/LC1 {0 1 0} def
/LC2 {0 0 1} def
/LC3 {1 0 1} def
/LC4 {0 1 1} def
/LC5 {1 1 0} def
/LC6 {0 0 0} def
/LC7 {1 0.3 0} def
/LC8 {0.5 0.5 0.5} def
% Default Line Types
/LTw {PL [] 1 setgray} def
/LTb {BL [] LCb DL} def
/LTa {AL [1 udl mul 2 udl mul] 0 setdash LCa setrgbcolor} def
/LT0 {PL [] LC0 DL} def
/LT1 {PL [4 dl1 2 dl2] LC1 DL} def
/LT2 {PL [2 dl1 3 dl2] LC2 DL} def
/LT3 {PL [1 dl1 1.5 dl2] LC3 DL} def
/LT4 {PL [6 dl1 2 dl2 1 dl1 2 dl2] LC4 DL} def
/LT5 {PL [3 dl1 3 dl2 1 dl1 3 dl2] LC5 DL} def
/LT6 {PL [2 dl1 2 dl2 2 dl1 6 dl2] LC6 DL} def
/LT7 {PL [1 dl1 2 dl2 6 dl1 2 dl2 1 dl1 2 dl2] LC7 DL} def
/LT8 {PL [2 dl1 2 dl2 2 dl1 2 dl2 2 dl1 2 dl2 2 dl1 4 dl2] LC8 DL} def
/Pnt {stroke [] 0 setdash gsave 1 setlinecap M 0 0 V stroke grestore} def
/Dia {stroke [] 0 setdash 2 copy vpt add M
  hpt neg vpt neg V hpt vpt neg V
  hpt vpt V hpt neg vpt V closepath stroke
  Pnt} def
/Pls {stroke [] 0 setdash vpt sub M 0 vpt2 V
  currentpoint stroke M
  hpt neg vpt neg R hpt2 0 V stroke
 } def
/Box {stroke [] 0 setdash 2 copy exch hpt sub exch vpt add M
  0 vpt2 neg V hpt2 0 V 0 vpt2 V
  hpt2 neg 0 V closepath stroke
  Pnt} def
/Crs {stroke [] 0 setdash exch hpt sub exch vpt add M
  hpt2 vpt2 neg V currentpoint stroke M
  hpt2 neg 0 R hpt2 vpt2 V stroke} def
/TriU {stroke [] 0 setdash 2 copy vpt 1.12 mul add M
  hpt neg vpt -1.62 mul V
  hpt 2 mul 0 V
  hpt neg vpt 1.62 mul V closepath stroke
  Pnt} def
/Star {2 copy Pls Crs} def
/BoxF {stroke [] 0 setdash exch hpt sub exch vpt add M
  0 vpt2 neg V hpt2 0 V 0 vpt2 V
  hpt2 neg 0 V closepath fill} def
/TriUF {stroke [] 0 setdash vpt 1.12 mul add M
  hpt neg vpt -1.62 mul V
  hpt 2 mul 0 V
  hpt neg vpt 1.62 mul V closepath fill} def
/TriD {stroke [] 0 setdash 2 copy vpt 1.12 mul sub M
  hpt neg vpt 1.62 mul V
  hpt 2 mul 0 V
  hpt neg vpt -1.62 mul V closepath stroke
  Pnt} def
/TriDF {stroke [] 0 setdash vpt 1.12 mul sub M
  hpt neg vpt 1.62 mul V
  hpt 2 mul 0 V
  hpt neg vpt -1.62 mul V closepath fill} def
/DiaF {stroke [] 0 setdash vpt add M
  hpt neg vpt neg V hpt vpt neg V
  hpt vpt V hpt neg vpt V closepath fill} def
/Pent {stroke [] 0 setdash 2 copy gsave
  translate 0 hpt M 4 {72 rotate 0 hpt L} repeat
  closepath stroke grestore Pnt} def
/PentF {stroke [] 0 setdash gsave
  translate 0 hpt M 4 {72 rotate 0 hpt L} repeat
  closepath fill grestore} def
/Circle {stroke [] 0 setdash 2 copy
  hpt 0 360 arc stroke Pnt} def
/CircleF {stroke [] 0 setdash hpt 0 360 arc fill} def
/C0 {BL [] 0 setdash 2 copy moveto vpt 90 450 arc} bind def
/C1 {BL [] 0 setdash 2 copy moveto
	2 copy vpt 0 90 arc closepath fill
	vpt 0 360 arc closepath} bind def
/C2 {BL [] 0 setdash 2 copy moveto
	2 copy vpt 90 180 arc closepath fill
	vpt 0 360 arc closepath} bind def
/C3 {BL [] 0 setdash 2 copy moveto
	2 copy vpt 0 180 arc closepath fill
	vpt 0 360 arc closepath} bind def
/C4 {BL [] 0 setdash 2 copy moveto
	2 copy vpt 180 270 arc closepath fill
	vpt 0 360 arc closepath} bind def
/C5 {BL [] 0 setdash 2 copy moveto
	2 copy vpt 0 90 arc
	2 copy moveto
	2 copy vpt 180 270 arc closepath fill
	vpt 0 360 arc} bind def
/C6 {BL [] 0 setdash 2 copy moveto
	2 copy vpt 90 270 arc closepath fill
	vpt 0 360 arc closepath} bind def
/C7 {BL [] 0 setdash 2 copy moveto
	2 copy vpt 0 270 arc closepath fill
	vpt 0 360 arc closepath} bind def
/C8 {BL [] 0 setdash 2 copy moveto
	2 copy vpt 270 360 arc closepath fill
	vpt 0 360 arc closepath} bind def
/C9 {BL [] 0 setdash 2 copy moveto
	2 copy vpt 270 450 arc closepath fill
	vpt 0 360 arc closepath} bind def
/C10 {BL [] 0 setdash 2 copy 2 copy moveto vpt 270 360 arc closepath fill
	2 copy moveto
	2 copy vpt 90 180 arc closepath fill
	vpt 0 360 arc closepath} bind def
/C11 {BL [] 0 setdash 2 copy moveto
	2 copy vpt 0 180 arc closepath fill
	2 copy moveto
	2 copy vpt 270 360 arc closepath fill
	vpt 0 360 arc closepath} bind def
/C12 {BL [] 0 setdash 2 copy moveto
	2 copy vpt 180 360 arc closepath fill
	vpt 0 360 arc closepath} bind def
/C13 {BL [] 0 setdash 2 copy moveto
	2 copy vpt 0 90 arc closepath fill
	2 copy moveto
	2 copy vpt 180 360 arc closepath fill
	vpt 0 360 arc closepath} bind def
/C14 {BL [] 0 setdash 2 copy moveto
	2 copy vpt 90 360 arc closepath fill
	vpt 0 360 arc} bind def
/C15 {BL [] 0 setdash 2 copy vpt 0 360 arc closepath fill
	vpt 0 360 arc closepath} bind def
/Rec {newpath 4 2 roll moveto 1 index 0 rlineto 0 exch rlineto
	neg 0 rlineto closepath} bind def
/Square {dup Rec} bind def
/Bsquare {vpt sub exch vpt sub exch vpt2 Square} bind def
/S0 {BL [] 0 setdash 2 copy moveto 0 vpt rlineto BL Bsquare} bind def
/S1 {BL [] 0 setdash 2 copy vpt Square fill Bsquare} bind def
/S2 {BL [] 0 setdash 2 copy exch vpt sub exch vpt Square fill Bsquare} bind def
/S3 {BL [] 0 setdash 2 copy exch vpt sub exch vpt2 vpt Rec fill Bsquare} bind def
/S4 {BL [] 0 setdash 2 copy exch vpt sub exch vpt sub vpt Square fill Bsquare} bind def
/S5 {BL [] 0 setdash 2 copy 2 copy vpt Square fill
	exch vpt sub exch vpt sub vpt Square fill Bsquare} bind def
/S6 {BL [] 0 setdash 2 copy exch vpt sub exch vpt sub vpt vpt2 Rec fill Bsquare} bind def
/S7 {BL [] 0 setdash 2 copy exch vpt sub exch vpt sub vpt vpt2 Rec fill
	2 copy vpt Square fill Bsquare} bind def
/S8 {BL [] 0 setdash 2 copy vpt sub vpt Square fill Bsquare} bind def
/S9 {BL [] 0 setdash 2 copy vpt sub vpt vpt2 Rec fill Bsquare} bind def
/S10 {BL [] 0 setdash 2 copy vpt sub vpt Square fill 2 copy exch vpt sub exch vpt Square fill
	Bsquare} bind def
/S11 {BL [] 0 setdash 2 copy vpt sub vpt Square fill 2 copy exch vpt sub exch vpt2 vpt Rec fill
	Bsquare} bind def
/S12 {BL [] 0 setdash 2 copy exch vpt sub exch vpt sub vpt2 vpt Rec fill Bsquare} bind def
/S13 {BL [] 0 setdash 2 copy exch vpt sub exch vpt sub vpt2 vpt Rec fill
	2 copy vpt Square fill Bsquare} bind def
/S14 {BL [] 0 setdash 2 copy exch vpt sub exch vpt sub vpt2 vpt Rec fill
	2 copy exch vpt sub exch vpt Square fill Bsquare} bind def
/S15 {BL [] 0 setdash 2 copy Bsquare fill Bsquare} bind def
/D0 {gsave translate 45 rotate 0 0 S0 stroke grestore} bind def
/D1 {gsave translate 45 rotate 0 0 S1 stroke grestore} bind def
/D2 {gsave translate 45 rotate 0 0 S2 stroke grestore} bind def
/D3 {gsave translate 45 rotate 0 0 S3 stroke grestore} bind def
/D4 {gsave translate 45 rotate 0 0 S4 stroke grestore} bind def
/D5 {gsave translate 45 rotate 0 0 S5 stroke grestore} bind def
/D6 {gsave translate 45 rotate 0 0 S6 stroke grestore} bind def
/D7 {gsave translate 45 rotate 0 0 S7 stroke grestore} bind def
/D8 {gsave translate 45 rotate 0 0 S8 stroke grestore} bind def
/D9 {gsave translate 45 rotate 0 0 S9 stroke grestore} bind def
/D10 {gsave translate 45 rotate 0 0 S10 stroke grestore} bind def
/D11 {gsave translate 45 rotate 0 0 S11 stroke grestore} bind def
/D12 {gsave translate 45 rotate 0 0 S12 stroke grestore} bind def
/D13 {gsave translate 45 rotate 0 0 S13 stroke grestore} bind def
/D14 {gsave translate 45 rotate 0 0 S14 stroke grestore} bind def
/D15 {gsave translate 45 rotate 0 0 S15 stroke grestore} bind def
/DiaE {stroke [] 0 setdash vpt add M
  hpt neg vpt neg V hpt vpt neg V
  hpt vpt V hpt neg vpt V closepath stroke} def
/BoxE {stroke [] 0 setdash exch hpt sub exch vpt add M
  0 vpt2 neg V hpt2 0 V 0 vpt2 V
  hpt2 neg 0 V closepath stroke} def
/TriUE {stroke [] 0 setdash vpt 1.12 mul add M
  hpt neg vpt -1.62 mul V
  hpt 2 mul 0 V
  hpt neg vpt 1.62 mul V closepath stroke} def
/TriDE {stroke [] 0 setdash vpt 1.12 mul sub M
  hpt neg vpt 1.62 mul V
  hpt 2 mul 0 V
  hpt neg vpt -1.62 mul V closepath stroke} def
/PentE {stroke [] 0 setdash gsave
  translate 0 hpt M 4 {72 rotate 0 hpt L} repeat
  closepath stroke grestore} def
/CircE {stroke [] 0 setdash 
  hpt 0 360 arc stroke} def
/Opaque {gsave closepath 1 setgray fill grestore 0 setgray closepath} def
/DiaW {stroke [] 0 setdash vpt add M
  hpt neg vpt neg V hpt vpt neg V
  hpt vpt V hpt neg vpt V Opaque stroke} def
/BoxW {stroke [] 0 setdash exch hpt sub exch vpt add M
  0 vpt2 neg V hpt2 0 V 0 vpt2 V
  hpt2 neg 0 V Opaque stroke} def
/TriUW {stroke [] 0 setdash vpt 1.12 mul add M
  hpt neg vpt -1.62 mul V
  hpt 2 mul 0 V
  hpt neg vpt 1.62 mul V Opaque stroke} def
/TriDW {stroke [] 0 setdash vpt 1.12 mul sub M
  hpt neg vpt 1.62 mul V
  hpt 2 mul 0 V
  hpt neg vpt -1.62 mul V Opaque stroke} def
/PentW {stroke [] 0 setdash gsave
  translate 0 hpt M 4 {72 rotate 0 hpt L} repeat
  Opaque stroke grestore} def
/CircW {stroke [] 0 setdash 
  hpt 0 360 arc Opaque stroke} def
/BoxFill {gsave Rec 1 setgray fill grestore} def
/Density {
  /Fillden exch def
  currentrgbcolor
  /ColB exch def /ColG exch def /ColR exch def
  /ColR ColR Fillden mul Fillden sub 1 add def
  /ColG ColG Fillden mul Fillden sub 1 add def
  /ColB ColB Fillden mul Fillden sub 1 add def
  ColR ColG ColB setrgbcolor} def
/BoxColFill {gsave Rec PolyFill} def
/PolyFill {gsave Density fill grestore grestore} def
/h {rlineto rlineto rlineto gsave closepath fill grestore} bind def
%
% PostScript Level 1 Pattern Fill routine for rectangles
% Usage: x y w h s a XX PatternFill
%	x,y = lower left corner of box to be filled
%	w,h = width and height of box
%	  a = angle in degrees between lines and x-axis
%	 XX = 0/1 for no/yes cross-hatch
%
/PatternFill {gsave /PFa [ 9 2 roll ] def
  PFa 0 get PFa 2 get 2 div add PFa 1 get PFa 3 get 2 div add translate
  PFa 2 get -2 div PFa 3 get -2 div PFa 2 get PFa 3 get Rec
  gsave 1 setgray fill grestore clip
  currentlinewidth 0.5 mul setlinewidth
  /PFs PFa 2 get dup mul PFa 3 get dup mul add sqrt def
  0 0 M PFa 5 get rotate PFs -2 div dup translate
  0 1 PFs PFa 4 get div 1 add floor cvi
	{PFa 4 get mul 0 M 0 PFs V} for
  0 PFa 6 get ne {
	0 1 PFs PFa 4 get div 1 add floor cvi
	{PFa 4 get mul 0 2 1 roll M PFs 0 V} for
 } if
  stroke grestore} def
%
/languagelevel where
 {pop languagelevel} {1} ifelse
 2 lt
	{/InterpretLevel1 true def}
	{/InterpretLevel1 Level1 def}
 ifelse
%
% PostScript level 2 pattern fill definitions
%
/Level2PatternFill {
/Tile8x8 {/PaintType 2 /PatternType 1 /TilingType 1 /BBox [0 0 8 8] /XStep 8 /YStep 8}
	bind def
/KeepColor {currentrgbcolor [/Pattern /DeviceRGB] setcolorspace} bind def
<< Tile8x8
 /PaintProc {0.5 setlinewidth pop 0 0 M 8 8 L 0 8 M 8 0 L stroke} 
>> matrix makepattern
/Pat1 exch def
<< Tile8x8
 /PaintProc {0.5 setlinewidth pop 0 0 M 8 8 L 0 8 M 8 0 L stroke
	0 4 M 4 8 L 8 4 L 4 0 L 0 4 L stroke}
>> matrix makepattern
/Pat2 exch def
<< Tile8x8
 /PaintProc {0.5 setlinewidth pop 0 0 M 0 8 L
	8 8 L 8 0 L 0 0 L fill}
>> matrix makepattern
/Pat3 exch def
<< Tile8x8
 /PaintProc {0.5 setlinewidth pop -4 8 M 8 -4 L
	0 12 M 12 0 L stroke}
>> matrix makepattern
/Pat4 exch def
<< Tile8x8
 /PaintProc {0.5 setlinewidth pop -4 0 M 8 12 L
	0 -4 M 12 8 L stroke}
>> matrix makepattern
/Pat5 exch def
<< Tile8x8
 /PaintProc {0.5 setlinewidth pop -2 8 M 4 -4 L
	0 12 M 8 -4 L 4 12 M 10 0 L stroke}
>> matrix makepattern
/Pat6 exch def
<< Tile8x8
 /PaintProc {0.5 setlinewidth pop -2 0 M 4 12 L
	0 -4 M 8 12 L 4 -4 M 10 8 L stroke}
>> matrix makepattern
/Pat7 exch def
<< Tile8x8
 /PaintProc {0.5 setlinewidth pop 8 -2 M -4 4 L
	12 0 M -4 8 L 12 4 M 0 10 L stroke}
>> matrix makepattern
/Pat8 exch def
<< Tile8x8
 /PaintProc {0.5 setlinewidth pop 0 -2 M 12 4 L
	-4 0 M 12 8 L -4 4 M 8 10 L stroke}
>> matrix makepattern
/Pat9 exch def
/Pattern1 {PatternBgnd KeepColor Pat1 setpattern} bind def
/Pattern2 {PatternBgnd KeepColor Pat2 setpattern} bind def
/Pattern3 {PatternBgnd KeepColor Pat3 setpattern} bind def
/Pattern4 {PatternBgnd KeepColor Landscape {Pat5} {Pat4} ifelse setpattern} bind def
/Pattern5 {PatternBgnd KeepColor Landscape {Pat4} {Pat5} ifelse setpattern} bind def
/Pattern6 {PatternBgnd KeepColor Landscape {Pat9} {Pat6} ifelse setpattern} bind def
/Pattern7 {PatternBgnd KeepColor Landscape {Pat8} {Pat7} ifelse setpattern} bind def
} def
%
%
%End of PostScript Level 2 code
%
/PatternBgnd {
  TransparentPatterns {} {gsave 1 setgray fill grestore} ifelse
} def
%
% Substitute for Level 2 pattern fill codes with
% grayscale if Level 2 support is not selected.
%
/Level1PatternFill {
/Pattern1 {0.250 Density} bind def
/Pattern2 {0.500 Density} bind def
/Pattern3 {0.750 Density} bind def
/Pattern4 {0.125 Density} bind def
/Pattern5 {0.375 Density} bind def
/Pattern6 {0.625 Density} bind def
/Pattern7 {0.875 Density} bind def
} def
%
% Now test for support of Level 2 code
%
Level1 {Level1PatternFill} {Level2PatternFill} ifelse
%
/Symbol-Oblique /Symbol findfont [1 0 .167 1 0 0] makefont
dup length dict begin {1 index /FID eq {pop pop} {def} ifelse} forall
currentdict end definefont pop
/MFshow {
   { dup 5 get 3 ge
     { 5 get 3 eq {gsave} {grestore} ifelse }
     {dup dup 0 get findfont exch 1 get scalefont setfont
     [ currentpoint ] exch dup 2 get 0 exch R dup 5 get 2 ne {dup dup 6
     get exch 4 get {show} {stringwidth pop 0 R} ifelse }if dup 5 get 0 eq
     {dup 3 get {2 get neg 0 exch R pop} {pop aload pop M} ifelse} {dup 5
     get 1 eq {dup 2 get exch dup 3 get exch 6 get stringwidth pop -2 div
     dup 0 R} {dup 6 get stringwidth pop -2 div 0 R 6 get
     show 2 index {aload pop M neg 3 -1 roll neg R pop pop} {pop pop pop
     pop aload pop M} ifelse }ifelse }ifelse }
     ifelse }
   forall} bind def
/MFwidth {0 exch { dup 5 get 3 ge { 5 get 3 eq { 0 } { pop } ifelse }
 {dup 3 get{dup dup 0 get findfont exch 1 get scalefont setfont
     6 get stringwidth pop add} {pop} ifelse} ifelse} forall} bind def
/MLshow { currentpoint stroke M
  0 exch R
  Blacktext {gsave 0 setgray MFshow grestore} {MFshow} ifelse } bind def
/MRshow { currentpoint stroke M
  exch dup MFwidth neg 3 -1 roll R
  Blacktext {gsave 0 setgray MFshow grestore} {MFshow} ifelse } bind def
/MCshow { currentpoint stroke M
  exch dup MFwidth -2 div 3 -1 roll R
  Blacktext {gsave 0 setgray MFshow grestore} {MFshow} ifelse } bind def
/XYsave    { [( ) 1 2 true false 3 ()] } bind def
/XYrestore { [( ) 1 2 true false 4 ()] } bind def
end
%%EndProlog
gnudict begin
gsave
50 50 translate
0.050 0.050 scale
0 setgray
newpath
(Helvetica) findfont 140 scalefont setfont
/Helvetica findfont 140 scalefont setfont
/Helvetica findfont 140 scalefont setfont
1.000 UL
LTb
1598 280 M
63 0 V
4277 0 R
-63 0 V
stroke
1514 280 M
[ [(Helvetica) 140.0 0.0 true true 0 (-1)]
] -46.7 MRshow
1.000 UL
LTb
1598 2450 M
63 0 V
4277 0 R
-63 0 V
stroke
1514 2450 M
[ [(Helvetica) 140.0 0.0 true true 0 ( 0)]
] -46.7 MRshow
1.000 UL
LTb
1598 4620 M
63 0 V
4277 0 R
-63 0 V
stroke
1514 4620 M
[ [(Helvetica) 140.0 0.0 true true 0 ( 1)]
] -46.7 MRshow
1.000 UL
LTb
1598 280 M
0 63 V
0 4277 R
0 -63 V
stroke
1598 140 M
[ [(Helvetica) 140.0 0.0 true true 0 (-1)]
] -46.7 MCshow
1.000 UL
LTb
3768 280 M
0 63 V
0 4277 R
0 -63 V
stroke
3768 140 M
[ [(Helvetica) 140.0 0.0 true true 0 ( 0)]
] -46.7 MCshow
1.000 UL
LTb
5938 280 M
0 63 V
0 4277 R
0 -63 V
stroke
5938 140 M
[ [(Helvetica) 140.0 0.0 true true 0 ( 1)]
] -46.7 MCshow
1.000 UL
LTb
1.000 UL
LTb
1598 4620 N
0 -4340 V
4340 0 V
0 4340 V
-4340 0 V
Z stroke
3768 4830 M
[ [(Helvetica) 140.0 0.0 true true 0 (t130116)]
] -46.7 MCshow
1.000 UP
1.000 UL
LTb
1.000 UL
LT0
/Helvetica findfont 140 scalefont setfont
LTb
5287 4487 M
(cos\(t\), sin\(t\)) Rshow
LT0
5371 4487 M
399 0 V
-1386 44 R
-213 51 V
-217 30 V
-219 8 V
-219 -15 V
-216 -36 V
-211 -58 V
-205 -79 V
-195 -99 V
2505 4214 L
2333 4078 L
2176 3925 L
2036 3757 L
1913 3575 L
1809 3383 L
-84 -203 V
-64 -209 V
-41 -216 V
-20 -218 V
2 -219 V
24 -218 V
47 -214 V
67 -208 V
88 -201 V
108 -190 V
127 -179 V
2207 943 L
2367 793 L
2541 660 L
2728 546 L
197 -96 V
206 -74 V
213 -54 V
216 -32 V
219 -10 V
219 12 V
216 34 V
212 56 V
205 77 V
197 97 V
185 117 V
173 134 V
159 152 V
142 166 V
125 181 V
106 191 V
86 202 V
65 209 V
44 214 V
22 218 V
0 220 V
-22 218 V
-44 214 V
-65 209 V
-86 202 V
-106 191 V
-125 181 V
-142 166 V
-159 152 V
-173 134 V
-185 117 V
-197 97 V
-205 77 V
-212 56 V
-216 34 V
-219 12 V
-219 -10 V
-216 -32 V
-213 -54 V
-206 -74 V
-197 -96 V
2541 4240 L
2367 4107 L
2207 3957 L
2063 3792 L
1936 3613 L
1828 3423 L
-88 -201 V
-67 -208 V
-47 -214 V
-24 -218 V
-2 -219 V
20 -218 V
41 -216 V
64 -209 V
84 -203 V
104 -192 V
123 -182 V
2176 975 L
2333 822 L
2505 686 L
2689 567 L
195 -99 V
205 -79 V
211 -58 V
216 -36 V
219 -15 V
219 8 V
217 30 V
213 51 V
stroke
LT1
/Helvetica findfont 140 scalefont setfont
LTb
5287 4347 M
("xy.dat") Rshow
LT1
5570 4347 Pnt
4638 3320 Pnt
5834 4516 Pnt
2658 1340 Pnt
5823 4505 Pnt
3539 2221 Pnt
4424 3106 Pnt
5395 4077 Pnt
2106 788 Pnt
3252 1934 Pnt
3699 2381 Pnt
3841 2523 Pnt
1986 668 Pnt
2546 1228 Pnt
3687 2369 Pnt
3292 1974 Pnt
2410 1092 Pnt
2782 1464 Pnt
2455 1137 Pnt
1605 287 Pnt
1926 608 Pnt
5822 4504 Pnt
3446 2128 Pnt
3898 2580 Pnt
3097 1779 Pnt
4768 3450 Pnt
2497 1179 Pnt
4840 3522 Pnt
5192 3874 Pnt
5819 4501 Pnt
3524 2206 Pnt
2424 1106 Pnt
3567 2249 Pnt
5044 3726 Pnt
5852 4534 Pnt
5166 3848 Pnt
2660 1342 Pnt
4995 3677 Pnt
4391 3073 Pnt
2523 1205 Pnt
2569 1251 Pnt
5150 3832 Pnt
2425 1107 Pnt
4756 3438 Pnt
3903 2585 Pnt
3022 1704 Pnt
1872 554 Pnt
4226 2908 Pnt
5858 4540 Pnt
2326 1008 Pnt
2445 1127 Pnt
1675 357 Pnt
5007 3689 Pnt
2076 758 Pnt
2089 771 Pnt
3412 2094 Pnt
2755 1437 Pnt
4931 3613 Pnt
5079 3761 Pnt
3664 2346 Pnt
2449 1131 Pnt
2934 1616 Pnt
2998 1680 Pnt
4965 3647 Pnt
2957 1639 Pnt
2752 1434 Pnt
5649 4331 Pnt
5713 4395 Pnt
1964 646 Pnt
2240 922 Pnt
3254 1936 Pnt
3918 2600 Pnt
5080 3762 Pnt
2056 738 Pnt
5063 3745 Pnt
5666 4348 Pnt
3272 1954 Pnt
2698 1380 Pnt
2287 969 Pnt
1652 334 Pnt
5820 4502 Pnt
5852 4534 Pnt
4038 2720 Pnt
4311 2993 Pnt
5881 4563 Pnt
5261 3943 Pnt
3068 1750 Pnt
1670 352 Pnt
4554 3236 Pnt
4832 3514 Pnt
4652 3334 Pnt
3655 2337 Pnt
5625 4307 Pnt
5059 3741 Pnt
4881 3563 Pnt
4022 2704 Pnt
1981 663 Pnt
4356 3038 Pnt
3626 2308 Pnt
2887 1569 Pnt
1743 425 Pnt
5167 3849 Pnt
3853 2535 Pnt
3824 2506 Pnt
5769 4451 Pnt
4550 3232 Pnt
5681 4363 Pnt
4870 3552 Pnt
5423 4105 Pnt
5744 4426 Pnt
3166 1848 Pnt
3191 1873 Pnt
1827 509 Pnt
2033 715 Pnt
2739 1421 Pnt
5825 4507 Pnt
3934 2616 Pnt
4499 3181 Pnt
4355 3037 Pnt
2720 1402 Pnt
3506 2188 Pnt
2730 1412 Pnt
2000 682 Pnt
2679 1361 Pnt
4055 2737 Pnt
4254 2936 Pnt
4716 3398 Pnt
3235 1917 Pnt
5858 4540 Pnt
2861 1543 Pnt
5393 4075 Pnt
3945 2627 Pnt
1863 545 Pnt
3640 2322 Pnt
3294 1976 Pnt
2868 1550 Pnt
4495 3177 Pnt
2513 1195 Pnt
4065 2747 Pnt
4785 3467 Pnt
4481 3163 Pnt
1868 550 Pnt
3010 1692 Pnt
2265 947 Pnt
5576 4258 Pnt
3991 2673 Pnt
4677 3359 Pnt
2482 1164 Pnt
2907 1589 Pnt
3624 2306 Pnt
3348 2030 Pnt
3867 2549 Pnt
2956 1638 Pnt
5205 3887 Pnt
2437 1119 Pnt
1667 349 Pnt
5556 4238 Pnt
2641 1323 Pnt
3843 2525 Pnt
3960 2642 Pnt
5237 3919 Pnt
2574 1256 Pnt
2414 1096 Pnt
2980 1662 Pnt
2044 726 Pnt
2388 1070 Pnt
3962 2644 Pnt
4101 2783 Pnt
3501 2183 Pnt
4805 3487 Pnt
5822 4504 Pnt
3722 2404 Pnt
5213 3895 Pnt
2130 812 Pnt
2134 816 Pnt
5001 3683 Pnt
4908 3590 Pnt
3810 2492 Pnt
3497 2179 Pnt
3509 2191 Pnt
4260 2942 Pnt
1800 482 Pnt
3018 1700 Pnt
1665 347 Pnt
1733 415 Pnt
3322 2004 Pnt
3809 2491 Pnt
5458 4140 Pnt
4273 2955 Pnt
4603 3285 Pnt
4544 3226 Pnt
4644 3326 Pnt
3705 2387 Pnt
3300 1982 Pnt
1770 452 Pnt
3610 2292 Pnt
3572 2254 Pnt
5117 3799 Pnt
2177 859 Pnt
3974 2656 Pnt
4119 2801 Pnt
2330 1012 Pnt
5207 3889 Pnt
3475 2157 Pnt
1902 584 Pnt
2413 1095 Pnt
4209 2891 Pnt
2424 1106 Pnt
2036 718 Pnt
1642 324 Pnt
3398 2080 Pnt
5042 3724 Pnt
5869 4551 Pnt
4425 3107 Pnt
3467 2149 Pnt
2821 1503 Pnt
2222 904 Pnt
2039 721 Pnt
3806 2488 Pnt
3435 2117 Pnt
4458 3140 Pnt
3020 1702 Pnt
3771 2453 Pnt
3106 1788 Pnt
2033 715 Pnt
4819 3501 Pnt
5208 3890 Pnt
3267 1949 Pnt
2205 887 Pnt
5649 4331 Pnt
2618 1300 Pnt
4123 2805 Pnt
4487 3169 Pnt
3135 1817 Pnt
2542 1224 Pnt
4867 3549 Pnt
3284 1966 Pnt
2192 874 Pnt
4196 2878 Pnt
3728 2410 Pnt
5253 3935 Pnt
2526 1208 Pnt
4933 3615 Pnt
3723 2405 Pnt
4351 3033 Pnt
3676 2358 Pnt
4368 3050 Pnt
2675 1357 Pnt
4827 3509 Pnt
3674 2356 Pnt
3247 1929 Pnt
5234 3916 Pnt
2954 1636 Pnt
4452 3134 Pnt
3591 2273 Pnt
4245 2927 Pnt
3252 1934 Pnt
5831 4513 Pnt
3431 2113 Pnt
1849 531 Pnt
5452 4134 Pnt
5617 4299 Pnt
4189 2871 Pnt
5201 3883 Pnt
4969 3651 Pnt
2910 1592 Pnt
3943 2625 Pnt
5613 4295 Pnt
2097 779 Pnt
4912 3594 Pnt
4770 3452 Pnt
5398 4080 Pnt
2455 1137 Pnt
2733 1415 Pnt
2969 1651 Pnt
4534 3216 Pnt
5312 3994 Pnt
4766 3448 Pnt
4970 3652 Pnt
5043 3725 Pnt
5369 4051 Pnt
4681 3363 Pnt
2624 1306 Pnt
2734 1416 Pnt
2544 1226 Pnt
5615 4297 Pnt
3329 2011 Pnt
1862 544 Pnt
4428 3110 Pnt
2536 1218 Pnt
4382 3064 Pnt
2343 1025 Pnt
3747 2429 Pnt
5722 4404 Pnt
3603 2285 Pnt
5182 3864 Pnt
5244 3926 Pnt
4809 3491 Pnt
2342 1024 Pnt
3456 2138 Pnt
1715 397 Pnt
3067 1749 Pnt
2271 953 Pnt
1695 377 Pnt
4729 3411 Pnt
4961 3643 Pnt
2166 848 Pnt
5332 4014 Pnt
5280 3962 Pnt
5496 4178 Pnt
4005 2687 Pnt
4381 3063 Pnt
2726 1408 Pnt
3643 2325 Pnt
3259 1941 Pnt
5160 3842 Pnt
2697 1379 Pnt
5224 3906 Pnt
4022 2704 Pnt
2532 1214 Pnt
2016 698 Pnt
4389 3071 Pnt
5664 4346 Pnt
5301 3983 Pnt
2961 1643 Pnt
2014 696 Pnt
3660 2342 Pnt
2740 1422 Pnt
2112 794 Pnt
2319 1001 Pnt
4349 3031 Pnt
5551 4233 Pnt
2233 915 Pnt
2880 1562 Pnt
4220 2902 Pnt
5872 4554 Pnt
3772 2454 Pnt
5624 4306 Pnt
2167 849 Pnt
2567 1249 Pnt
3908 2590 Pnt
2960 1642 Pnt
1843 525 Pnt
4818 3500 Pnt
2950 1632 Pnt
4531 3213 Pnt
5483 4165 Pnt
5211 3893 Pnt
3044 1726 Pnt
4837 3519 Pnt
4369 3051 Pnt
4366 3048 Pnt
3154 1836 Pnt
4103 2785 Pnt
3102 1784 Pnt
5656 4338 Pnt
2117 799 Pnt
5442 4124 Pnt
5182 3864 Pnt
3120 1802 Pnt
3925 2607 Pnt
1957 639 Pnt
4260 2942 Pnt
3650 2332 Pnt
1786 468 Pnt
5434 4116 Pnt
5721 4403 Pnt
5162 3844 Pnt
1977 659 Pnt
5063 3745 Pnt
2461 1143 Pnt
2954 1636 Pnt
5861 4543 Pnt
3743 2425 Pnt
5183 3865 Pnt
5701 4383 Pnt
5381 4063 Pnt
5042 3724 Pnt
5693 4375 Pnt
3470 2152 Pnt
3705 2387 Pnt
4500 3182 Pnt
5231 3913 Pnt
4827 3509 Pnt
5453 4135 Pnt
3153 1835 Pnt
2796 1478 Pnt
3358 2040 Pnt
5369 4051 Pnt
1886 568 Pnt
4830 3512 Pnt
1847 529 Pnt
1771 453 Pnt
2037 719 Pnt
2107 789 Pnt
5809 4491 Pnt
5277 3959 Pnt
1764 446 Pnt
2157 839 Pnt
4241 2923 Pnt
3008 1690 Pnt
2049 731 Pnt
4366 3048 Pnt
5327 4009 Pnt
3374 2056 Pnt
2474 1156 Pnt
5665 4347 Pnt
4941 3623 Pnt
2075 757 Pnt
5766 4448 Pnt
3350 2032 Pnt
5199 3881 Pnt
4069 2751 Pnt
5661 4343 Pnt
4420 3102 Pnt
4701 3383 Pnt
3822 2504 Pnt
4097 2779 Pnt
3024 1706 Pnt
4449 3131 Pnt
3162 1844 Pnt
5468 4150 Pnt
2110 792 Pnt
2789 1471 Pnt
3912 2594 Pnt
3572 2254 Pnt
2315 997 Pnt
2416 1098 Pnt
2260 942 Pnt
3475 2157 Pnt
4504 3186 Pnt
4973 3655 Pnt
5793 4475 Pnt
3040 1722 Pnt
5019 3701 Pnt
1740 422 Pnt
5278 3960 Pnt
3534 2216 Pnt
4142 2824 Pnt
2438 1120 Pnt
5743 4425 Pnt
1842 524 Pnt
5648 4330 Pnt
5308 3990 Pnt
3201 1883 Pnt
5454 4136 Pnt
3486 2168 Pnt
2557 1239 Pnt
1683 365 Pnt
4622 3304 Pnt
3952 2634 Pnt
5749 4431 Pnt
4436 3118 Pnt
3144 1826 Pnt
2132 814 Pnt
3158 1840 Pnt
2458 1140 Pnt
2460 1142 Pnt
4465 3147 Pnt
2540 1222 Pnt
3077 1759 Pnt
1897 579 Pnt
4946 3628 Pnt
2369 1051 Pnt
5257 3939 Pnt
4197 2879 Pnt
4220 2902 Pnt
4966 3648 Pnt
5756 4438 Pnt
3761 2443 Pnt
4557 3239 Pnt
2289 971 Pnt
2786 1468 Pnt
1648 330 Pnt
3383 2065 Pnt
5783 4465 Pnt
3047 1729 Pnt
3890 2572 Pnt
3000 1682 Pnt
5489 4171 Pnt
4116 2798 Pnt
3993 2675 Pnt
1819 501 Pnt
3518 2200 Pnt
3594 2276 Pnt
1988 670 Pnt
5064 3746 Pnt
1693 375 Pnt
4232 2914 Pnt
1627 309 Pnt
2734 1416 Pnt
4941 3623 Pnt
1615 297 Pnt
4641 3323 Pnt
1616 298 Pnt
3738 2420 Pnt
2002 684 Pnt
4934 3616 Pnt
3215 1897 Pnt
2261 943 Pnt
2257 939 Pnt
5825 4507 Pnt
3732 2414 Pnt
1696 378 Pnt
1725 407 Pnt
2105 787 Pnt
1598 280 Pnt
5446 4128 Pnt
2403 1085 Pnt
3034 1716 Pnt
2402 1084 Pnt
4958 3640 Pnt
5369 4051 Pnt
3430 2112 Pnt
4871 3553 Pnt
1918 600 Pnt
5145 3827 Pnt
5314 3996 Pnt
1788 470 Pnt
3367 2049 Pnt
5539 4221 Pnt
3177 1859 Pnt
3383 2065 Pnt
5557 4239 Pnt
5235 3917 Pnt
5011 3693 Pnt
1889 571 Pnt
2906 1588 Pnt
2047 729 Pnt
2369 1051 Pnt
2892 1574 Pnt
4911 3593 Pnt
2897 1579 Pnt
3440 2122 Pnt
3762 2444 Pnt
3403 2085 Pnt
3144 1826 Pnt
2965 1647 Pnt
1729 411 Pnt
3180 1862 Pnt
3638 2320 Pnt
5467 4149 Pnt
4686 3368 Pnt
3652 2334 Pnt
5575 4257 Pnt
4516 3198 Pnt
5514 4196 Pnt
3030 1712 Pnt
1839 521 Pnt
3961 2643 Pnt
4143 2825 Pnt
5769 4451 Pnt
4811 3493 Pnt
4680 3362 Pnt
3781 2463 Pnt
4370 3052 Pnt
2576 1258 Pnt
3813 2495 Pnt
4736 3418 Pnt
4861 3543 Pnt
4351 3033 Pnt
5304 3986 Pnt
5331 4013 Pnt
4801 3483 Pnt
5670 4352 Pnt
3638 2320 Pnt
2653 1335 Pnt
3625 2307 Pnt
4666 3348 Pnt
4869 3551 Pnt
2690 1372 Pnt
2392 1074 Pnt
5601 4283 Pnt
3395 2077 Pnt
4536 3218 Pnt
2833 1515 Pnt
4159 2841 Pnt
5278 3960 Pnt
2997 1679 Pnt
3186 1868 Pnt
5368 4050 Pnt
5006 3688 Pnt
2756 1438 Pnt
2011 693 Pnt
3462 2144 Pnt
2395 1077 Pnt
2644 1326 Pnt
2286 968 Pnt
1858 540 Pnt
5109 3791 Pnt
4802 3484 Pnt
1806 488 Pnt
2605 1287 Pnt
4977 3659 Pnt
3690 2372 Pnt
5136 3818 Pnt
5853 4535 Pnt
3606 2288 Pnt
5299 3981 Pnt
2557 1239 Pnt
3362 2044 Pnt
5780 4462 Pnt
4944 3626 Pnt
5118 3800 Pnt
4612 3294 Pnt
4061 2743 Pnt
4695 3377 Pnt
4901 3583 Pnt
3818 2500 Pnt
3768 2450 Pnt
4568 3250 Pnt
3093 1775 Pnt
5572 4254 Pnt
5555 4237 Pnt
3180 1862 Pnt
1818 500 Pnt
3929 2611 Pnt
3414 2096 Pnt
2190 872 Pnt
2200 882 Pnt
5284 3966 Pnt
2743 1425 Pnt
2994 1676 Pnt
3805 2487 Pnt
4049 2731 Pnt
5186 3868 Pnt
3003 1685 Pnt
5563 4245 Pnt
5843 4525 Pnt
1632 314 Pnt
5756 4438 Pnt
2091 773 Pnt
1914 596 Pnt
5084 3766 Pnt
4903 3585 Pnt
1773 455 Pnt
4411 3093 Pnt
2353 1035 Pnt
3026 1708 Pnt
5083 3765 Pnt
4597 3279 Pnt
2217 899 Pnt
5074 3756 Pnt
2701 1383 Pnt
5425 4107 Pnt
2125 807 Pnt
2988 1670 Pnt
3051 1733 Pnt
4927 3609 Pnt
4212 2894 Pnt
1945 627 Pnt
2204 886 Pnt
5707 4389 Pnt
4627 3309 Pnt
5920 4602 Pnt
2334 1016 Pnt
2166 848 Pnt
4643 3325 Pnt
3198 1880 Pnt
4682 3364 Pnt
2542 1224 Pnt
1989 671 Pnt
1890 572 Pnt
5638 4320 Pnt
4042 2724 Pnt
3173 1855 Pnt
2361 1043 Pnt
3209 1891 Pnt
5139 3821 Pnt
3327 2009 Pnt
4073 2755 Pnt
3761 2443 Pnt
5419 4101 Pnt
4344 3026 Pnt
2273 955 Pnt
3765 2447 Pnt
2360 1042 Pnt
5551 4233 Pnt
1661 343 Pnt
1932 614 Pnt
3225 1907 Pnt
2556 1238 Pnt
5689 4371 Pnt
4520 3202 Pnt
4467 3149 Pnt
4073 2755 Pnt
4375 3057 Pnt
5645 4327 Pnt
2764 1446 Pnt
4937 3619 Pnt
5541 4223 Pnt
5058 3740 Pnt
5323 4005 Pnt
3016 1698 Pnt
3984 2666 Pnt
3553 2235 Pnt
5260 3942 Pnt
3662 2344 Pnt
2739 1421 Pnt
3963 2645 Pnt
2556 1238 Pnt
2272 954 Pnt
2395 1077 Pnt
3251 1933 Pnt
4432 3114 Pnt
5402 4084 Pnt
3416 2098 Pnt
4400 3082 Pnt
3256 1938 Pnt
2249 931 Pnt
3231 1913 Pnt
5316 3998 Pnt
2776 1458 Pnt
1626 308 Pnt
3686 2368 Pnt
3587 2269 Pnt
4491 3173 Pnt
4039 2721 Pnt
4642 3324 Pnt
2911 1593 Pnt
2004 686 Pnt
5573 4255 Pnt
5301 3983 Pnt
5024 3706 Pnt
3915 2597 Pnt
2323 1005 Pnt
3940 2622 Pnt
2163 845 Pnt
3144 1826 Pnt
3097 1779 Pnt
4585 3267 Pnt
3938 2620 Pnt
3409 2091 Pnt
2488 1170 Pnt
1793 475 Pnt
3651 2333 Pnt
4579 3261 Pnt
4422 3104 Pnt
5723 4405 Pnt
4963 3645 Pnt
3245 1927 Pnt
3311 1993 Pnt
5792 4474 Pnt
4768 3450 Pnt
4470 3152 Pnt
2291 973 Pnt
5414 4096 Pnt
4657 3339 Pnt
5072 3754 Pnt
3401 2083 Pnt
3410 2092 Pnt
5867 4549 Pnt
2802 1484 Pnt
4395 3077 Pnt
1921 603 Pnt
4690 3372 Pnt
3170 1852 Pnt
3218 1900 Pnt
4341 3023 Pnt
4423 3105 Pnt
2377 1059 Pnt
4391 3073 Pnt
3809 2491 Pnt
3141 1823 Pnt
2719 1401 Pnt
2271 953 Pnt
4459 3141 Pnt
4984 3666 Pnt
4953 3635 Pnt
2312 994 Pnt
5263 3945 Pnt
2908 1590 Pnt
5869 4551 Pnt
3922 2604 Pnt
4978 3660 Pnt
5546 4228 Pnt
5926 4608 Pnt
1672 354 Pnt
5511 4193 Pnt
5142 3824 Pnt
2220 902 Pnt
5225 3907 Pnt
2077 759 Pnt
4805 3487 Pnt
1775 457 Pnt
4771 3453 Pnt
4986 3668 Pnt
1998 680 Pnt
4671 3353 Pnt
3250 1932 Pnt
5131 3813 Pnt
3530 2212 Pnt
5259 3941 Pnt
2978 1660 Pnt
5221 3903 Pnt
5527 4209 Pnt
2059 741 Pnt
4985 3667 Pnt
3148 1830 Pnt
2033 715 Pnt
3434 2116 Pnt
2828 1510 Pnt
5349 4031 Pnt
5800 4482 Pnt
1612 294 Pnt
1856 538 Pnt
4372 3054 Pnt
4326 3008 Pnt
5794 4476 Pnt
2587 1269 Pnt
1950 632 Pnt
4981 3663 Pnt
5392 4074 Pnt
3351 2033 Pnt
1942 624 Pnt
4329 3011 Pnt
3054 1736 Pnt
4661 3343 Pnt
2849 1531 Pnt
4950 3632 Pnt
1697 379 Pnt
2070 752 Pnt
3058 1740 Pnt
2226 908 Pnt
4566 3248 Pnt
2053 735 Pnt
3793 2475 Pnt
5731 4413 Pnt
3526 2208 Pnt
4252 2934 Pnt
5331 4013 Pnt
1708 390 Pnt
2264 946 Pnt
3314 1996 Pnt
3356 2038 Pnt
4779 3461 Pnt
5935 4617 Pnt
1988 670 Pnt
4111 2793 Pnt
4371 3053 Pnt
4233 2915 Pnt
1720 402 Pnt
4324 3006 Pnt
3737 2419 Pnt
3059 1741 Pnt
4183 2865 Pnt
3096 1778 Pnt
3301 1983 Pnt
3127 1809 Pnt
5678 4360 Pnt
5744 4426 Pnt
2402 1084 Pnt
3832 2514 Pnt
2859 1541 Pnt
3810 2492 Pnt
3147 1829 Pnt
4520 3202 Pnt
2595 1277 Pnt
3184 1866 Pnt
3220 1902 Pnt
5186 3868 Pnt
5498 4180 Pnt
4161 2843 Pnt
4507 3189 Pnt
1940 622 Pnt
4636 3318 Pnt
2828 1510 Pnt
5890 4572 Pnt
2294 976 Pnt
5469 4151 Pnt
2505 1187 Pnt
5012 3694 Pnt
4350 3032 Pnt
2395 1077 Pnt
4805 3487 Pnt
4642 3324 Pnt
3885 2567 Pnt
4799 3481 Pnt
5465 4147 Pnt
1860 542 Pnt
1677 359 Pnt
1615 297 Pnt
4399 3081 Pnt
2031 713 Pnt
2779 1461 Pnt
3663 2345 Pnt
2643 1325 Pnt
3174 1856 Pnt
2808 1490 Pnt
5392 4074 Pnt
2052 734 Pnt
4130 2812 Pnt
2360 1042 Pnt
4849 3531 Pnt
4761 3443 Pnt
1756 438 Pnt
4071 2753 Pnt
1810 492 Pnt
1741 423 Pnt
1689 371 Pnt
2207 889 Pnt
5009 3691 Pnt
4894 3576 Pnt
2708 1390 Pnt
4619 3301 Pnt
1841 523 Pnt
4660 3342 Pnt
3474 2156 Pnt
5766 4448 Pnt
5712 4394 Pnt
5898 4580 Pnt
3492 2174 Pnt
1704 386 Pnt
4965 3647 Pnt
4349 3031 Pnt
3171 1853 Pnt
2873 1555 Pnt
2271 953 Pnt
2890 1572 Pnt
1995 677 Pnt
3945 2627 Pnt
5046 3728 Pnt
5014 3696 Pnt
2152 834 Pnt
3369 2051 Pnt
3494 2176 Pnt
1857 539 Pnt
5762 4444 Pnt
3154 1836 Pnt
2213 895 Pnt
3906 2588 Pnt
4924 3606 Pnt
4431 3113 Pnt
5411 4093 Pnt
3041 1723 Pnt
5695 4377 Pnt
2108 790 Pnt
2118 800 Pnt
5787 4469 Pnt
4428 3110 Pnt
2999 1681 Pnt
4948 3630 Pnt
5774 4456 Pnt
3624 2306 Pnt
3622 2304 Pnt
2957 1639 Pnt
2087 769 Pnt
5174 3856 Pnt
1603 285 Pnt
4704 3386 Pnt
4517 3199 Pnt
2496 1178 Pnt
3327 2009 Pnt
4614 3296 Pnt
4089 2771 Pnt
4795 3477 Pnt
3490 2172 Pnt
2811 1493 Pnt
2639 1321 Pnt
4718 3400 Pnt
3138 1820 Pnt
4656 3338 Pnt
2083 765 Pnt
2610 1292 Pnt
2601 1283 Pnt
3536 2218 Pnt
4240 2922 Pnt
4610 3292 Pnt
5852 4534 Pnt
3206 1888 Pnt
4791 3473 Pnt
3556 2238 Pnt
4270 2952 Pnt
4071 2753 Pnt
3668 2350 Pnt
4037 2719 Pnt
2991 1673 Pnt
2898 1580 Pnt
5049 3731 Pnt
3966 2648 Pnt
3689 2371 Pnt
5633 4315 Pnt
4401 3083 Pnt
2021 703 Pnt
1653 335 Pnt
2380 1062 Pnt
4095 2777 Pnt
5591 4273 Pnt
3169 1851 Pnt
1801 483 Pnt
4977 3659 Pnt
4510 3192 Pnt
5397 4079 Pnt
3907 2589 Pnt
3783 2465 Pnt
4621 3303 Pnt
1902 584 Pnt
1926 608 Pnt
2684 1366 Pnt
3081 1763 Pnt
4381 3063 Pnt
1.000 UL
LTb
1598 4620 N
0 -4340 V
4340 0 V
0 4340 V
-4340 0 V
Z stroke
1.000 UP
1.000 UL
LTb
stroke
grestore
end
showpage
%%Trailer
%%DocumentFonts: Helvetica
