%!PS-Adobe-2.0 EPSF-2.0
%%Title: rand1000.eps
%%Creator: gnuplot 4.6 patchlevel 4
%%CreationDate: Fri Jul 17 18:13:12 2015
%%DocumentFonts: (atend)
%%BoundingBox: 50 50 410 302
%%EndComments
%%BeginProlog
/gnudict 256 dict def
gnudict begin
%
% The following true/false flags may be edited by hand if desired.
% The unit line width and grayscale image gamma correction may also be changed.
%
/Color true def
/Blacktext false def
/Solid false def
/Dashlength 1 def
/Landscape false def
/Level1 false def
/Rounded false def
/ClipToBoundingBox false def
/SuppressPDFMark false def
/TransparentPatterns false def
/gnulinewidth 5.000 def
/userlinewidth gnulinewidth def
/Gamma 1.0 def
/BackgroundColor {-1.000 -1.000 -1.000} def
%
/vshift -46 def
/dl1 {
  10.0 Dashlength mul mul
  Rounded { currentlinewidth 0.75 mul sub dup 0 le { pop 0.01 } if } if
} def
/dl2 {
  10.0 Dashlength mul mul
  Rounded { currentlinewidth 0.75 mul add } if
} def
/hpt_ 31.5 def
/vpt_ 31.5 def
/hpt hpt_ def
/vpt vpt_ def
/doclip {
  ClipToBoundingBox {
    newpath 50 50 moveto 410 50 lineto 410 302 lineto 50 302 lineto closepath
    clip
  } if
} def
%
% Gnuplot Prolog Version 4.6 (September 2012)
%
%/SuppressPDFMark true def
%
/M {moveto} bind def
/L {lineto} bind def
/R {rmoveto} bind def
/V {rlineto} bind def
/N {newpath moveto} bind def
/Z {closepath} bind def
/C {setrgbcolor} bind def
/f {rlineto fill} bind def
/g {setgray} bind def
/Gshow {show} def   % May be redefined later in the file to support UTF-8
/vpt2 vpt 2 mul def
/hpt2 hpt 2 mul def
/Lshow {currentpoint stroke M 0 vshift R 
	Blacktext {gsave 0 setgray show grestore} {show} ifelse} def
/Rshow {currentpoint stroke M dup stringwidth pop neg vshift R
	Blacktext {gsave 0 setgray show grestore} {show} ifelse} def
/Cshow {currentpoint stroke M dup stringwidth pop -2 div vshift R 
	Blacktext {gsave 0 setgray show grestore} {show} ifelse} def
/UP {dup vpt_ mul /vpt exch def hpt_ mul /hpt exch def
  /hpt2 hpt 2 mul def /vpt2 vpt 2 mul def} def
/DL {Color {setrgbcolor Solid {pop []} if 0 setdash}
 {pop pop pop 0 setgray Solid {pop []} if 0 setdash} ifelse} def
/BL {stroke userlinewidth 2 mul setlinewidth
	Rounded {1 setlinejoin 1 setlinecap} if} def
/AL {stroke userlinewidth 2 div setlinewidth
	Rounded {1 setlinejoin 1 setlinecap} if} def
/UL {dup gnulinewidth mul /userlinewidth exch def
	dup 1 lt {pop 1} if 10 mul /udl exch def} def
/PL {stroke userlinewidth setlinewidth
	Rounded {1 setlinejoin 1 setlinecap} if} def
3.8 setmiterlimit
% Default Line colors
/LCw {1 1 1} def
/LCb {0 0 0} def
/LCa {0 0 0} def
/LC0 {1 0 0} def
/LC1 {0 1 0} def
/LC2 {0 0 1} def
/LC3 {1 0 1} def
/LC4 {0 1 1} def
/LC5 {1 1 0} def
/LC6 {0 0 0} def
/LC7 {1 0.3 0} def
/LC8 {0.5 0.5 0.5} def
% Default Line Types
/LTw {PL [] 1 setgray} def
/LTb {BL [] LCb DL} def
/LTa {AL [1 udl mul 2 udl mul] 0 setdash LCa setrgbcolor} def
/LT0 {PL [] LC0 DL} def
/LT1 {PL [4 dl1 2 dl2] LC1 DL} def
/LT2 {PL [2 dl1 3 dl2] LC2 DL} def
/LT3 {PL [1 dl1 1.5 dl2] LC3 DL} def
/LT4 {PL [6 dl1 2 dl2 1 dl1 2 dl2] LC4 DL} def
/LT5 {PL [3 dl1 3 dl2 1 dl1 3 dl2] LC5 DL} def
/LT6 {PL [2 dl1 2 dl2 2 dl1 6 dl2] LC6 DL} def
/LT7 {PL [1 dl1 2 dl2 6 dl1 2 dl2 1 dl1 2 dl2] LC7 DL} def
/LT8 {PL [2 dl1 2 dl2 2 dl1 2 dl2 2 dl1 2 dl2 2 dl1 4 dl2] LC8 DL} def
/Pnt {stroke [] 0 setdash gsave 1 setlinecap M 0 0 V stroke grestore} def
/Dia {stroke [] 0 setdash 2 copy vpt add M
  hpt neg vpt neg V hpt vpt neg V
  hpt vpt V hpt neg vpt V closepath stroke
  Pnt} def
/Pls {stroke [] 0 setdash vpt sub M 0 vpt2 V
  currentpoint stroke M
  hpt neg vpt neg R hpt2 0 V stroke
 } def
/Box {stroke [] 0 setdash 2 copy exch hpt sub exch vpt add M
  0 vpt2 neg V hpt2 0 V 0 vpt2 V
  hpt2 neg 0 V closepath stroke
  Pnt} def
/Crs {stroke [] 0 setdash exch hpt sub exch vpt add M
  hpt2 vpt2 neg V currentpoint stroke M
  hpt2 neg 0 R hpt2 vpt2 V stroke} def
/TriU {stroke [] 0 setdash 2 copy vpt 1.12 mul add M
  hpt neg vpt -1.62 mul V
  hpt 2 mul 0 V
  hpt neg vpt 1.62 mul V closepath stroke
  Pnt} def
/Star {2 copy Pls Crs} def
/BoxF {stroke [] 0 setdash exch hpt sub exch vpt add M
  0 vpt2 neg V hpt2 0 V 0 vpt2 V
  hpt2 neg 0 V closepath fill} def
/TriUF {stroke [] 0 setdash vpt 1.12 mul add M
  hpt neg vpt -1.62 mul V
  hpt 2 mul 0 V
  hpt neg vpt 1.62 mul V closepath fill} def
/TriD {stroke [] 0 setdash 2 copy vpt 1.12 mul sub M
  hpt neg vpt 1.62 mul V
  hpt 2 mul 0 V
  hpt neg vpt -1.62 mul V closepath stroke
  Pnt} def
/TriDF {stroke [] 0 setdash vpt 1.12 mul sub M
  hpt neg vpt 1.62 mul V
  hpt 2 mul 0 V
  hpt neg vpt -1.62 mul V closepath fill} def
/DiaF {stroke [] 0 setdash vpt add M
  hpt neg vpt neg V hpt vpt neg V
  hpt vpt V hpt neg vpt V closepath fill} def
/Pent {stroke [] 0 setdash 2 copy gsave
  translate 0 hpt M 4 {72 rotate 0 hpt L} repeat
  closepath stroke grestore Pnt} def
/PentF {stroke [] 0 setdash gsave
  translate 0 hpt M 4 {72 rotate 0 hpt L} repeat
  closepath fill grestore} def
/Circle {stroke [] 0 setdash 2 copy
  hpt 0 360 arc stroke Pnt} def
/CircleF {stroke [] 0 setdash hpt 0 360 arc fill} def
/C0 {BL [] 0 setdash 2 copy moveto vpt 90 450 arc} bind def
/C1 {BL [] 0 setdash 2 copy moveto
	2 copy vpt 0 90 arc closepath fill
	vpt 0 360 arc closepath} bind def
/C2 {BL [] 0 setdash 2 copy moveto
	2 copy vpt 90 180 arc closepath fill
	vpt 0 360 arc closepath} bind def
/C3 {BL [] 0 setdash 2 copy moveto
	2 copy vpt 0 180 arc closepath fill
	vpt 0 360 arc closepath} bind def
/C4 {BL [] 0 setdash 2 copy moveto
	2 copy vpt 180 270 arc closepath fill
	vpt 0 360 arc closepath} bind def
/C5 {BL [] 0 setdash 2 copy moveto
	2 copy vpt 0 90 arc
	2 copy moveto
	2 copy vpt 180 270 arc closepath fill
	vpt 0 360 arc} bind def
/C6 {BL [] 0 setdash 2 copy moveto
	2 copy vpt 90 270 arc closepath fill
	vpt 0 360 arc closepath} bind def
/C7 {BL [] 0 setdash 2 copy moveto
	2 copy vpt 0 270 arc closepath fill
	vpt 0 360 arc closepath} bind def
/C8 {BL [] 0 setdash 2 copy moveto
	2 copy vpt 270 360 arc closepath fill
	vpt 0 360 arc closepath} bind def
/C9 {BL [] 0 setdash 2 copy moveto
	2 copy vpt 270 450 arc closepath fill
	vpt 0 360 arc closepath} bind def
/C10 {BL [] 0 setdash 2 copy 2 copy moveto vpt 270 360 arc closepath fill
	2 copy moveto
	2 copy vpt 90 180 arc closepath fill
	vpt 0 360 arc closepath} bind def
/C11 {BL [] 0 setdash 2 copy moveto
	2 copy vpt 0 180 arc closepath fill
	2 copy moveto
	2 copy vpt 270 360 arc closepath fill
	vpt 0 360 arc closepath} bind def
/C12 {BL [] 0 setdash 2 copy moveto
	2 copy vpt 180 360 arc closepath fill
	vpt 0 360 arc closepath} bind def
/C13 {BL [] 0 setdash 2 copy moveto
	2 copy vpt 0 90 arc closepath fill
	2 copy moveto
	2 copy vpt 180 360 arc closepath fill
	vpt 0 360 arc closepath} bind def
/C14 {BL [] 0 setdash 2 copy moveto
	2 copy vpt 90 360 arc closepath fill
	vpt 0 360 arc} bind def
/C15 {BL [] 0 setdash 2 copy vpt 0 360 arc closepath fill
	vpt 0 360 arc closepath} bind def
/Rec {newpath 4 2 roll moveto 1 index 0 rlineto 0 exch rlineto
	neg 0 rlineto closepath} bind def
/Square {dup Rec} bind def
/Bsquare {vpt sub exch vpt sub exch vpt2 Square} bind def
/S0 {BL [] 0 setdash 2 copy moveto 0 vpt rlineto BL Bsquare} bind def
/S1 {BL [] 0 setdash 2 copy vpt Square fill Bsquare} bind def
/S2 {BL [] 0 setdash 2 copy exch vpt sub exch vpt Square fill Bsquare} bind def
/S3 {BL [] 0 setdash 2 copy exch vpt sub exch vpt2 vpt Rec fill Bsquare} bind def
/S4 {BL [] 0 setdash 2 copy exch vpt sub exch vpt sub vpt Square fill Bsquare} bind def
/S5 {BL [] 0 setdash 2 copy 2 copy vpt Square fill
	exch vpt sub exch vpt sub vpt Square fill Bsquare} bind def
/S6 {BL [] 0 setdash 2 copy exch vpt sub exch vpt sub vpt vpt2 Rec fill Bsquare} bind def
/S7 {BL [] 0 setdash 2 copy exch vpt sub exch vpt sub vpt vpt2 Rec fill
	2 copy vpt Square fill Bsquare} bind def
/S8 {BL [] 0 setdash 2 copy vpt sub vpt Square fill Bsquare} bind def
/S9 {BL [] 0 setdash 2 copy vpt sub vpt vpt2 Rec fill Bsquare} bind def
/S10 {BL [] 0 setdash 2 copy vpt sub vpt Square fill 2 copy exch vpt sub exch vpt Square fill
	Bsquare} bind def
/S11 {BL [] 0 setdash 2 copy vpt sub vpt Square fill 2 copy exch vpt sub exch vpt2 vpt Rec fill
	Bsquare} bind def
/S12 {BL [] 0 setdash 2 copy exch vpt sub exch vpt sub vpt2 vpt Rec fill Bsquare} bind def
/S13 {BL [] 0 setdash 2 copy exch vpt sub exch vpt sub vpt2 vpt Rec fill
	2 copy vpt Square fill Bsquare} bind def
/S14 {BL [] 0 setdash 2 copy exch vpt sub exch vpt sub vpt2 vpt Rec fill
	2 copy exch vpt sub exch vpt Square fill Bsquare} bind def
/S15 {BL [] 0 setdash 2 copy Bsquare fill Bsquare} bind def
/D0 {gsave translate 45 rotate 0 0 S0 stroke grestore} bind def
/D1 {gsave translate 45 rotate 0 0 S1 stroke grestore} bind def
/D2 {gsave translate 45 rotate 0 0 S2 stroke grestore} bind def
/D3 {gsave translate 45 rotate 0 0 S3 stroke grestore} bind def
/D4 {gsave translate 45 rotate 0 0 S4 stroke grestore} bind def
/D5 {gsave translate 45 rotate 0 0 S5 stroke grestore} bind def
/D6 {gsave translate 45 rotate 0 0 S6 stroke grestore} bind def
/D7 {gsave translate 45 rotate 0 0 S7 stroke grestore} bind def
/D8 {gsave translate 45 rotate 0 0 S8 stroke grestore} bind def
/D9 {gsave translate 45 rotate 0 0 S9 stroke grestore} bind def
/D10 {gsave translate 45 rotate 0 0 S10 stroke grestore} bind def
/D11 {gsave translate 45 rotate 0 0 S11 stroke grestore} bind def
/D12 {gsave translate 45 rotate 0 0 S12 stroke grestore} bind def
/D13 {gsave translate 45 rotate 0 0 S13 stroke grestore} bind def
/D14 {gsave translate 45 rotate 0 0 S14 stroke grestore} bind def
/D15 {gsave translate 45 rotate 0 0 S15 stroke grestore} bind def
/DiaE {stroke [] 0 setdash vpt add M
  hpt neg vpt neg V hpt vpt neg V
  hpt vpt V hpt neg vpt V closepath stroke} def
/BoxE {stroke [] 0 setdash exch hpt sub exch vpt add M
  0 vpt2 neg V hpt2 0 V 0 vpt2 V
  hpt2 neg 0 V closepath stroke} def
/TriUE {stroke [] 0 setdash vpt 1.12 mul add M
  hpt neg vpt -1.62 mul V
  hpt 2 mul 0 V
  hpt neg vpt 1.62 mul V closepath stroke} def
/TriDE {stroke [] 0 setdash vpt 1.12 mul sub M
  hpt neg vpt 1.62 mul V
  hpt 2 mul 0 V
  hpt neg vpt -1.62 mul V closepath stroke} def
/PentE {stroke [] 0 setdash gsave
  translate 0 hpt M 4 {72 rotate 0 hpt L} repeat
  closepath stroke grestore} def
/CircE {stroke [] 0 setdash 
  hpt 0 360 arc stroke} def
/Opaque {gsave closepath 1 setgray fill grestore 0 setgray closepath} def
/DiaW {stroke [] 0 setdash vpt add M
  hpt neg vpt neg V hpt vpt neg V
  hpt vpt V hpt neg vpt V Opaque stroke} def
/BoxW {stroke [] 0 setdash exch hpt sub exch vpt add M
  0 vpt2 neg V hpt2 0 V 0 vpt2 V
  hpt2 neg 0 V Opaque stroke} def
/TriUW {stroke [] 0 setdash vpt 1.12 mul add M
  hpt neg vpt -1.62 mul V
  hpt 2 mul 0 V
  hpt neg vpt 1.62 mul V Opaque stroke} def
/TriDW {stroke [] 0 setdash vpt 1.12 mul sub M
  hpt neg vpt 1.62 mul V
  hpt 2 mul 0 V
  hpt neg vpt -1.62 mul V Opaque stroke} def
/PentW {stroke [] 0 setdash gsave
  translate 0 hpt M 4 {72 rotate 0 hpt L} repeat
  Opaque stroke grestore} def
/CircW {stroke [] 0 setdash 
  hpt 0 360 arc Opaque stroke} def
/BoxFill {gsave Rec 1 setgray fill grestore} def
/Density {
  /Fillden exch def
  currentrgbcolor
  /ColB exch def /ColG exch def /ColR exch def
  /ColR ColR Fillden mul Fillden sub 1 add def
  /ColG ColG Fillden mul Fillden sub 1 add def
  /ColB ColB Fillden mul Fillden sub 1 add def
  ColR ColG ColB setrgbcolor} def
/BoxColFill {gsave Rec PolyFill} def
/PolyFill {gsave Density fill grestore grestore} def
/h {rlineto rlineto rlineto gsave closepath fill grestore} bind def
%
% PostScript Level 1 Pattern Fill routine for rectangles
% Usage: x y w h s a XX PatternFill
%	x,y = lower left corner of box to be filled
%	w,h = width and height of box
%	  a = angle in degrees between lines and x-axis
%	 XX = 0/1 for no/yes cross-hatch
%
/PatternFill {gsave /PFa [ 9 2 roll ] def
  PFa 0 get PFa 2 get 2 div add PFa 1 get PFa 3 get 2 div add translate
  PFa 2 get -2 div PFa 3 get -2 div PFa 2 get PFa 3 get Rec
  TransparentPatterns {} {gsave 1 setgray fill grestore} ifelse
  clip
  currentlinewidth 0.5 mul setlinewidth
  /PFs PFa 2 get dup mul PFa 3 get dup mul add sqrt def
  0 0 M PFa 5 get rotate PFs -2 div dup translate
  0 1 PFs PFa 4 get div 1 add floor cvi
	{PFa 4 get mul 0 M 0 PFs V} for
  0 PFa 6 get ne {
	0 1 PFs PFa 4 get div 1 add floor cvi
	{PFa 4 get mul 0 2 1 roll M PFs 0 V} for
 } if
  stroke grestore} def
%
/languagelevel where
 {pop languagelevel} {1} ifelse
 2 lt
	{/InterpretLevel1 true def}
	{/InterpretLevel1 Level1 def}
 ifelse
%
% PostScript level 2 pattern fill definitions
%
/Level2PatternFill {
/Tile8x8 {/PaintType 2 /PatternType 1 /TilingType 1 /BBox [0 0 8 8] /XStep 8 /YStep 8}
	bind def
/KeepColor {currentrgbcolor [/Pattern /DeviceRGB] setcolorspace} bind def
<< Tile8x8
 /PaintProc {0.5 setlinewidth pop 0 0 M 8 8 L 0 8 M 8 0 L stroke} 
>> matrix makepattern
/Pat1 exch def
<< Tile8x8
 /PaintProc {0.5 setlinewidth pop 0 0 M 8 8 L 0 8 M 8 0 L stroke
	0 4 M 4 8 L 8 4 L 4 0 L 0 4 L stroke}
>> matrix makepattern
/Pat2 exch def
<< Tile8x8
 /PaintProc {0.5 setlinewidth pop 0 0 M 0 8 L
	8 8 L 8 0 L 0 0 L fill}
>> matrix makepattern
/Pat3 exch def
<< Tile8x8
 /PaintProc {0.5 setlinewidth pop -4 8 M 8 -4 L
	0 12 M 12 0 L stroke}
>> matrix makepattern
/Pat4 exch def
<< Tile8x8
 /PaintProc {0.5 setlinewidth pop -4 0 M 8 12 L
	0 -4 M 12 8 L stroke}
>> matrix makepattern
/Pat5 exch def
<< Tile8x8
 /PaintProc {0.5 setlinewidth pop -2 8 M 4 -4 L
	0 12 M 8 -4 L 4 12 M 10 0 L stroke}
>> matrix makepattern
/Pat6 exch def
<< Tile8x8
 /PaintProc {0.5 setlinewidth pop -2 0 M 4 12 L
	0 -4 M 8 12 L 4 -4 M 10 8 L stroke}
>> matrix makepattern
/Pat7 exch def
<< Tile8x8
 /PaintProc {0.5 setlinewidth pop 8 -2 M -4 4 L
	12 0 M -4 8 L 12 4 M 0 10 L stroke}
>> matrix makepattern
/Pat8 exch def
<< Tile8x8
 /PaintProc {0.5 setlinewidth pop 0 -2 M 12 4 L
	-4 0 M 12 8 L -4 4 M 8 10 L stroke}
>> matrix makepattern
/Pat9 exch def
/Pattern1 {PatternBgnd KeepColor Pat1 setpattern} bind def
/Pattern2 {PatternBgnd KeepColor Pat2 setpattern} bind def
/Pattern3 {PatternBgnd KeepColor Pat3 setpattern} bind def
/Pattern4 {PatternBgnd KeepColor Landscape {Pat5} {Pat4} ifelse setpattern} bind def
/Pattern5 {PatternBgnd KeepColor Landscape {Pat4} {Pat5} ifelse setpattern} bind def
/Pattern6 {PatternBgnd KeepColor Landscape {Pat9} {Pat6} ifelse setpattern} bind def
/Pattern7 {PatternBgnd KeepColor Landscape {Pat8} {Pat7} ifelse setpattern} bind def
} def
%
%
%End of PostScript Level 2 code
%
/PatternBgnd {
  TransparentPatterns {} {gsave 1 setgray fill grestore} ifelse
} def
%
% Substitute for Level 2 pattern fill codes with
% grayscale if Level 2 support is not selected.
%
/Level1PatternFill {
/Pattern1 {0.250 Density} bind def
/Pattern2 {0.500 Density} bind def
/Pattern3 {0.750 Density} bind def
/Pattern4 {0.125 Density} bind def
/Pattern5 {0.375 Density} bind def
/Pattern6 {0.625 Density} bind def
/Pattern7 {0.875 Density} bind def
} def
%
% Now test for support of Level 2 code
%
Level1 {Level1PatternFill} {Level2PatternFill} ifelse
%
/Symbol-Oblique /Symbol findfont [1 0 .167 1 0 0] makefont
dup length dict begin {1 index /FID eq {pop pop} {def} ifelse} forall
currentdict end definefont pop
/MFshow {
   { dup 5 get 3 ge
     { 5 get 3 eq {gsave} {grestore} ifelse }
     {dup dup 0 get findfont exch 1 get scalefont setfont
     [ currentpoint ] exch dup 2 get 0 exch R dup 5 get 2 ne {dup dup 6
     get exch 4 get {Gshow} {stringwidth pop 0 R} ifelse }if dup 5 get 0 eq
     {dup 3 get {2 get neg 0 exch R pop} {pop aload pop M} ifelse} {dup 5
     get 1 eq {dup 2 get exch dup 3 get exch 6 get stringwidth pop -2 div
     dup 0 R} {dup 6 get stringwidth pop -2 div 0 R 6 get
     show 2 index {aload pop M neg 3 -1 roll neg R pop pop} {pop pop pop
     pop aload pop M} ifelse }ifelse }ifelse }
     ifelse }
   forall} def
/Gswidth {dup type /stringtype eq {stringwidth} {pop (n) stringwidth} ifelse} def
/MFwidth {0 exch { dup 5 get 3 ge { 5 get 3 eq { 0 } { pop } ifelse }
 {dup 3 get{dup dup 0 get findfont exch 1 get scalefont setfont
     6 get Gswidth pop add} {pop} ifelse} ifelse} forall} def
/MLshow { currentpoint stroke M
  0 exch R
  Blacktext {gsave 0 setgray MFshow grestore} {MFshow} ifelse } bind def
/MRshow { currentpoint stroke M
  exch dup MFwidth neg 3 -1 roll R
  Blacktext {gsave 0 setgray MFshow grestore} {MFshow} ifelse } bind def
/MCshow { currentpoint stroke M
  exch dup MFwidth -2 div 3 -1 roll R
  Blacktext {gsave 0 setgray MFshow grestore} {MFshow} ifelse } bind def
/XYsave    { [( ) 1 2 true false 3 ()] } bind def
/XYrestore { [( ) 1 2 true false 4 ()] } bind def
Level1 SuppressPDFMark or 
{} {
/SDict 10 dict def
systemdict /pdfmark known not {
  userdict /pdfmark systemdict /cleartomark get put
} if
SDict begin [
  /Title (rand1000.eps)
  /Subject (gnuplot plot)
  /Creator (gnuplot 4.6 patchlevel 4)
  /Author (t140148)
%  /Producer (gnuplot)
%  /Keywords ()
  /CreationDate (Fri Jul 17 18:13:12 2015)
  /DOCINFO pdfmark
end
} ifelse
end
%%EndProlog
%%Page: 1 1
gnudict begin
gsave
doclip
50 50 translate
0.050 0.050 scale
0 setgray
newpath
(Helvetica) findfont 140 scalefont setfont
BackgroundColor 0 lt 3 1 roll 0 lt exch 0 lt or or not {BackgroundColor C 1.000 0 0 7200.00 5040.00 BoxColFill} if
/Helvetica findfont 140 scalefont setfont
/vshift -46 def
/Helvetica findfont 140 scalefont setfont
1.000 UL
LTb
LCb setrgbcolor
1493 280 M
63 0 V
4276 0 R
-63 0 V
stroke
1409 280 M
[ [(Helvetica) 140.0 0.0 true true 0 (-1)]
] -46.7 MRshow
1.000 UL
LTb
LCb setrgbcolor
1493 2450 M
63 0 V
4276 0 R
-63 0 V
stroke
1409 2450 M
[ [(Helvetica) 140.0 0.0 true true 0 ( 0)]
] -46.7 MRshow
1.000 UL
LTb
LCb setrgbcolor
1493 4619 M
63 0 V
4276 0 R
-63 0 V
stroke
1409 4619 M
[ [(Helvetica) 140.0 0.0 true true 0 ( 1)]
] -46.7 MRshow
1.000 UL
LTb
LCb setrgbcolor
1493 280 M
0 63 V
0 4276 R
0 -63 V
stroke
1493 140 M
[ [(Helvetica) 140.0 0.0 true true 0 (-1)]
] -46.7 MCshow
1.000 UL
LTb
LCb setrgbcolor
3663 280 M
0 63 V
0 4276 R
0 -63 V
stroke
3663 140 M
[ [(Helvetica) 140.0 0.0 true true 0 ( 0)]
] -46.7 MCshow
1.000 UL
LTb
LCb setrgbcolor
5832 280 M
0 63 V
0 4276 R
0 -63 V
stroke
5832 140 M
[ [(Helvetica) 140.0 0.0 true true 0 ( 1)]
] -46.7 MCshow
1.000 UL
LTb
LCb setrgbcolor
1.000 UL
LTb
LCb setrgbcolor
1493 4619 N
0 -4339 V
4339 0 V
0 4339 V
-4339 0 V
Z stroke
LTb
3662 4829 M
[ [(Helvetica) 140.0 0.0 true true 0 (t140148)]
] -46.7 MCshow
1.000 UP
1.000 UL
LTb
LCb setrgbcolor
% Begin plot #1
1.000 UL
LT0
LC0 setrgbcolor
/Helvetica findfont 140 scalefont setfont
LCb setrgbcolor
5181 4486 M
(cos\(t\),sin\(t\)) Rshow
LT0
5265 4486 M
399 0 V
-1386 44 R
-213 51 V
-217 30 V
-219 8 V
-219 -15 V
-216 -36 V
-211 -58 V
-204 -79 V
-195 -99 V
2399 4213 L
2228 4077 L
2071 3924 L
1931 3756 L
1808 3575 L
1704 3382 L
-84 -202 V
-64 -210 V
-41 -215 V
-20 -218 V
2 -219 V
24 -218 V
46 -214 V
68 -208 V
88 -201 V
108 -191 V
127 -178 V
2102 943 L
2262 793 L
2436 660 L
2623 545 L
197 -95 V
206 -74 V
212 -54 V
217 -32 V
219 -10 V
218 12 V
217 34 V
212 56 V
205 77 V
196 97 V
185 117 V
173 134 V
159 152 V
142 166 V
125 180 V
106 192 V
86 201 V
65 209 V
44 215 V
22 218 V
0 219 V
-22 218 V
-44 215 V
-65 209 V
-86 201 V
-106 192 V
-125 180 V
-142 166 V
-159 152 V
-173 134 V
-185 117 V
-196 97 V
-205 77 V
-212 56 V
-217 34 V
-218 12 V
-219 -10 V
-217 -32 V
-212 -54 V
-206 -74 V
-197 -95 V
2436 4239 L
2262 4106 L
2102 3956 L
1958 3791 L
1831 3613 L
1723 3422 L
-88 -201 V
-68 -208 V
-46 -214 V
-24 -218 V
-2 -219 V
20 -218 V
41 -215 V
64 -210 V
84 -202 V
104 -193 V
123 -181 V
2071 975 L
2228 822 L
2399 686 L
2584 567 L
195 -99 V
204 -79 V
211 -58 V
216 -36 V
219 -15 V
219 8 V
217 30 V
213 51 V
% End plot #1
% Begin plot #2
1.000 UP
stroke
LT1
LC1 setrgbcolor
/Helvetica findfont 140 scalefont setfont
LCb setrgbcolor
5181 4346 M
("xy.dat") Rshow
LT1
4224 487 Crs
3525 2959 Crs
1781 3863 Crs
1549 3679 Crs
4537 2680 Crs
5685 1123 Crs
4697 1926 Crs
4525 3459 Crs
1916 2622 Crs
5209 667 Crs
3337 1279 Crs
3011 587 Crs
2593 2820 Crs
3629 968 Crs
4685 2733 Crs
3008 1864 Crs
4153 3826 Crs
5756 3228 Crs
4283 4599 Crs
3502 1775 Crs
3873 2142 Crs
3831 1525 Crs
5001 1311 Crs
1578 4212 Crs
4865 4080 Crs
5812 1157 Crs
1953 1778 Crs
2676 1840 Crs
5531 3599 Crs
3741 3171 Crs
2926 4043 Crs
1629 4373 Crs
4463 340 Crs
4196 1701 Crs
1533 652 Crs
4409 2700 Crs
3727 1195 Crs
5158 1684 Crs
3439 4030 Crs
2489 1259 Crs
4704 1256 Crs
3349 3951 Crs
3967 3320 Crs
2385 2453 Crs
3512 3420 Crs
2218 3733 Crs
4057 1141 Crs
4700 1474 Crs
2415 1851 Crs
4109 1242 Crs
3436 1473 Crs
4875 4458 Crs
3602 2989 Crs
2735 4335 Crs
3613 2518 Crs
2188 1272 Crs
4707 2831 Crs
1817 1629 Crs
2745 1496 Crs
5015 3551 Crs
1510 4528 Crs
3878 2860 Crs
2263 1533 Crs
5268 1972 Crs
4317 2332 Crs
4147 708 Crs
4738 1977 Crs
1760 1295 Crs
1560 1789 Crs
2224 2467 Crs
5240 1706 Crs
4672 2902 Crs
5470 3783 Crs
5464 1170 Crs
1874 3434 Crs
5655 677 Crs
4556 2488 Crs
4471 4113 Crs
4954 2694 Crs
2678 2226 Crs
1619 4119 Crs
3867 3651 Crs
2691 2921 Crs
1540 1545 Crs
5643 1058 Crs
4945 3838 Crs
3697 2573 Crs
3334 2122 Crs
2950 1753 Crs
4226 2118 Crs
1781 2835 Crs
3728 3630 Crs
1917 1154 Crs
4337 4165 Crs
4780 4309 Crs
2985 3694 Crs
5023 4146 Crs
3939 668 Crs
3661 2773 Crs
3146 2259 Crs
4764 1046 Crs
2691 1416 Crs
4552 3319 Crs
4471 457 Crs
1666 1652 Crs
3507 740 Crs
5420 4529 Crs
5303 292 Crs
2277 2595 Crs
5390 4351 Crs
3499 1330 Crs
4639 1476 Crs
2071 1533 Crs
3077 3026 Crs
5240 3518 Crs
1879 2959 Crs
5497 1864 Crs
5308 3004 Crs
1777 2734 Crs
4394 737 Crs
5318 856 Crs
2410 3693 Crs
1979 669 Crs
4918 1550 Crs
4197 3263 Crs
2495 651 Crs
5527 4428 Crs
3060 553 Crs
2555 3431 Crs
4512 750 Crs
3543 3685 Crs
4642 1995 Crs
2143 2904 Crs
1592 1214 Crs
2232 3280 Crs
2884 505 Crs
5069 2588 Crs
5131 4342 Crs
4190 3004 Crs
2486 1342 Crs
2861 2275 Crs
2925 1343 Crs
3297 3279 Crs
2829 3146 Crs
3304 296 Crs
4829 4141 Crs
4914 2426 Crs
2730 4351 Crs
1924 1616 Crs
2159 1449 Crs
5829 2338 Crs
2887 3853 Crs
1520 973 Crs
4788 3004 Crs
4910 4568 Crs
5279 726 Crs
3437 1159 Crs
3002 4027 Crs
5371 3125 Crs
3767 1630 Crs
4353 1551 Crs
2365 2222 Crs
4910 2389 Crs
3167 4127 Crs
4938 2620 Crs
2171 3722 Crs
1552 2352 Crs
4169 366 Crs
4258 1912 Crs
4302 2122 Crs
3074 2536 Crs
3781 3804 Crs
4628 4077 Crs
4426 2954 Crs
3796 1148 Crs
5517 1104 Crs
3632 838 Crs
4259 1497 Crs
4160 381 Crs
2219 2053 Crs
3934 1683 Crs
2369 2780 Crs
4968 3831 Crs
4078 2181 Crs
2337 1336 Crs
5236 2705 Crs
4805 1972 Crs
3104 2388 Crs
2643 484 Crs
1936 3733 Crs
2565 409 Crs
5770 3492 Crs
2179 2984 Crs
1583 3633 Crs
4298 1095 Crs
2280 1188 Crs
3712 1942 Crs
4900 1635 Crs
2368 1934 Crs
4748 1999 Crs
4203 2939 Crs
5638 1963 Crs
1505 1696 Crs
5284 1442 Crs
3113 4514 Crs
1769 2973 Crs
1517 494 Crs
3058 990 Crs
4411 1935 Crs
5556 1665 Crs
3964 791 Crs
3785 631 Crs
3666 1641 Crs
3198 3328 Crs
4508 902 Crs
1921 1665 Crs
4774 514 Crs
4561 3573 Crs
3143 2800 Crs
1609 3550 Crs
3908 672 Crs
3117 2719 Crs
2099 3470 Crs
4642 3804 Crs
1999 3153 Crs
2063 3257 Crs
4877 3142 Crs
4820 1498 Crs
5716 973 Crs
5759 3178 Crs
2808 635 Crs
5777 537 Crs
2081 3293 Crs
5043 2518 Crs
2687 3947 Crs
2662 3889 Crs
5552 3073 Crs
3203 606 Crs
3137 800 Crs
5343 2430 Crs
4886 361 Crs
2281 2718 Crs
4436 4395 Crs
5149 3107 Crs
1962 3863 Crs
2879 2064 Crs
5431 1611 Crs
3535 467 Crs
1498 1533 Crs
3919 1479 Crs
2074 3875 Crs
1962 581 Crs
3542 2459 Crs
2120 3973 Crs
4192 418 Crs
2997 2033 Crs
1713 2572 Crs
5684 3443 Crs
3561 3789 Crs
3144 2817 Crs
4246 3317 Crs
5814 2632 Crs
1522 2304 Crs
4032 314 Crs
4770 906 Crs
2725 4138 Crs
5714 1981 Crs
5652 2211 Crs
5373 726 Crs
2779 2519 Crs
2078 3070 Crs
5486 1084 Crs
2236 4125 Crs
5460 3091 Crs
4508 1559 Crs
2501 1709 Crs
5809 1270 Crs
5274 286 Crs
4507 2261 Crs
1533 2232 Crs
4099 1552 Crs
2964 2768 Crs
4466 1570 Crs
1573 2794 Crs
3230 1646 Crs
1908 2601 Crs
5649 348 Crs
4618 840 Crs
5406 3033 Crs
4863 2869 Crs
5525 320 Crs
5511 4290 Crs
2523 3739 Crs
5509 4324 Crs
2594 4336 Crs
3150 3987 Crs
2482 3407 Crs
3350 4243 Crs
1571 2217 Crs
3631 2095 Crs
4796 2833 Crs
5629 3400 Crs
4114 3202 Crs
5173 2475 Crs
2830 2991 Crs
1938 1310 Crs
4244 404 Crs
2194 4061 Crs
5076 658 Crs
4979 625 Crs
1589 1084 Crs
5545 1365 Crs
5424 1850 Crs
2202 4290 Crs
5000 3127 Crs
2979 2751 Crs
2554 1563 Crs
2745 3962 Crs
5698 872 Crs
3031 1483 Crs
4797 2263 Crs
3727 1996 Crs
3599 3215 Crs
2651 1630 Crs
4807 585 Crs
3188 3689 Crs
2602 1688 Crs
1648 981 Crs
4471 1144 Crs
1865 2426 Crs
5204 2138 Crs
1771 713 Crs
4634 1809 Crs
5608 3288 Crs
3615 1593 Crs
5704 1366 Crs
4789 2386 Crs
4295 1343 Crs
2195 4240 Crs
3907 4295 Crs
5758 4389 Crs
4579 1315 Crs
2671 3521 Crs
3230 4436 Crs
5599 2389 Crs
3456 3758 Crs
5460 2521 Crs
5404 3049 Crs
5263 3967 Crs
2931 1833 Crs
2154 1590 Crs
4132 4237 Crs
4909 1383 Crs
2175 4397 Crs
2217 3375 Crs
5287 930 Crs
4358 2821 Crs
3178 4323 Crs
2936 3702 Crs
5353 1489 Crs
2685 1764 Crs
1841 1100 Crs
5218 4539 Crs
5082 3436 Crs
5100 967 Crs
1862 4549 Crs
3490 3289 Crs
5380 1354 Crs
5604 510 Crs
2345 776 Crs
4818 587 Crs
2639 2130 Crs
4341 3111 Crs
3047 4571 Crs
3407 1354 Crs
2654 3385 Crs
4051 1789 Crs
5418 2224 Crs
2923 3455 Crs
2253 978 Crs
5355 1410 Crs
2121 1800 Crs
5632 456 Crs
4087 4191 Crs
1898 3726 Crs
1561 4010 Crs
5247 1494 Crs
2734 2542 Crs
5537 3075 Crs
3707 1899 Crs
5362 3655 Crs
1878 2368 Crs
2039 4590 Crs
5525 2255 Crs
4638 733 Crs
4166 2948 Crs
3076 3581 Crs
5682 1663 Crs
4970 2724 Crs
2448 4162 Crs
3044 1302 Crs
4765 1245 Crs
3729 454 Crs
4721 2221 Crs
4462 1383 Crs
5053 2780 Crs
1632 4225 Crs
1742 965 Crs
5409 4561 Crs
4153 3003 Crs
1889 1275 Crs
2545 2259 Crs
5789 1182 Crs
4855 3713 Crs
4838 4596 Crs
4469 837 Crs
2493 2189 Crs
3016 3516 Crs
3577 691 Crs
2331 994 Crs
3008 339 Crs
4707 1934 Crs
5498 3743 Crs
3832 3862 Crs
4898 940 Crs
3459 4081 Crs
3148 3298 Crs
2934 1892 Crs
5412 744 Crs
2199 3205 Crs
1934 3962 Crs
4975 1721 Crs
2745 946 Crs
1830 3616 Crs
2570 1455 Crs
5544 2872 Crs
2727 3206 Crs
5739 1180 Crs
3542 2526 Crs
1636 1396 Crs
4399 2388 Crs
2071 502 Crs
2280 2299 Crs
3327 647 Crs
3975 2820 Crs
4785 3203 Crs
3376 2716 Crs
1518 3416 Crs
4595 642 Crs
3626 4459 Crs
3030 2125 Crs
3925 3052 Crs
1924 2619 Crs
5164 2761 Crs
1739 4094 Crs
5089 3432 Crs
3077 4454 Crs
4867 2650 Crs
3347 1149 Crs
4230 4616 Crs
4902 1971 Crs
4414 1233 Crs
5619 3226 Crs
5582 3169 Crs
4801 2163 Crs
4222 786 Crs
5220 1102 Crs
4771 4438 Crs
4654 2890 Crs
3793 3687 Crs
3578 1837 Crs
3713 3949 Crs
2885 1535 Crs
3193 3526 Crs
3617 379 Crs
4736 1475 Crs
3282 2105 Crs
3641 1857 Crs
1924 2178 Crs
1620 4019 Crs
5273 3136 Crs
5739 3448 Crs
5171 3465 Crs
4481 2780 Crs
2949 1229 Crs
3061 3821 Crs
3999 4068 Crs
4364 4178 Crs
2197 512 Crs
4298 3109 Crs
1824 1989 Crs
5516 2400 Crs
5026 2112 Crs
5190 4245 Crs
5223 4103 Crs
4858 3451 Crs
3833 3552 Crs
3493 1959 Crs
3611 929 Crs
5672 3853 Crs
3091 1688 Crs
4268 4383 Crs
2350 1588 Crs
5155 1841 Crs
3033 2408 Crs
1544 2151 Crs
5330 4354 Crs
5484 3311 Crs
3060 3629 Crs
4150 1238 Crs
4326 1963 Crs
5622 1114 Crs
2109 2070 Crs
4007 3014 Crs
3932 2634 Crs
3461 4317 Crs
5255 685 Crs
5294 561 Crs
3205 3404 Crs
3335 3532 Crs
2406 2173 Crs
2277 690 Crs
3121 716 Crs
4934 3475 Crs
5277 2039 Crs
5646 2558 Crs
4935 4223 Crs
4605 4339 Crs
2887 1567 Crs
3946 4113 Crs
5134 363 Crs
5024 3344 Crs
1980 3273 Crs
4838 2479 Crs
3271 1128 Crs
2605 2971 Crs
4234 2176 Crs
4594 310 Crs
3825 2484 Crs
4718 2057 Crs
5456 3320 Crs
5548 3346 Crs
4137 3109 Crs
4279 4318 Crs
5609 1180 Crs
5025 3698 Crs
2476 3003 Crs
3636 1750 Crs
2870 1429 Crs
5163 3435 Crs
3490 723 Crs
3000 678 Crs
3832 549 Crs
1921 612 Crs
3965 3934 Crs
3602 2376 Crs
3848 2105 Crs
2317 940 Crs
1808 3889 Crs
1851 372 Crs
1664 4170 Crs
5002 1434 Crs
3768 1593 Crs
4117 3932 Crs
3955 2234 Crs
3961 400 Crs
3890 4254 Crs
2011 678 Crs
5736 1226 Crs
2223 2657 Crs
1754 3119 Crs
1627 2896 Crs
1819 1238 Crs
4769 921 Crs
1721 3914 Crs
2225 679 Crs
4678 4522 Crs
3045 1400 Crs
2709 4456 Crs
1926 3958 Crs
3284 3181 Crs
5291 4468 Crs
4029 4596 Crs
1740 2720 Crs
2416 1257 Crs
1971 1465 Crs
5309 892 Crs
5294 4421 Crs
3062 3017 Crs
1936 2077 Crs
3525 1455 Crs
3689 1158 Crs
2571 4028 Crs
3492 2574 Crs
5078 2712 Crs
3127 1317 Crs
2487 1372 Crs
2380 3810 Crs
2562 1413 Crs
3124 2272 Crs
3603 2389 Crs
4670 1867 Crs
4214 2918 Crs
2882 4571 Crs
2530 2112 Crs
3242 3349 Crs
4500 4225 Crs
5440 4365 Crs
4847 1887 Crs
3534 2880 Crs
5532 3954 Crs
5131 974 Crs
1921 465 Crs
5717 1777 Crs
2812 1796 Crs
4982 3709 Crs
5118 2607 Crs
2170 2287 Crs
2119 2346 Crs
3452 1943 Crs
5390 3988 Crs
1886 2846 Crs
4807 281 Crs
3805 2610 Crs
3101 294 Crs
2084 1588 Crs
5181 4509 Crs
3495 4396 Crs
1568 2166 Crs
2767 1673 Crs
4895 704 Crs
1976 2969 Crs
4243 1440 Crs
1850 3656 Crs
4718 2596 Crs
2193 3063 Crs
3178 1373 Crs
2503 940 Crs
2587 3602 Crs
4483 2982 Crs
4829 3861 Crs
5503 2965 Crs
4963 1952 Crs
3955 3825 Crs
5052 4016 Crs
2093 2902 Crs
5653 1363 Crs
2464 2851 Crs
3735 1608 Crs
3102 1408 Crs
5138 2589 Crs
5405 1271 Crs
4894 863 Crs
3144 436 Crs
5398 582 Crs
4351 3182 Crs
5376 2809 Crs
2741 3295 Crs
5694 3991 Crs
3714 3701 Crs
4601 3101 Crs
3197 3209 Crs
5396 2955 Crs
2654 2087 Crs
5497 3050 Crs
4428 3589 Crs
2232 2788 Crs
5793 4421 Crs
4584 1893 Crs
5790 2937 Crs
3408 3096 Crs
2713 1739 Crs
2499 2748 Crs
1628 1148 Crs
3333 2636 Crs
5782 889 Crs
2331 1933 Crs
5030 682 Crs
5822 639 Crs
3702 4273 Crs
4622 1085 Crs
4457 4148 Crs
4806 3205 Crs
5163 2345 Crs
1691 3908 Crs
1876 2393 Crs
3598 1883 Crs
5066 3391 Crs
5565 3988 Crs
5472 1853 Crs
3218 4209 Crs
3674 2843 Crs
2736 1659 Crs
4458 1512 Crs
3232 1115 Crs
2380 809 Crs
3133 4130 Crs
1551 894 Crs
3929 4009 Crs
4172 2914 Crs
4511 3342 Crs
1901 1064 Crs
1820 4261 Crs
5389 339 Crs
4843 3815 Crs
3125 1015 Crs
4618 4093 Crs
4791 309 Crs
2347 2204 Crs
2754 2873 Crs
4251 2428 Crs
4615 339 Crs
3152 3460 Crs
2165 4375 Crs
4063 3631 Crs
3883 1529 Crs
3567 3079 Crs
3526 2681 Crs
3934 1870 Crs
3953 1731 Crs
2279 4372 Crs
3680 4191 Crs
5059 1426 Crs
5433 361 Crs
4562 1143 Crs
4166 1768 Crs
4504 1736 Crs
3040 611 Crs
1790 2499 Crs
1580 3147 Crs
2724 2757 Crs
5609 3586 Crs
2430 2090 Crs
2861 3658 Crs
4893 4108 Crs
1984 4467 Crs
5074 2957 Crs
5252 3089 Crs
5316 3641 Crs
4382 2833 Crs
5716 1504 Crs
5535 3175 Crs
4173 1529 Crs
4719 3257 Crs
4962 3593 Crs
2998 641 Crs
2944 1562 Crs
5159 2668 Crs
4585 975 Crs
2920 2433 Crs
1677 2198 Crs
3494 4045 Crs
1749 1701 Crs
3727 4359 Crs
1935 1065 Crs
3787 607 Crs
3502 2276 Crs
4715 630 Crs
4739 2388 Crs
4820 2655 Crs
2575 773 Crs
4229 2813 Crs
3267 2343 Crs
2075 807 Crs
4251 2289 Crs
4173 3222 Crs
5420 622 Crs
3861 4463 Crs
3255 544 Crs
5416 2485 Crs
2542 2158 Crs
4025 3338 Crs
5367 1694 Crs
4901 3061 Crs
5015 2675 Crs
2310 545 Crs
4381 3833 Crs
4291 603 Crs
2770 3660 Crs
2343 4316 Crs
2543 3810 Crs
4132 918 Crs
5365 948 Crs
1975 1575 Crs
2425 346 Crs
4993 2261 Crs
3437 1973 Crs
2193 1759 Crs
4600 4387 Crs
5753 2570 Crs
3657 1018 Crs
4048 993 Crs
5784 1294 Crs
2529 1509 Crs
1548 2166 Crs
2419 1385 Crs
2571 3845 Crs
3235 890 Crs
5726 2504 Crs
3399 1106 Crs
3784 1347 Crs
4300 4515 Crs
4252 3787 Crs
2868 1807 Crs
4768 1576 Crs
5310 1379 Crs
3527 2313 Crs
3305 2265 Crs
4540 3128 Crs
4707 3382 Crs
1888 4420 Crs
5699 1753 Crs
4859 1890 Crs
3576 3540 Crs
5327 4269 Crs
5579 2066 Crs
2210 2834 Crs
3175 3756 Crs
3215 3337 Crs
2157 938 Crs
1507 422 Crs
3250 2328 Crs
3669 3849 Crs
5526 1164 Crs
3571 3189 Crs
5478 2753 Crs
4203 4133 Crs
5439 2017 Crs
2616 1971 Crs
2151 899 Crs
2833 685 Crs
3898 2337 Crs
4453 4366 Crs
2687 623 Crs
4297 2138 Crs
2493 3098 Crs
3494 3037 Crs
2020 4456 Crs
3480 501 Crs
2214 4345 Crs
4623 647 Crs
3693 1781 Crs
5713 2087 Crs
4730 1284 Crs
4991 4175 Crs
3116 779 Crs
5793 4308 Crs
4049 3200 Crs
5268 4031 Crs
4756 2520 Crs
2763 4543 Crs
2212 3551 Crs
4175 1526 Crs
4601 610 Crs
2960 4109 Crs
1550 538 Crs
5689 2536 Crs
3252 4357 Crs
5556 937 Crs
2235 3502 Crs
1706 2645 Crs
5214 454 Crs
3547 2219 Crs
4587 1770 Crs
2843 2298 Crs
5223 2900 Crs
3436 390 Crs
3045 566 Crs
2849 601 Crs
2109 3103 Crs
5643 952 Crs
4575 4287 Crs
4422 781 Crs
5238 2933 Crs
2651 429 Crs
3029 1651 Crs
4007 1198 Crs
3038 509 Crs
4350 581 Crs
3212 4487 Crs
3812 1390 Crs
3982 4542 Crs
2713 4321 Crs
1702 2856 Crs
1516 1104 Crs
2553 4453 Crs
2989 4421 Crs
5334 366 Crs
1797 3528 Crs
4232 1742 Crs
4889 4555 Crs
4326 1852 Crs
2348 320 Crs
3294 3992 Crs
1833 3800 Crs
5073 2940 Crs
1784 2009 Crs
4076 1790 Crs
2924 3071 Crs
5579 1734 Crs
5108 1087 Crs
2781 1053 Crs
2102 1070 Crs
2352 1193 Crs
5530 3878 Crs
3868 3375 Crs
5027 1149 Crs
1820 330 Crs
2402 2408 Crs
5254 1530 Crs
2802 3282 Crs
5402 1879 Crs
1885 2433 Crs
4603 2103 Crs
2098 3137 Crs
4770 4500 Crs
5156 505 Crs
2147 4553 Crs
2508 1793 Crs
2339 993 Crs
2265 3501 Crs
5301 4586 Crs
5584 4415 Crs
1510 941 Crs
3417 4058 Crs
3403 3513 Crs
3934 1761 Crs
1986 3113 Crs
5126 3883 Crs
1810 4518 Crs
3613 3874 Crs
5613 1725 Crs
5313 715 Crs
2872 776 Crs
3441 2505 Crs
2702 3001 Crs
2600 958 Crs
4181 1139 Crs
1967 2985 Crs
3013 2678 Crs
3637 3710 Crs
2785 526 Crs
2065 2065 Crs
4572 4485 Crs
2541 3676 Crs
5598 3449 Crs
4145 4165 Crs
1768 2413 Crs
5813 1933 Crs
4122 2210 Crs
5371 4118 Crs
1804 927 Crs
1670 3279 Crs
2999 932 Crs
2858 3305 Crs
4543 3788 Crs
3610 282 Crs
5247 2969 Crs
3280 2774 Crs
4048 3115 Crs
3044 2600 Crs
3158 4483 Crs
3360 2220 Crs
3490 2128 Crs
5087 566 Crs
5271 3413 Crs
5617 4369 Crs
5272 4582 Crs
4242 1226 Crs
2107 4394 Crs
5464 3944 Crs
4777 2029 Crs
5159 2979 Crs
1592 1394 Crs
2347 2933 Crs
5443 2685 Crs
2128 1556 Crs
3762 2782 Crs
4709 4546 Crs
1504 2751 Crs
1706 4069 Crs
2758 4617 Crs
5032 985 Crs
5793 2230 Crs
3144 855 Crs
3218 1564 Crs
5732 950 Crs
4526 3846 Crs
4861 3412 Crs
1835 4502 Crs
2939 4571 Crs
3781 2361 Crs
2722 498 Crs
1737 386 Crs
1637 535 Crs
4070 637 Crs
5537 4122 Crs
1848 3524 Crs
1701 596 Crs
2348 2140 Crs
5464 4346 Crs
% End plot #2
1.000 UL
LTb
LCb setrgbcolor
1493 4619 N
0 -4339 V
4339 0 V
0 4339 V
-4339 0 V
Z stroke
1.000 UP
1.000 UL
LTb
LCb setrgbcolor
stroke
grestore
end
showpage
%%Trailer
%%DocumentFonts: Helvetica
