%!PS-Adobe-3.0
%%Page: 1 1

newpath
    100 700 moveto
    400 700 lineto
    100 600 moveto
    400 0 rlineto
stroke

10 setlinewidth

newpath
    100 400 moveto
    300 0 rlineto
    0 100 rlineto
    -300 0 rlineto
    0 -105 rlineto
stroke

newpath
    100 200 moveto
    300 0 rlineto
    0 100 rlineto
    -300 0 rlineto
    0 -100 rlineto
    closepath
    0.7 setgray
    fill
stroke

showpage

%%EOF