%!PS-Adobe-3.0
%%Page: 1 1

newpath
    100 600 30 0 360 arc 0.8 setgray fill
    150 600 30 0 360 arc 0.5 setgray fill
    200 600 30 0 360 arc 0.3 setgray fill
    
    300 600 30 0 360 arc 0.0 setgray 3 setlinewidth
stroke

/diamond {
    moveto
     35   0 rmoveto
    -35  35 rlineto
    -35 -35 rlineto
     35 -35 rlineto
    closepath
}def

newpath
    100 500 diamond 0.8 setgray fill
    150 500 diamond 0.5 setgray fill
    200 500 diamond 0.3 setgray fill
    
    300 500 diamond 0.0 setgray 3 setlinewidth
stroke

showpage

%%EOF