%!PS-Adobe-3.0
%%Page: 1 1

20 setlinewidth

newpath
    100 500 moveto 300 0 rlineto
    0 setlinecap % Butt caps
stroke

newpath
    100 540 moveto 300 0 rlineto
    1 setlinecap % Round caps
stroke

newpath
    100 580 moveto 300 0 rlineto
    2 setlinecap % Projecteing caps
stroke

newpath
    100 300 moveto 300 0 rlineto 80 100 rlineto
    0 setlinejoin % Miter joins
stroke

newpath
    100 340 moveto 300 0 rlineto 80 100 rlineto
    1 setlinejoin % Round joins
stroke

newpath
    100 380 moveto 300 0 rlineto 80 100 rlineto
    2 setlinejoin % Bevel joins
stroke

newpath
    100 100 moveto 300 0 rlineto -300 50 rlineto
    0 setlinejoin % Miter joins
    100 setmiterlimit %defaut=10
stroke

showpage

%%EOF