%!PS-Adobe-3.0
%%Page: 1 1


newpath
    105 405 moveto
    390 0 rlineto
    0 290 rlineto
    -390 0 rlineto
    0 -290 rlineto closepath stroke
stroke

5 setlinewidth

newpath
    100 400 moveto
    400 0 rlineto
    0 300 rlineto
    -400 0 rlineto
    0 -300 rlineto closepath stroke
stroke


/Helvetica findfont 40 scalefont setfont
150 600 moveto (T150173) show

/Helvetica findfont 40 scalefont setfont
320 600 moveto (+ C) show

/Times-Italic findfont 40 scalefont setfont
150 500 moveto (Ryota Tanimoto ) show

/Symbol findfont 40 scalefont setfont
130 600 moveto <F2> show %hexadecimal
%400 500 moveto (\250) show %octal

0.3 setgray
/Symbol findfont 30 scalefont setfont
415 510 moveto <D4> show %hexadecimal
%400 500 moveto (\250) show %octal

1 0 1 setrgbcolor
/Helvetica findfont 20 scalefont setfont
230 570 moveto (C : constant of integration) show

showpage

%%EOF