%!PS-Adobe-2.0 EPSF-2.0
%%Title: fx.eps
%%Creator: gnuplot 4.2 patchlevel 6 
%%CreationDate: Fri Jun 13 17:02:19 2014
%%DocumentFonts: (atend)
%%BoundingBox: 50 50 410 302
%%EndComments
%%BeginProlog
/gnudict 256 dict def
gnudict begin
%
% The following 6 true/false flags may be edited by hand if required
% The unit line width may also be changed
%
/Color true def
/Blacktext false def
/Solid false def
/Dashlength 1 def
/Landscape false def
/Level1 false def
/Rounded false def
/TransparentPatterns false def
/gnulinewidth 5.000 def
/userlinewidth gnulinewidth def
%
/vshift -46 def
/dl1 {
  10.0 Dashlength mul mul
  Rounded { currentlinewidth 0.75 mul sub dup 0 le { pop 0.01 } if } if
} def
/dl2 {
  10.0 Dashlength mul mul
  Rounded { currentlinewidth 0.75 mul add } if
} def
/hpt_ 31.5 def
/vpt_ 31.5 def
/hpt hpt_ def
/vpt vpt_ def
Level1 {} {
/SDict 10 dict def
systemdict /pdfmark known not {
  userdict /pdfmark systemdict /cleartomark get put
} if
SDict begin [
  /Title (fx.eps)
  /Subject (gnuplot plot)
  /Creator (gnuplot 4.2 patchlevel 6 )
  /Author (TAKUTO OURUMA)
%  /Producer (gnuplot)
%  /Keywords ()
  /CreationDate (Fri Jun 13 17:02:19 2014)
  /DOCINFO pdfmark
end
} ifelse
%
% Gnuplot Prolog Version 4.2 (August 2006)
%
/M {moveto} bind def
/L {lineto} bind def
/R {rmoveto} bind def
/V {rlineto} bind def
/N {newpath moveto} bind def
/Z {closepath} bind def
/C {setrgbcolor} bind def
/f {rlineto fill} bind def
/vpt2 vpt 2 mul def
/hpt2 hpt 2 mul def
/Lshow {currentpoint stroke M 0 vshift R 
	Blacktext {gsave 0 setgray show grestore} {show} ifelse} def
/Rshow {currentpoint stroke M dup stringwidth pop neg vshift R
	Blacktext {gsave 0 setgray show grestore} {show} ifelse} def
/Cshow {currentpoint stroke M dup stringwidth pop -2 div vshift R 
	Blacktext {gsave 0 setgray show grestore} {show} ifelse} def
/UP {dup vpt_ mul /vpt exch def hpt_ mul /hpt exch def
  /hpt2 hpt 2 mul def /vpt2 vpt 2 mul def} def
/DL {Color {setrgbcolor Solid {pop []} if 0 setdash}
 {pop pop pop 0 setgray Solid {pop []} if 0 setdash} ifelse} def
/BL {stroke userlinewidth 2 mul setlinewidth
	Rounded {1 setlinejoin 1 setlinecap} if} def
/AL {stroke userlinewidth 2 div setlinewidth
	Rounded {1 setlinejoin 1 setlinecap} if} def
/UL {dup gnulinewidth mul /userlinewidth exch def
	dup 1 lt {pop 1} if 10 mul /udl exch def} def
/PL {stroke userlinewidth setlinewidth
	Rounded {1 setlinejoin 1 setlinecap} if} def
% Default Line colors
/LCw {1 1 1} def
/LCb {0 0 0} def
/LCa {0 0 0} def
/LC0 {1 0 0} def
/LC1 {0 1 0} def
/LC2 {0 0 1} def
/LC3 {1 0 1} def
/LC4 {0 1 1} def
/LC5 {1 1 0} def
/LC6 {0 0 0} def
/LC7 {1 0.3 0} def
/LC8 {0.5 0.5 0.5} def
% Default Line Types
/LTw {PL [] 1 setgray} def
/LTb {BL [] LCb DL} def
/LTa {AL [1 udl mul 2 udl mul] 0 setdash LCa setrgbcolor} def
/LT0 {PL [] LC0 DL} def
/LT1 {PL [4 dl1 2 dl2] LC1 DL} def
/LT2 {PL [2 dl1 3 dl2] LC2 DL} def
/LT3 {PL [1 dl1 1.5 dl2] LC3 DL} def
/LT4 {PL [6 dl1 2 dl2 1 dl1 2 dl2] LC4 DL} def
/LT5 {PL [3 dl1 3 dl2 1 dl1 3 dl2] LC5 DL} def
/LT6 {PL [2 dl1 2 dl2 2 dl1 6 dl2] LC6 DL} def
/LT7 {PL [1 dl1 2 dl2 6 dl1 2 dl2 1 dl1 2 dl2] LC7 DL} def
/LT8 {PL [2 dl1 2 dl2 2 dl1 2 dl2 2 dl1 2 dl2 2 dl1 4 dl2] LC8 DL} def
/Pnt {stroke [] 0 setdash gsave 1 setlinecap M 0 0 V stroke grestore} def
/Dia {stroke [] 0 setdash 2 copy vpt add M
  hpt neg vpt neg V hpt vpt neg V
  hpt vpt V hpt neg vpt V closepath stroke
  Pnt} def
/Pls {stroke [] 0 setdash vpt sub M 0 vpt2 V
  currentpoint stroke M
  hpt neg vpt neg R hpt2 0 V stroke
 } def
/Box {stroke [] 0 setdash 2 copy exch hpt sub exch vpt add M
  0 vpt2 neg V hpt2 0 V 0 vpt2 V
  hpt2 neg 0 V closepath stroke
  Pnt} def
/Crs {stroke [] 0 setdash exch hpt sub exch vpt add M
  hpt2 vpt2 neg V currentpoint stroke M
  hpt2 neg 0 R hpt2 vpt2 V stroke} def
/TriU {stroke [] 0 setdash 2 copy vpt 1.12 mul add M
  hpt neg vpt -1.62 mul V
  hpt 2 mul 0 V
  hpt neg vpt 1.62 mul V closepath stroke
  Pnt} def
/Star {2 copy Pls Crs} def
/BoxF {stroke [] 0 setdash exch hpt sub exch vpt add M
  0 vpt2 neg V hpt2 0 V 0 vpt2 V
  hpt2 neg 0 V closepath fill} def
/TriUF {stroke [] 0 setdash vpt 1.12 mul add M
  hpt neg vpt -1.62 mul V
  hpt 2 mul 0 V
  hpt neg vpt 1.62 mul V closepath fill} def
/TriD {stroke [] 0 setdash 2 copy vpt 1.12 mul sub M
  hpt neg vpt 1.62 mul V
  hpt 2 mul 0 V
  hpt neg vpt -1.62 mul V closepath stroke
  Pnt} def
/TriDF {stroke [] 0 setdash vpt 1.12 mul sub M
  hpt neg vpt 1.62 mul V
  hpt 2 mul 0 V
  hpt neg vpt -1.62 mul V closepath fill} def
/DiaF {stroke [] 0 setdash vpt add M
  hpt neg vpt neg V hpt vpt neg V
  hpt vpt V hpt neg vpt V closepath fill} def
/Pent {stroke [] 0 setdash 2 copy gsave
  translate 0 hpt M 4 {72 rotate 0 hpt L} repeat
  closepath stroke grestore Pnt} def
/PentF {stroke [] 0 setdash gsave
  translate 0 hpt M 4 {72 rotate 0 hpt L} repeat
  closepath fill grestore} def
/Circle {stroke [] 0 setdash 2 copy
  hpt 0 360 arc stroke Pnt} def
/CircleF {stroke [] 0 setdash hpt 0 360 arc fill} def
/C0 {BL [] 0 setdash 2 copy moveto vpt 90 450 arc} bind def
/C1 {BL [] 0 setdash 2 copy moveto
	2 copy vpt 0 90 arc closepath fill
	vpt 0 360 arc closepath} bind def
/C2 {BL [] 0 setdash 2 copy moveto
	2 copy vpt 90 180 arc closepath fill
	vpt 0 360 arc closepath} bind def
/C3 {BL [] 0 setdash 2 copy moveto
	2 copy vpt 0 180 arc closepath fill
	vpt 0 360 arc closepath} bind def
/C4 {BL [] 0 setdash 2 copy moveto
	2 copy vpt 180 270 arc closepath fill
	vpt 0 360 arc closepath} bind def
/C5 {BL [] 0 setdash 2 copy moveto
	2 copy vpt 0 90 arc
	2 copy moveto
	2 copy vpt 180 270 arc closepath fill
	vpt 0 360 arc} bind def
/C6 {BL [] 0 setdash 2 copy moveto
	2 copy vpt 90 270 arc closepath fill
	vpt 0 360 arc closepath} bind def
/C7 {BL [] 0 setdash 2 copy moveto
	2 copy vpt 0 270 arc closepath fill
	vpt 0 360 arc closepath} bind def
/C8 {BL [] 0 setdash 2 copy moveto
	2 copy vpt 270 360 arc closepath fill
	vpt 0 360 arc closepath} bind def
/C9 {BL [] 0 setdash 2 copy moveto
	2 copy vpt 270 450 arc closepath fill
	vpt 0 360 arc closepath} bind def
/C10 {BL [] 0 setdash 2 copy 2 copy moveto vpt 270 360 arc closepath fill
	2 copy moveto
	2 copy vpt 90 180 arc closepath fill
	vpt 0 360 arc closepath} bind def
/C11 {BL [] 0 setdash 2 copy moveto
	2 copy vpt 0 180 arc closepath fill
	2 copy moveto
	2 copy vpt 270 360 arc closepath fill
	vpt 0 360 arc closepath} bind def
/C12 {BL [] 0 setdash 2 copy moveto
	2 copy vpt 180 360 arc closepath fill
	vpt 0 360 arc closepath} bind def
/C13 {BL [] 0 setdash 2 copy moveto
	2 copy vpt 0 90 arc closepath fill
	2 copy moveto
	2 copy vpt 180 360 arc closepath fill
	vpt 0 360 arc closepath} bind def
/C14 {BL [] 0 setdash 2 copy moveto
	2 copy vpt 90 360 arc closepath fill
	vpt 0 360 arc} bind def
/C15 {BL [] 0 setdash 2 copy vpt 0 360 arc closepath fill
	vpt 0 360 arc closepath} bind def
/Rec {newpath 4 2 roll moveto 1 index 0 rlineto 0 exch rlineto
	neg 0 rlineto closepath} bind def
/Square {dup Rec} bind def
/Bsquare {vpt sub exch vpt sub exch vpt2 Square} bind def
/S0 {BL [] 0 setdash 2 copy moveto 0 vpt rlineto BL Bsquare} bind def
/S1 {BL [] 0 setdash 2 copy vpt Square fill Bsquare} bind def
/S2 {BL [] 0 setdash 2 copy exch vpt sub exch vpt Square fill Bsquare} bind def
/S3 {BL [] 0 setdash 2 copy exch vpt sub exch vpt2 vpt Rec fill Bsquare} bind def
/S4 {BL [] 0 setdash 2 copy exch vpt sub exch vpt sub vpt Square fill Bsquare} bind def
/S5 {BL [] 0 setdash 2 copy 2 copy vpt Square fill
	exch vpt sub exch vpt sub vpt Square fill Bsquare} bind def
/S6 {BL [] 0 setdash 2 copy exch vpt sub exch vpt sub vpt vpt2 Rec fill Bsquare} bind def
/S7 {BL [] 0 setdash 2 copy exch vpt sub exch vpt sub vpt vpt2 Rec fill
	2 copy vpt Square fill Bsquare} bind def
/S8 {BL [] 0 setdash 2 copy vpt sub vpt Square fill Bsquare} bind def
/S9 {BL [] 0 setdash 2 copy vpt sub vpt vpt2 Rec fill Bsquare} bind def
/S10 {BL [] 0 setdash 2 copy vpt sub vpt Square fill 2 copy exch vpt sub exch vpt Square fill
	Bsquare} bind def
/S11 {BL [] 0 setdash 2 copy vpt sub vpt Square fill 2 copy exch vpt sub exch vpt2 vpt Rec fill
	Bsquare} bind def
/S12 {BL [] 0 setdash 2 copy exch vpt sub exch vpt sub vpt2 vpt Rec fill Bsquare} bind def
/S13 {BL [] 0 setdash 2 copy exch vpt sub exch vpt sub vpt2 vpt Rec fill
	2 copy vpt Square fill Bsquare} bind def
/S14 {BL [] 0 setdash 2 copy exch vpt sub exch vpt sub vpt2 vpt Rec fill
	2 copy exch vpt sub exch vpt Square fill Bsquare} bind def
/S15 {BL [] 0 setdash 2 copy Bsquare fill Bsquare} bind def
/D0 {gsave translate 45 rotate 0 0 S0 stroke grestore} bind def
/D1 {gsave translate 45 rotate 0 0 S1 stroke grestore} bind def
/D2 {gsave translate 45 rotate 0 0 S2 stroke grestore} bind def
/D3 {gsave translate 45 rotate 0 0 S3 stroke grestore} bind def
/D4 {gsave translate 45 rotate 0 0 S4 stroke grestore} bind def
/D5 {gsave translate 45 rotate 0 0 S5 stroke grestore} bind def
/D6 {gsave translate 45 rotate 0 0 S6 stroke grestore} bind def
/D7 {gsave translate 45 rotate 0 0 S7 stroke grestore} bind def
/D8 {gsave translate 45 rotate 0 0 S8 stroke grestore} bind def
/D9 {gsave translate 45 rotate 0 0 S9 stroke grestore} bind def
/D10 {gsave translate 45 rotate 0 0 S10 stroke grestore} bind def
/D11 {gsave translate 45 rotate 0 0 S11 stroke grestore} bind def
/D12 {gsave translate 45 rotate 0 0 S12 stroke grestore} bind def
/D13 {gsave translate 45 rotate 0 0 S13 stroke grestore} bind def
/D14 {gsave translate 45 rotate 0 0 S14 stroke grestore} bind def
/D15 {gsave translate 45 rotate 0 0 S15 stroke grestore} bind def
/DiaE {stroke [] 0 setdash vpt add M
  hpt neg vpt neg V hpt vpt neg V
  hpt vpt V hpt neg vpt V closepath stroke} def
/BoxE {stroke [] 0 setdash exch hpt sub exch vpt add M
  0 vpt2 neg V hpt2 0 V 0 vpt2 V
  hpt2 neg 0 V closepath stroke} def
/TriUE {stroke [] 0 setdash vpt 1.12 mul add M
  hpt neg vpt -1.62 mul V
  hpt 2 mul 0 V
  hpt neg vpt 1.62 mul V closepath stroke} def
/TriDE {stroke [] 0 setdash vpt 1.12 mul sub M
  hpt neg vpt 1.62 mul V
  hpt 2 mul 0 V
  hpt neg vpt -1.62 mul V closepath stroke} def
/PentE {stroke [] 0 setdash gsave
  translate 0 hpt M 4 {72 rotate 0 hpt L} repeat
  closepath stroke grestore} def
/CircE {stroke [] 0 setdash 
  hpt 0 360 arc stroke} def
/Opaque {gsave closepath 1 setgray fill grestore 0 setgray closepath} def
/DiaW {stroke [] 0 setdash vpt add M
  hpt neg vpt neg V hpt vpt neg V
  hpt vpt V hpt neg vpt V Opaque stroke} def
/BoxW {stroke [] 0 setdash exch hpt sub exch vpt add M
  0 vpt2 neg V hpt2 0 V 0 vpt2 V
  hpt2 neg 0 V Opaque stroke} def
/TriUW {stroke [] 0 setdash vpt 1.12 mul add M
  hpt neg vpt -1.62 mul V
  hpt 2 mul 0 V
  hpt neg vpt 1.62 mul V Opaque stroke} def
/TriDW {stroke [] 0 setdash vpt 1.12 mul sub M
  hpt neg vpt 1.62 mul V
  hpt 2 mul 0 V
  hpt neg vpt -1.62 mul V Opaque stroke} def
/PentW {stroke [] 0 setdash gsave
  translate 0 hpt M 4 {72 rotate 0 hpt L} repeat
  Opaque stroke grestore} def
/CircW {stroke [] 0 setdash 
  hpt 0 360 arc Opaque stroke} def
/BoxFill {gsave Rec 1 setgray fill grestore} def
/Density {
  /Fillden exch def
  currentrgbcolor
  /ColB exch def /ColG exch def /ColR exch def
  /ColR ColR Fillden mul Fillden sub 1 add def
  /ColG ColG Fillden mul Fillden sub 1 add def
  /ColB ColB Fillden mul Fillden sub 1 add def
  ColR ColG ColB setrgbcolor} def
/BoxColFill {gsave Rec PolyFill} def
/PolyFill {gsave Density fill grestore grestore} def
/h {rlineto rlineto rlineto gsave closepath fill grestore} bind def
%
% PostScript Level 1 Pattern Fill routine for rectangles
% Usage: x y w h s a XX PatternFill
%	x,y = lower left corner of box to be filled
%	w,h = width and height of box
%	  a = angle in degrees between lines and x-axis
%	 XX = 0/1 for no/yes cross-hatch
%
/PatternFill {gsave /PFa [ 9 2 roll ] def
  PFa 0 get PFa 2 get 2 div add PFa 1 get PFa 3 get 2 div add translate
  PFa 2 get -2 div PFa 3 get -2 div PFa 2 get PFa 3 get Rec
  gsave 1 setgray fill grestore clip
  currentlinewidth 0.5 mul setlinewidth
  /PFs PFa 2 get dup mul PFa 3 get dup mul add sqrt def
  0 0 M PFa 5 get rotate PFs -2 div dup translate
  0 1 PFs PFa 4 get div 1 add floor cvi
	{PFa 4 get mul 0 M 0 PFs V} for
  0 PFa 6 get ne {
	0 1 PFs PFa 4 get div 1 add floor cvi
	{PFa 4 get mul 0 2 1 roll M PFs 0 V} for
 } if
  stroke grestore} def
%
/languagelevel where
 {pop languagelevel} {1} ifelse
 2 lt
	{/InterpretLevel1 true def}
	{/InterpretLevel1 Level1 def}
 ifelse
%
% PostScript level 2 pattern fill definitions
%
/Level2PatternFill {
/Tile8x8 {/PaintType 2 /PatternType 1 /TilingType 1 /BBox [0 0 8 8] /XStep 8 /YStep 8}
	bind def
/KeepColor {currentrgbcolor [/Pattern /DeviceRGB] setcolorspace} bind def
<< Tile8x8
 /PaintProc {0.5 setlinewidth pop 0 0 M 8 8 L 0 8 M 8 0 L stroke} 
>> matrix makepattern
/Pat1 exch def
<< Tile8x8
 /PaintProc {0.5 setlinewidth pop 0 0 M 8 8 L 0 8 M 8 0 L stroke
	0 4 M 4 8 L 8 4 L 4 0 L 0 4 L stroke}
>> matrix makepattern
/Pat2 exch def
<< Tile8x8
 /PaintProc {0.5 setlinewidth pop 0 0 M 0 8 L
	8 8 L 8 0 L 0 0 L fill}
>> matrix makepattern
/Pat3 exch def
<< Tile8x8
 /PaintProc {0.5 setlinewidth pop -4 8 M 8 -4 L
	0 12 M 12 0 L stroke}
>> matrix makepattern
/Pat4 exch def
<< Tile8x8
 /PaintProc {0.5 setlinewidth pop -4 0 M 8 12 L
	0 -4 M 12 8 L stroke}
>> matrix makepattern
/Pat5 exch def
<< Tile8x8
 /PaintProc {0.5 setlinewidth pop -2 8 M 4 -4 L
	0 12 M 8 -4 L 4 12 M 10 0 L stroke}
>> matrix makepattern
/Pat6 exch def
<< Tile8x8
 /PaintProc {0.5 setlinewidth pop -2 0 M 4 12 L
	0 -4 M 8 12 L 4 -4 M 10 8 L stroke}
>> matrix makepattern
/Pat7 exch def
<< Tile8x8
 /PaintProc {0.5 setlinewidth pop 8 -2 M -4 4 L
	12 0 M -4 8 L 12 4 M 0 10 L stroke}
>> matrix makepattern
/Pat8 exch def
<< Tile8x8
 /PaintProc {0.5 setlinewidth pop 0 -2 M 12 4 L
	-4 0 M 12 8 L -4 4 M 8 10 L stroke}
>> matrix makepattern
/Pat9 exch def
/Pattern1 {PatternBgnd KeepColor Pat1 setpattern} bind def
/Pattern2 {PatternBgnd KeepColor Pat2 setpattern} bind def
/Pattern3 {PatternBgnd KeepColor Pat3 setpattern} bind def
/Pattern4 {PatternBgnd KeepColor Landscape {Pat5} {Pat4} ifelse setpattern} bind def
/Pattern5 {PatternBgnd KeepColor Landscape {Pat4} {Pat5} ifelse setpattern} bind def
/Pattern6 {PatternBgnd KeepColor Landscape {Pat9} {Pat6} ifelse setpattern} bind def
/Pattern7 {PatternBgnd KeepColor Landscape {Pat8} {Pat7} ifelse setpattern} bind def
} def
%
%
%End of PostScript Level 2 code
%
/PatternBgnd {
  TransparentPatterns {} {gsave 1 setgray fill grestore} ifelse
} def
%
% Substitute for Level 2 pattern fill codes with
% grayscale if Level 2 support is not selected.
%
/Level1PatternFill {
/Pattern1 {0.250 Density} bind def
/Pattern2 {0.500 Density} bind def
/Pattern3 {0.750 Density} bind def
/Pattern4 {0.125 Density} bind def
/Pattern5 {0.375 Density} bind def
/Pattern6 {0.625 Density} bind def
/Pattern7 {0.875 Density} bind def
} def
%
% Now test for support of Level 2 code
%
Level1 {Level1PatternFill} {Level2PatternFill} ifelse
%
/Symbol-Oblique /Symbol findfont [1 0 .167 1 0 0] makefont
dup length dict begin {1 index /FID eq {pop pop} {def} ifelse} forall
currentdict end definefont pop
/MFshow {
   { dup 5 get 3 ge
     { 5 get 3 eq {gsave} {grestore} ifelse }
     {dup dup 0 get findfont exch 1 get scalefont setfont
     [ currentpoint ] exch dup 2 get 0 exch R dup 5 get 2 ne {dup dup 6
     get exch 4 get {show} {stringwidth pop 0 R} ifelse }if dup 5 get 0 eq
     {dup 3 get {2 get neg 0 exch R pop} {pop aload pop M} ifelse} {dup 5
     get 1 eq {dup 2 get exch dup 3 get exch 6 get stringwidth pop -2 div
     dup 0 R} {dup 6 get stringwidth pop -2 div 0 R 6 get
     show 2 index {aload pop M neg 3 -1 roll neg R pop pop} {pop pop pop
     pop aload pop M} ifelse }ifelse }ifelse }
     ifelse }
   forall} bind def
/MFwidth {0 exch { dup 5 get 3 ge { 5 get 3 eq { 0 } { pop } ifelse }
 {dup 3 get{dup dup 0 get findfont exch 1 get scalefont setfont
     6 get stringwidth pop add} {pop} ifelse} ifelse} forall} bind def
/MLshow { currentpoint stroke M
  0 exch R
  Blacktext {gsave 0 setgray MFshow grestore} {MFshow} ifelse } bind def
/MRshow { currentpoint stroke M
  exch dup MFwidth neg 3 -1 roll R
  Blacktext {gsave 0 setgray MFshow grestore} {MFshow} ifelse } bind def
/MCshow { currentpoint stroke M
  exch dup MFwidth -2 div 3 -1 roll R
  Blacktext {gsave 0 setgray MFshow grestore} {MFshow} ifelse } bind def
/XYsave    { [( ) 1 2 true false 3 ()] } bind def
/XYrestore { [( ) 1 2 true false 4 ()] } bind def
end
%%EndProlog
gnudict begin
gsave
50 50 translate
0.050 0.050 scale
0 setgray
newpath
(Helvetica) findfont 140 scalefont setfont
1.000 UL
LTb
3600 4773 M
[ [(Helvetica) 140.0 0.0 true true 0 (t130116)]
] -46.7 MCshow
1.000 UP
1.000 UL
LT0
3598 3475 M
-68 6 V
-3 0 R
-5 0 V
28 -6 R
48 0 V
174 -21 R
-174 21 V
73 -20 R
101 -1 V
176 -28 R
-176 28 V
stroke
LT1
2943 3499 M
7 -1 V
stroke
LT0
3671 3455 M
-78 9 V
253 -40 R
102 2 V
175 -35 R
-175 35 V
74 -45 R
101 10 V
176 -44 R
-176 44 V
-532 73 R
80 -9 V
175 -31 R
-175 31 V
stroke
LT1
2949 3499 M
-6 0 V
stroke
LT0
4197 3328 M
102 19 V
175 -48 R
-175 48 V
-554 85 R
101 -8 V
176 -43 R
-176 43 V
527 -156 R
101 31 V
176 -49 R
-176 49 V
-553 82 R
101 0 V
175 -53 R
-175 53 V
526 -177 R
102 46 V
175 -48 R
-175 48 V
-554 65 R
101 13 V
176 -60 R
-176 60 V
-553 122 R
101 -18 V
-154 32 R
154 -32 V
176 -51 R
-176 51 V
979 -288 R
101 58 V
176 -43 R
-176 43 V
-553 36 R
101 30 V
175 -64 R
-175 64 V
-554 121 R
102 -8 V
175 -66 R
-175 66 V
stroke
LT1
2463 3499 M
-5 -1 V
stroke
LT0
4447 3157 M
101 47 V
176 -60 R
-176 60 V
351 -113 R
102 68 V
175 -36 R
-175 36 V
3995 3306 M
101 9 V
176 -77 R
-176 77 V
527 -235 R
101 64 V
175 -53 R
-175 53 V
3544 3477 M
100 -27 V
175 -61 R
-175 61 V
5075 3048 M
101 75 V
176 -28 R
-176 28 V
-1006 87 R
102 28 V
175 -81 R
-175 81 V
stroke
LT1
2460 3499 M
3 0 V
stroke
LT0
4798 3014 M
101 77 V
176 -43 R
-176 43 V
3718 3403 M
101 -14 V
176 -83 R
-176 83 V
527 -281 R
101 49 V
176 -77 R
-176 77 V
stroke
LT1
2129 3435 M
2 0 V
stroke
LT0
5250 3017 M
102 78 V
175 -21 R
-175 21 V
3894 3303 M
101 3 V
175 -96 R
-175 96 V
526 -295 R
102 69 V
175 -66 R
-175 66 V
351 -117 R
101 85 V
175 -31 R
-175 31 V
stroke
LT1
2762 3573 M
-14 -3 V
stroke
LT0
4069 3183 M
101 27 V
176 -102 R
-176 102 V
5426 2997 M
101 77 V
176 -15 R
-176 15 V
3442 3507 M
102 -30 V
174 -74 R
-174 74 V
4697 2929 M
101 85 V
176 -51 R
-176 51 V
-554 43 R
102 51 V
175 -97 R
-175 97 V
803 -180 R
101 89 V
176 -20 R
-176 20 V
3617 3421 M
101 -18 V
176 -100 R
-176 100 V
702 -465 R
101 73 V
176 -82 R
-176 82 V
351 -144 R
102 96 V
175 -35 R
-175 35 V
627 23 R
102 73 V
175 -11 R
-175 11 V
3792 3301 M
102 2 V
175 -120 R
-175 120 V
stroke
LT1
3442 3507 M
-108 31 V
stroke
LT0
5325 2909 M
101 88 V
175 -11 R
-175 11 V
4595 2837 M
102 92 V
175 -62 R
-175 62 V
-729 228 R
101 26 V
175 -126 R
-175 126 V
979 -355 R
101 100 V
176 -19 R
-176 19 V
-1006 77 R
101 52 V
176 -119 R
-176 119 V
1533 -77 R
101 68 V
176 -10 R
-176 10 V
3341 3536 M
101 -29 V
-277 83 R
277 -83 V
175 -86 R
-175 86 V
4771 2763 M
101 104 V
176 -39 R
-176 39 V
-553 -5 R
101 76 V
175 -101 R
-175 101 V
1080 -35 R
101 83 V
176 -6 R
-176 6 V
1883 3361 M
101 39 V
176 65 R
-176 -65 V
1532 37 R
101 -16 V
175 -120 R
-175 120 V
5223 2811 M
102 98 V
175 -6 R
-175 6 V
4494 2742 M
101 95 V
176 -74 R
-176 74 V
1357 139 R
102 62 V
175 -11 R
-175 11 V
3691 3298 M
101 3 V
176 -144 R
-176 144 V
4946 2720 M
102 108 V
175 -17 R
-175 17 V
3866 3131 M
102 26 V
175 -152 R
-175 152 V
-904 458 R
101 -25 V
176 -54 R
-176 54 V
5675 2903 M
102 77 V
175 -4 R
-175 4 V
4670 2655 M
101 108 V
175 -43 R
-175 43 V
-729 191 R
101 51 V
176 -143 R
-176 143 V
74 -218 R
102 75 V
175 -120 R
-175 120 V
1080 -52 R
101 93 V
175 0 R
-175 0 V
stroke
LT1
2058 3426 M
102 39 V
175 67 R
-175 -67 V
stroke
LT0
6128 2971 M
101 56 V
5122 2703 M
101 108 V
176 -1 R
-176 1 V
3240 3557 M
101 -21 V
175 -99 R
-175 99 V
1781 3311 M
102 50 V
175 65 R
-175 -65 V
4393 2648 M
101 94 V
176 -87 R
-176 87 V
stroke
LT1
2970 3622 M
-32 2 V
stroke
LT0
4845 2606 M
101 114 V
176 -17 R
-176 17 V
905 187 R
101 69 V
176 -5 R
-176 5 V
3415 3447 M
101 -10 V
175 -139 R
-175 139 V
4568 2549 M
102 106 V
175 -49 R
-175 49 V
3591 3291 M
100 7 V
175 -167 R
-175 167 V
5574 2819 M
101 84 V
176 4 R
-176 -4 V
stroke
LT1
2699 3620 M
-27 -4 V
stroke
LT0
3765 3104 M
101 27 V
176 -177 R
-176 177 V
75 -226 R
101 49 V
175 -167 R
-175 167 V
5297 2709 M
102 101 V
175 9 R
-175 -9 V
4116 2717 M
101 70 V
176 -139 R
-176 139 V
2963 3624 M
101 -9 V
176 -58 R
-176 58 V
5021 2592 M
101 111 V
175 6 R
-175 -6 V
2234 3494 M
101 38 V
176 58 R
-176 -58 V
4291 2561 M
102 87 V
175 -99 R
-175 99 V
1957 3372 M
101 54 V
176 68 R
-176 -68 V
6026 2910 M
102 61 V
4744 2496 M
101 110 V
176 -14 R
-176 14 V
1680 3252 M
101 59 V
176 61 R
-176 -61 V
5750 2832 M
101 75 V
175 3 R
-175 -3 V
4467 2453 M
101 96 V
176 -53 R
-176 53 V
3138 3562 M
102 -5 V
175 -110 R
-175 110 V
-554 64 R
101 14 V
176 -11 R
-176 11 V
5473 2727 M
101 92 V
176 13 R
-176 -13 V
5196 2604 M
101 105 V
176 18 R
-176 -18 V
3314 3444 M
101 3 V
176 -156 R
-176 156 V
4919 2483 M
102 109 V
175 12 R
-175 -12 V
3765 3104 M
176 -199 V
-102 -47 R
102 47 V
175 -188 R
-175 188 V
74 -250 R
101 62 V
175 -156 R
-175 156 V
-627 559 R
102 15 V
174 -187 R
-174 187 V
73 -218 R
101 31 V
2409 3551 M
102 39 V
175 31 R
-175 -31 V
4642 2394 M
102 102 V
175 -13 R
-175 13 V
-554 -8 R
101 73 V
176 -108 R
-176 108 V
stroke 4291 2561 M
2132 3436 M
102 58 V
175 57 R
-175 -57 V
5925 2844 M
101 66 V
1856 3305 M
101 67 V
175 64 R
-175 -64 V
1579 3184 M
101 68 V
176 53 R
-176 -53 V
1181 359 R
102 13 V
175 -62 R
-175 62 V
4366 2370 M
101 83 V
175 -59 R
-175 59 V
1181 298 R
102 81 V
175 12 R
-175 -12 V
5372 2633 M
101 94 V
175 24 R
-175 -24 V
5095 2502 M
101 102 V
176 29 R
-176 -29 V
4818 2382 M
101 101 V
176 19 R
-176 -19 V
3037 3547 M
101 15 V
176 -118 R
-176 118 V
-553 20 R
101 39 V
175 -10 R
-175 10 V
4580 2341 M
62 53 V
176 -12 R
-176 12 V
-803 464 R
176 -203 V
-102 -51 R
102 51 V
175 -167 R
-175 167 V
-351 418 R
175 -215 V
-101 -43 R
101 43 V
250 -428 R
101 58 V
176 -118 R
-176 118 V
-978 937 R
102 19 V
175 -168 R
-175 168 V
-1006 46 R
101 61 V
176 31 R
-176 -31 V
3489 3276 M
175 -203 V
-101 -34 R
101 34 V
-276 177 R
101 26 V
-1458 86 R
101 74 V
176 54 R
-176 -54 V
5824 2774 M
101 70 V
1754 3229 M
102 76 V
175 57 R
-175 -57 V
1477 3113 M
102 71 V
175 45 R
-175 -45 V
4297 2328 M
69 42 V
98 -35 R
-98 35 V
115 -41 R
-5 2 V
1071 337 R
101 83 V
176 23 R
-176 -23 V
5270 2540 M
102 93 V
stroke 5372 2633 M
175 35 R
-175 -35 V
4993 2407 M
102 95 V
175 38 R
-175 -38 V
2760 3572 M
101 39 V
176 -64 R
-176 64 V
4784 2354 M
34 28 V
175 25 R
-175 -25 V
2483 3519 M
102 63 V
175 -10 R
-175 10 V
351 -74 R
101 39 V
175 -122 R
-175 122 V
701 -732 R
175 -211 V
-101 -39 R
101 39 V
176 -174 R
-176 174 V
75 -213 R
101 39 V
148 -103 R
-148 103 V
-526 609 R
175 -224 V
-101 -39 R
101 39 V
2207 3409 M
101 81 V
175 29 R
-175 -29 V
1930 3275 M
101 87 V
176 47 R
-176 -47 V
1653 3147 M
101 82 V
176 46 R
-176 -46 V
5723 2702 M
101 72 V
3388 3250 M
175 -211 V
-101 -39 R
101 39 V
-452 347 R
101 39 V
176 -175 R
-176 175 V
1376 3041 M
101 72 V
176 34 R
-176 -34 V
1810 99 R
101 38 V
5446 2586 M
101 82 V
176 34 R
-176 -34 V
5169 2454 M
101 86 V
176 46 R
-176 -46 V
4940 2364 M
53 43 V
176 47 R
-176 -47 V
2659 3508 M
101 64 V
176 -64 R
-176 64 V
2382 3434 M
101 85 V
176 -11 R
-176 11 V
2105 3314 M
102 95 V
175 25 R
-175 -25 V
1828 3182 M
102 93 V
175 39 R
-175 -39 V
904 171 R
102 62 V
175 -122 R
-175 122 V
1552 3064 M
101 83 V
175 35 R
-175 -35 V
3637 2776 M
175 -211 V
-101 -26 R
101 26 V
stroke 3812 2565 M
176 -174 R
-176 174 V
1809 66 R
102 71 V
3886 2372 M
102 19 V
93 -65 R
-93 65 V
-526 609 R
175 -224 V
-101 -34 R
101 34 V
1275 2971 M
101 70 V
176 23 R
-176 -23 V
5344 2511 M
102 75 V
175 45 R
-175 -45 V
5068 2380 M
101 74 V
175 57 R
-175 -57 V
3287 3212 M
175 -212 V
-101 -43 R
101 43 V
-452 328 R
101 58 V
176 -174 R
-176 174 V
74 -226 R
102 52 V
-729 210 R
101 86 V
175 -62 R
-175 62 V
2281 3333 M
101 101 V
176 -12 R
-176 12 V
2004 3211 M
101 103 V
176 19 R
-176 -19 V
1727 3088 M
101 94 V
176 29 R
-176 -29 V
1450 2983 M
102 81 V
175 24 R
-175 -24 V
1181 300 R
101 82 V
176 -118 R
-176 118 V
5520 2564 M
101 67 V
5243 2444 M
101 67 V
176 53 R
-176 -53 V
1174 2905 M
101 66 V
175 12 R
-175 -12 V
5243 2444 M
-175 -64 V
3536 2742 M
175 -203 V
-102 -15 R
102 15 V
175 -167 R
-175 167 V
-350 418 R
175 -215 V
-101 -31 R
101 31 V
4782 2262 M
9 3 V
3785 2369 M
101 3 V
64 -43 R
-64 43 V
-977 882 R
101 74 V
175 -168 R
-175 168 V
175 -168 R
176 -203 V
-102 -46 R
102 46 V
-277 141 R
101 62 V
-729 160 R
102 102 V
175 -58 R
-175 58 V
stroke
LT1
4413 2181 M
101 14 V
175 32 R
-175 -32 V
stroke
LT0
4059 2254 M
3 0 V
2 -1 R
-2 1 V
2179 3223 M
102 110 V
175 -13 R
-175 13 V
1903 3106 M
101 105 V
175 12 R
-175 -12 V
1626 2996 M
101 92 V
176 18 R
-176 -18 V
1349 2908 M
101 75 V
176 13 R
-176 -13 V
1182 283 R
101 98 V
176 -110 R
-176 110 V
stroke
LT1
4136 2201 M
101 -9 V
176 -11 R
-176 11 V
stroke
LT0
5419 2505 M
101 59 V
5165 2403 M
78 41 V
176 61 R
-176 -61 V
1072 2844 M
102 61 V
175 3 R
-175 -3 V
stroke
LT1
4865 2284 M
101 39 V
96 36 R
-96 -36 V
stroke
LT0
2807 3167 M
102 87 V
175 -156 R
-175 156 V
-554 -45 R
101 111 V
176 -54 R
-176 54 V
stroke
LT1
4588 2210 M
101 17 V
176 57 R
-176 -57 V
stroke
LT0
3259 2911 M
176 -200 V
-101 -27 R
101 27 V
174 -187 R
-174 187 V
74 -193 R
100 6 V
176 -155 R
-176 155 V
-626 504 R
101 70 V
175 -187 R
-175 187 V
74 -237 R
101 50 V
2078 3112 M
101 111 V
176 -14 R
-176 14 V
3684 2379 M
101 -10 V
58 -36 R
-58 36 V
1801 3006 M
102 100 V
175 6 R
-175 -6 V
1525 2912 M
101 84 V
175 10 R
-175 -10 V
stroke
LT1
4311 2189 M
102 -8 V
175 29 R
-175 -29 V
stroke
LT0
3968 2257 M
-8 2 V
2530 3160 M
102 106 V
175 -99 R
-175 99 V
1248 2839 M
101 69 V
176 4 R
-176 -4 V
5317 2455 M
102 50 V
2254 3096 M
101 113 V
175 -49 R
-175 49 V
971 2788 M
101 56 V
176 -5 R
-176 5 V
5317 2455 M
-114 -42 V
2706 3073 M
101 94 V
176 -139 R
-176 139 V
stroke
LT1
4764 2264 M
101 20 V
175 67 R
-175 -67 V
stroke
LT0
1977 3004 M
101 108 V
176 -16 R
-176 16 V
stroke
LT1
4035 2226 M
101 -25 V
175 -12 R
-175 12 V
stroke
LT0
2881 2953 M
102 75 V
175 -167 R
-175 167 V
1700 2912 M
101 94 V
176 -2 R
-176 2 V
3057 2810 M
101 51 V
176 -177 R
-176 177 V
74 -203 R
102 26 V
175 -166 R
-175 166 V
stroke
LT1
4487 2214 M
101 -4 V
176 54 R
-176 -54 V
stroke
LT0
1423 2835 M
102 77 V
175 0 R
-175 0 V
3408 2515 M
101 3 V
175 -139 R
-175 139 V
2429 3052 M
101 108 V
176 -87 R
-176 87 V
3583 2395 M
101 -16 V
71 -41 R
-71 41 V
1146 2778 M
102 61 V
175 -4 R
-175 4 V
904 148 R
102 109 V
175 -44 R
-175 44 V
stroke
LT1
4210 2213 M
101 -24 V
176 25 R
-176 -25 V
stroke
LT0
2605 2978 M
101 95 V
175 -120 R
-175 120 V
5216 2416 M
101 39 V
3758 2309 M
101 -29 V
1875 2906 M
102 98 V
175 -17 R
-175 17 V
1146 2778 M
-175 10 V
stroke
LT1
4939 2328 M
101 23 V
176 65 R
-176 -65 V
stroke
LT0
1599 2829 M
101 83 V
175 -6 R
-175 6 V
1080 -34 R
101 75 V
176 -143 R
-176 143 V
stroke
LT1
4662 2261 M
102 3 V
175 64 R
-175 -64 V
stroke
LT0
2956 2758 M
101 52 V
175 -152 R
-175 152 V
-729 138 R
101 104 V
176 -74 R
-176 74 V
1322 2767 M
101 68 V
176 -6 R
-176 6 V
stroke
LT1
3933 2260 M
102 -34 V
-277 83 R
277 -83 V
175 -13 R
-175 13 V
stroke
LT0
3131 2632 M
101 26 V
176 -143 R
-176 143 V
2051 2887 M
101 100 V
176 -39 R
-176 39 V
stroke
LT1
4386 2232 M
101 -18 V
175 47 R
-175 -47 V
stroke
LT0
3306 2514 M
102 1 V
175 -120 R
-175 120 V
1322 2767 M
-176 11 V
1357 109 R
102 91 V
175 -100 R
-175 100 V
1774 2818 M
101 88 V
176 -19 R
-176 19 V
3482 2413 M
101 -18 V
103 -51 R
-103 51 V
stroke
LT1
5115 2389 M
101 27 V
stroke
LT0
1497 2756 M
102 73 V
175 -11 R
-175 11 V
1080 -25 R
101 74 V
176 -120 R
-176 120 V
stroke
LT1
4109 2245 M
101 -32 V
176 19 R
-176 -19 V
stroke
LT0
2226 2853 M
102 95 V
175 -61 R
-175 61 V
stroke
LT1
4838 2318 M
101 10 V
176 61 R
-176 -61 V
-1270 7 R
89 -26 V
175 -49 R
-175 49 V
stroke
LT0
1497 2756 M
-175 11 V
1532 -60 R
102 51 V
175 -126 R
-175 126 V
-1006 40 R
101 89 V
175 -34 R
-175 34 V
stroke
LT1
4561 2270 M
101 -9 V
176 57 R
-176 -57 V
stroke
LT0
3030 2606 M
101 26 V
175 -118 R
-175 118 V
-729 169 R
101 86 V
176 -83 R
-176 83 V
1673 2741 M
101 77 V
176 -20 R
-176 20 V
stroke
LT1
3832 2296 M
101 -36 V
176 -15 R
-176 15 V
stroke
LT0
3205 2510 M
101 4 V
176 -101 R
-176 101 V
stroke
LT1
4284 2257 M
102 -25 V
175 38 R
-175 -38 V
stroke
LT0
1673 2741 M
-176 15 V
628 11 R
101 86 V
176 -52 R
-176 52 V
351 -118 R
102 69 V
175 -97 R
-175 97 V
stroke
LT1
5013 2371 M
102 18 V
stroke
LT0
3381 2427 M
101 -14 V
148 -63 R
-148 63 V
154 -65 R
-4 1 V
1848 2720 M
102 78 V
175 -31 R
-175 31 V
803 -140 R
101 49 V
176 -101 R
-176 101 V
stroke
LT1
4737 2317 M
101 1 V
175 53 R
-175 -53 V
-831 -38 R
102 -35 V
175 12 R
-175 -12 V
stroke
LT0
2301 2725 M
101 76 V
175 -66 R
-175 66 V
stroke
LT1
3832 2296 M
-159 39 V
stroke
LT0
1848 2720 M
-175 21 V
2928 2578 M
102 28 V
175 -96 R
-175 96 V
stroke
LT1
4460 2286 M
101 -16 V
176 47 R
-176 -47 V
stroke
LT0
2024 2692 M
101 75 V
176 -42 R
-176 42 V
351 -96 R
101 64 V
176 -77 R
-176 77 V
527 -233 R
101 8 V
176 -83 R
-176 83 V
stroke
LT1
3731 2327 M
101 -31 V
175 -16 R
-175 16 V
351 -11 R
101 -28 V
176 29 R
-176 -29 V
stroke
LT0
2024 2692 M
-176 28 V
stroke
LT1
4912 2361 M
101 10 V
stroke
LT0
2652 2611 M
101 47 V
175 -80 R
-175 80 V
526 -223 R
102 -8 V
175 -61 R
-175 61 V
2199 2657 M
102 68 V
175 -54 R
-175 54 V
stroke
LT1
4635 2322 M
102 -5 V
175 44 R
-175 -44 V
-831 -7 R
101 -30 V
176 5 R
-176 -5 V
stroke
LT0
2827 2548 M
101 30 V
176 -76 R
-176 76 V
-729 79 R
-175 35 V
3455 2384 M
101 -18 V
65 -15 R
-65 15 V
175 -39 R
-24 5 V
2375 2614 M
101 57 V
176 -60 R
-176 60 V
stroke
LT1
4358 2304 M
102 -18 V
175 36 R
-175 -36 V
stroke
LT0
3003 2488 M
101 14 V
175 -67 R
-175 67 V
-729 112 R
-176 43 V
351 -91 R
102 45 V
175 -63 R
-175 63 V
stroke
LT1
4811 2355 M
101 6 V
3708 2332 M
23 -5 V
-26 5 R
26 -5 V
175 -17 R
-175 17 V
357 -20 R
95 -22 V
175 19 R
-19 -2 V
-57 -7 R
-99 -10 V
stroke
LT0
3178 2435 M
101 0 V
176 -51 R
-176 51 V
stroke
LT1
4534 2327 M
101 -5 V
176 33 R
-176 -33 V
stroke
LT0
2726 2517 M
101 31 V
176 -60 R
-176 60 V
-277 18 R
-175 48 V
stroke
LT1
3850 2321 M
56 -11 V
154 -1 R
-154 1 V
stroke
LT0
3354 2392 M
101 -8 V
168 -33 R
-168 33 V
stroke
LT1
4353 2304 M
5 0 V
176 23 R
-176 -23 V
stroke
LT0
2901 2469 M
102 19 V
175 -53 R
-175 53 V
-277 29 R
-176 49 V
stroke
LT1
4709 2350 M
102 5 V
-1282 7 R
100 -12 V
78 -9 R
-78 9 V
stroke
LT0
3077 2426 M
101 9 V
176 -43 R
-176 43 V
-277 34 R
-175 48 V
stroke
LT1
4490 2329 M
44 -2 V
175 23 R
-175 -23 V
stroke
LT0
3529 2362 M
185 -21 V
stroke
LT1
3980 2324 M
-14 1 V
stroke
LT0
3252 2390 M
102 2 V
175 -30 R
-175 30 V
-277 34 R
-176 43 V
stroke
LT1
4220 2320 M
8 0 V
47 -1 R
-18 -1 V
stroke
LT0
4608 2343 M
101 7 V
-112 -8 R
112 8 V
-1281 12 R
101 0 V
174 -20 R
-174 20 V
-277 28 R
-175 36 V
stroke
LT1
3972 2325 M
8 -1 V
stroke
LT0
3972 2325 M
8 -1 V
-277 18 R
188 -12 V
stroke
LT1
4088 2325 M
-69 -1 V
312 5 R
102 2 V
stroke
LT0
3428 2362 M
-176 28 V
350 -49 R
101 1 V
176 -12 R
-176 12 V
176 -12 R
254 -5 V
374 6 R
101 12 V
-277 -14 R
277 14 V
-1006 -2 R
-174 21 V
350 -36 R
101 4 V
175 -6 R
-175 6 V
351 -10 R
101 9 V
-277 -5 R
277 5 V
176 2 R
-176 -2 V
-553 -3 R
-176 15 V
351 -26 R
101 9 V
176 -4 R
-176 4 V
351 -9 R
102 16 V
-554 -16 R
-175 11 V
351 -21 R
101 15 V
175 -5 R
-175 5 V
-101 -15 R
-176 10 V
351 -21 R
101 21 V
-101 -21 R
-175 11 V
stroke
LTb
/Helvetica findfont 140 scalefont setfont
6402 4416 M
(gx\(x,y\)) Rshow
1.000 UL
LT0
6486 4416 M
399 0 V
stroke
LT1
LTb
6402 4276 M
[ [(Helvetica) 140.0 0.0 true true 0 (     0.6)]
] -46.7 MRshow
LT2
6486 4276 M
399 0 V
2754 1435 M
-15 5 V
102 39 V
26 -1 R
-26 1 V
27 -4 R
-1 3 V
-101 -41 R
102 38 V
-114 -40 R
12 2 V
stroke
LTb
6402 4136 M
[ [(Helvetica) 140.0 0.0 true true 0 (     0.5)]
] -46.7 MRshow
LT3
6486 4136 M
399 0 V
2357 1373 M
-32 17 V
-42 44 V
2 12 V
52 45 V
102 39 V
150 32 V
47 6 V
196 15 V
81 2 V
192 -16 R
-192 16 V
275 -48 R
-83 32 V
110 -48 R
-27 16 V
12 -53 R
15 37 V
-78 -80 R
63 43 V
-164 -82 R
101 39 V
-241 -72 R
140 33 V
-278 -55 R
138 22 V
-214 -25 R
76 3 V
-76 -3 R
-166 0 V
-159 29 V
stroke
LTb
6402 3996 M
[ [(Helvetica) 140.0 0.0 true true 0 (     0.4)]
] -46.7 MRshow
LT4
6486 3996 M
399 0 V
2092 1361 M
-12 8 V
-37 56 V
1 7 V
25 42 V
67 43 V
101 38 V
136 34 V
151 26 V
25 4 V
240 21 V
39 2 V
233 -1 R
-233 1 V
420 -19 R
-187 18 V
321 -56 R
-134 38 V
156 -61 R
-22 23 V
31 -76 R
-9 53 V
8 -55 R
1 2 V
-57 -44 R
56 42 V
-137 -84 R
81 42 V
-183 -80 R
102 38 V
-223 -74 R
121 36 V
-262 -69 R
141 33 V
-146 -33 R
5 0 V
-217 -25 R
212 25 V
-315 -33 R
103 8 V
-103 -8 R
-217 7 V
-164 27 V
-118 44 V
stroke
LTb
6402 3856 M
[ [(Helvetica) 140.0 0.0 true true 0 (     0.3)]
] -46.7 MRshow
LT5
6486 3856 M
399 0 V
2074 1265 M
-14 4 V
-119 34 V
-79 42 V
-15 12 V
-31 46 V
3 32 V
5 18 V
44 46 V
75 42 V
101 39 V
128 35 V
158 31 V
69 10 V
126 17 V
197 17 V
52 3 V
205 6 V
195 -5 R
-195 5 V
218 -6 R
-23 1 V
207 -20 R
-184 19 V
246 -33 R
-62 14 V
144 -34 R
-82 20 V
155 -72 R
-73 52 V
78 -59 R
-5 7 V
-10 -50 R
15 43 V
-62 -89 R
47 46 V
-115 -88 R
68 42 V
-154 -83 R
86 41 V
-188 -79 R
102 38 V
-218 -75 R
116 37 V
-250 -72 R
134 35 V
-290 -66 R
156 31 V
-316 -56 R
160 25 V
-193 -27 R
33 2 V
-272 -14 R
239 12 V
-239 -12 R
-119 6 V
-88 4 V
-166 26 V
stroke
LTb
6402 3716 M
[ [(Helvetica) 140.0 0.0 true true 0 (     0.2)]
] -46.7 MRshow
LT6
6486 3716 M
399 0 V
1560 1384 M
0 42 V
26 -80 R
-26 38 V
48 -58 R
-22 20 V
81 -58 R
-59 38 V
137 -69 R
-78 31 V
116 -45 R
-38 14 V
179 -49 R
-141 35 V
310 -60 R
-169 25 V
369 -38 R
-200 13 V
200 -13 R
122 2 V
126 3 V
138 15 V
188 28 V
37 6 V
113 26 V
130 35 V
119 36 V
110 38 V
101 39 V
93 39 V
83 41 V
72 43 V
45 34 V
8 10 V
15 50 V
-11 34 V
-51 25 V
-52 25 V
-150 31 V
-182 20 V
-210 9 V
-75 0 V
-160 0 R
160 0 V
-339 -8 R
179 8 V
-270 -14 R
91 6 V
-251 -20 R
160 14 V
-325 -34 R
165 20 V
stroke
LTb
6402 3576 M
[ [(Helvetica) 140.0 0.0 true true 0 (     0.1)]
] -46.7 MRshow
LT7
6486 3576 M
399 0 V
1324 1259 M
-71 50 V
84 -58 R
-13 8 V
121 -55 R
-108 47 V
175 -67 R
-67 20 V
130 -40 R
-63 20 V
212 -53 R
-149 33 V
319 -57 R
-170 24 V
365 -39 R
-195 15 V
343 -15 R
-148 0 V
231 -1 R
-83 1 V
83 -1 R
205 16 V
96 10 V
98 16 V
155 32 V
136 34 V
124 36 V
116 37 V
110 37 V
10 4 V
96 35 V
101 38 V
88 36 V
8 3 V
93 40 V
87 41 V
78 41 V
67 43 V
48 46 V
16 27 V
-9 23 V
-41 47 V
-44 15 V
-75 28 V
-157 30 V
-179 20 V
-203 12 V
-109 3 V
-111 2 V
-243 -3 R
243 3 V
-281 -4 R
38 1 V
-267 -12 R
229 11 V
stroke
LTb
6402 3436 M
[ [(Helvetica) 140.0 0.0 true true 0 (-1.39e-16)]
] -46.7 MRshow
LT8
6486 3436 M
399 0 V
2638 989 M
101 39 V
102 38 V
101 39 V
101 39 V
102 38 V
101 39 V
101 39 V
102 38 V
101 39 V
100 39 V
101 38 V
102 39 V
101 38 V
101 39 V
102 39 V
101 38 V
101 39 V
102 39 V
101 38 V
stroke
LTb
6402 3296 M
[ [(Helvetica) 140.0 0.0 true true 0 (    -0.1)]
] -46.7 MRshow
LT0
6486 3296 M
399 0 V
4357 874 M
229 11 V
4319 872 M
38 2 V
-281 -5 R
243 3 V
-243 -3 R
-111 3 V
-109 2 V
-203 12 V
-179 20 V
-157 30 V
-75 28 V
-44 16 V
-41 46 V
-9 24 V
16 27 V
48 45 V
67 43 V
78 42 V
87 40 V
93 40 V
8 4 V
88 35 V
101 39 V
96 35 V
10 3 V
110 37 V
116 37 V
124 36 V
136 34 V
155 32 V
98 17 V
96 10 V
205 15 V
83 0 R
-83 0 V
231 -1 R
-148 1 V
343 -16 R
-195 15 V
365 -39 R
-170 24 V
319 -56 R
-149 32 V
212 -52 R
-63 20 V
130 -40 R
-67 20 V
175 -68 R
-108 48 V
121 -56 R
-13 8 V
84 -57 R
-71 49 V
stroke
LTb
6402 3156 M
[ [(Helvetica) 140.0 0.0 true true 0 (    -0.2)]
] -46.7 MRshow
LT1
6486 3156 M
399 0 V
4728 981 M
165 21 V
4568 967 M
160 14 V
4477 961 M
91 6 V
4298 954 M
179 7 V
-339 -8 R
160 1 V
-160 -1 R
-75 0 V
-210 9 V
-182 20 V
-150 32 V
-52 24 V
-51 26 V
-11 33 V
15 50 V
8 10 V
45 35 V
72 42 V
83 41 V
93 40 V
101 38 V
110 38 V
119 36 V
130 35 V
113 26 V
37 7 V
188 27 V
138 15 V
126 3 V
122 3 V
200 -13 R
-200 13 V
369 -38 R
-169 25 V
310 -61 R
-141 36 V
179 -50 R
-38 14 V
116 -45 R
-78 31 V
137 -69 R
-59 38 V
81 -58 R
-22 20 V
48 -57 R
-26 37 V
26 -79 R
0 42 V
stroke
LTb
6402 3016 M
[ [(Helvetica) 140.0 0.0 true true 0 (    -0.3)]
] -46.7 MRshow
LT2
6486 3016 M
399 0 V
3819 1038 M
-62 15 V
-82 20 V
-73 51 V
-5 8 V
15 42 V
47 46 V
68 43 V
86 40 V
102 39 V
116 37 V
134 34 V
156 32 V
160 24 V
33 3 V
239 12 V
119 -6 R
-119 6 V
207 -11 R
-88 5 V
254 -30 R
-166 25 V
180 -29 R
-14 4 V
133 -39 R
-119 35 V
198 -77 R
-79 42 V
94 -53 R
-15 11 V
46 -57 R
-31 46 V
28 -79 R
3 33 V
-8 -51 R
5 18 V
-49 -64 R
44 46 V
-119 -88 R
75 42 V
-176 -80 R
101 38 V
-229 -74 R
128 36 V
-286 -67 R
158 31 V
-227 -41 R
69 10 V
-195 -27 R
126 17 V
-323 -34 R
197 17 V
-249 -20 R
52 3 V
-257 -9 R
205 6 V
-205 -6 R
-195 6 V
-23 0 V
-184 19 V
stroke
LTb
6402 2876 M
[ [(Helvetica) 140.0 0.0 true true 0 (    -0.4)]
] -46.7 MRshow
LT3
6486 2876 M
399 0 V
3818 1127 M
-22 24 V
-9 53 V
1 1 V
56 43 V
81 41 V
102 39 V
121 36 V
141 32 V
5 1 V
212 24 V
103 8 V
217 -6 R
-217 6 V
381 -33 R
-164 27 V
282 -71 R
-118 44 V
130 -53 R
-12 9 V
49 -65 R
-37 56 V
36 -63 R
1 7 V
-26 -48 R
25 41 V
-92 -84 R
67 43 V
-168 -82 R
101 39 V
-237 -73 R
136 34 V
-287 -60 R
151 26 V
-176 -29 R
25 3 V
-265 -24 R
240 21 V
-279 -23 R
39 2 V
-39 -2 R
-233 0 V
-187 18 V
-134 38 V
stroke
LTb
6402 2736 M
[ [(Helvetica) 140.0 0.0 true true 0 (    -0.5)]
] -46.7 MRshow
LT4
6486 2736 M
399 0 V
4095 1144 M
-83 31 V
-27 16 V
15 37 V
63 44 V
101 38 V
140 34 V
138 21 V
76 3 V
166 0 R
-166 0 V
325 -28 R
-159 28 V
191 -45 R
-32 17 V
74 -61 R
-42 44 V
40 -57 R
2 13 V
-54 -58 R
52 45 V
-154 -83 R
102 38 V
-252 -71 R
150 33 V
-197 -39 R
47 6 V
-243 -20 R
196 14 V
-277 -16 R
81 2 V
-81 -2 R
-192 16 V
stroke
LTb
6402 2596 M
[ [(Helvetica) 140.0 0.0 true true 0 (    -0.6)]
] -46.7 MRshow
LT5
6486 2596 M
399 0 V
4333 1234 M
-1 3 V
102 39 V
12 1 V
15 -4 R
-15 4 V
-87 -43 R
102 39 V
-102 -39 R
-26 0 V
stroke
LTb
4304 777 M
1925 734 V
4304 777 M
971 1201 L
1925 734 V
6229 1511 M
2896 1935 L
971 3529 M
0 -2328 V
2896 2470 M
0 -535 V
6229 3027 M
0 -1516 V
4304 2294 M
0 -1517 V
971 1201 M
49 19 V
stroke
906 1160 M
[ [(Helvetica) 140.0 0.0 true true 0 (-2)]
] -46.7 MCshow
1.000 UL
LTb
1.000 UL
LTb
2847 1916 M
49 19 V
1388 1148 M
49 19 V
stroke
1322 1107 M
[ [(Helvetica) 140.0 0.0 true true 0 (-1.5)]
] -46.7 MCshow
1.000 UL
LTb
1.000 UL
LTb
3264 1863 M
49 19 V
1804 1095 M
49 19 V
stroke
1739 1054 M
[ [(Helvetica) 140.0 0.0 true true 0 (-1)]
] -46.7 MCshow
1.000 UL
LTb
1.000 UL
LTb
3680 1810 M
48 19 V
2221 1042 M
49 19 V
stroke
2156 1001 M
[ [(Helvetica) 140.0 0.0 true true 0 (-0.5)]
] -46.7 MCshow
1.000 UL
LTb
1.000 UL
LTb
4096 1758 M
49 18 V
2638 989 M
49 19 V
stroke
2573 948 M
[ [(Helvetica) 140.0 0.0 true true 0 ( 0)]
] -46.7 MCshow
1.000 UL
LTb
1.000 UL
LTb
4513 1705 M
49 18 V
3055 936 M
49 19 V
stroke
2990 895 M
[ [(Helvetica) 140.0 0.0 true true 0 ( 0.5)]
] -46.7 MCshow
1.000 UL
LTb
1.000 UL
LTb
4930 1652 M
49 18 V
3472 883 M
48 19 V
stroke
3406 842 M
[ [(Helvetica) 140.0 0.0 true true 0 ( 1)]
] -46.7 MCshow
1.000 UL
LTb
1.000 UL
LTb
5347 1599 M
49 18 V
3887 830 M
49 19 V
stroke
3822 789 M
[ [(Helvetica) 140.0 0.0 true true 0 ( 1.5)]
] -46.7 MCshow
1.000 UL
LTb
1.000 UL
LTb
5763 1546 M
49 18 V
4304 777 M
49 19 V
stroke
4239 736 M
[ [(Helvetica) 140.0 0.0 true true 0 ( 2)]
] -46.7 MCshow
1.000 UL
LTb
1.000 UL
LTb
6180 1493 M
49 18 V
stroke
LCb setrgbcolor
2157 806 M
[ [(Helvetica) 140.0 0.0 true true 0 (x)]
] -46.7 MCshow
LTb
1.000 UL
LTb
4304 777 M
-54 7 V
stroke
4377 762 M
[ [(Helvetica) 140.0 0.0 true true 0 (-2)]
] -46.7 MCshow
1.000 UL
LTb
1.000 UL
LTb
1025 1194 M
-54 7 V
4545 869 M
-55 7 V
stroke
4617 854 M
[ [(Helvetica) 140.0 0.0 true true 0 (-1.5)]
] -46.7 MCshow
1.000 UL
LTb
1.000 UL
LTb
1266 1286 M
-54 7 V
4785 961 M
-54 7 V
stroke
4858 945 M
[ [(Helvetica) 140.0 0.0 true true 0 (-1)]
] -46.7 MCshow
1.000 UL
LTb
1.000 UL
LTb
1507 1378 M
-55 7 V
5026 1053 M
-55 7 V
stroke
5099 1037 M
[ [(Helvetica) 140.0 0.0 true true 0 (-0.5)]
] -46.7 MCshow
1.000 UL
LTb
1.000 UL
LTb
1747 1469 M
-54 7 V
5267 1144 M
-55 7 V
stroke
5339 1129 M
[ [(Helvetica) 140.0 0.0 true true 0 ( 0)]
] -46.7 MCshow
1.000 UL
LTb
1.000 UL
LTb
1988 1561 M
-55 7 V
5507 1236 M
-54 7 V
stroke
5580 1221 M
[ [(Helvetica) 140.0 0.0 true true 0 ( 0.5)]
] -46.7 MCshow
1.000 UL
LTb
1.000 UL
LTb
2229 1653 M
-55 7 V
5748 1328 M
-55 7 V
stroke
5821 1312 M
[ [(Helvetica) 140.0 0.0 true true 0 ( 1)]
] -46.7 MCshow
1.000 UL
LTb
1.000 UL
LTb
2469 1745 M
-54 7 V
5988 1420 M
-54 7 V
stroke
6061 1404 M
[ [(Helvetica) 140.0 0.0 true true 0 ( 1.5)]
] -46.7 MCshow
1.000 UL
LTb
1.000 UL
LTb
2710 1836 M
-55 7 V
6229 1511 M
-54 7 V
stroke
6302 1496 M
[ [(Helvetica) 140.0 0.0 true true 0 ( 2)]
] -46.7 MCshow
1.000 UL
LTb
1.000 UL
LTb
2950 1928 M
-54 7 V
stroke
LCb setrgbcolor
6100 1038 M
[ [(Helvetica) 140.0 0.0 true true 0 (y)]
] -46.7 MCshow
LTb
1.000 UL
LTb
1034 1977 M
-63 0 V
stroke
845 1977 M
[ [(Helvetica) 140.0 0.0 true true 0 (-0.8)]
] -46.7 MRshow
1.000 UL
LTb
1.000 UL
LTb
1034 2171 M
-63 0 V
stroke
845 2171 M
[ [(Helvetica) 140.0 0.0 true true 0 (-0.6)]
] -46.7 MRshow
1.000 UL
LTb
1.000 UL
LTb
1034 2365 M
-63 0 V
stroke
845 2365 M
[ [(Helvetica) 140.0 0.0 true true 0 (-0.4)]
] -46.7 MRshow
1.000 UL
LTb
1.000 UL
LTb
1034 2558 M
-63 0 V
stroke
845 2558 M
[ [(Helvetica) 140.0 0.0 true true 0 (-0.2)]
] -46.7 MRshow
1.000 UL
LTb
1.000 UL
LTb
1034 2752 M
-63 0 V
stroke
845 2752 M
[ [(Helvetica) 140.0 0.0 true true 0 ( 0)]
] -46.7 MRshow
1.000 UL
LTb
1.000 UL
LTb
1034 2947 M
-63 0 V
stroke
845 2947 M
[ [(Helvetica) 140.0 0.0 true true 0 ( 0.2)]
] -46.7 MRshow
1.000 UL
LTb
1.000 UL
LTb
1034 3141 M
-63 0 V
stroke
845 3141 M
[ [(Helvetica) 140.0 0.0 true true 0 ( 0.4)]
] -46.7 MRshow
1.000 UL
LTb
1.000 UL
LTb
1034 3335 M
-63 0 V
stroke
845 3335 M
[ [(Helvetica) 140.0 0.0 true true 0 ( 0.6)]
] -46.7 MRshow
1.000 UL
LTb
1.000 UL
LTb
1034 3529 M
-63 0 V
stroke
845 3529 M
[ [(Helvetica) 140.0 0.0 true true 0 ( 0.8)]
] -46.7 MRshow
1.000 UL
LTb
LCb setrgbcolor
305 4258 M
[ [(Helvetica) 140.0 0.0 true true 0 (Function value)]
] -46.7 MCshow
LTb
1.000 UP
stroke
grestore
end
showpage
%%Trailer
%%DocumentFonts: Helvetica
