%!PS-Adobe-2.0 EPSF-2.0
%%Title: fx.eps
%%Creator: gnuplot 4.2 patchlevel 6 
%%CreationDate: Fri May 30 18:08:30 2014
%%DocumentFonts: (atend)
%%BoundingBox: 50 50 410 302
%%EndComments
%%BeginProlog
/gnudict 256 dict def
gnudict begin
%
% The following 6 true/false flags may be edited by hand if required
% The unit line width may also be changed
%
/Color true def
/Blacktext false def
/Solid false def
/Dashlength 1 def
/Landscape false def
/Level1 false def
/Rounded false def
/TransparentPatterns false def
/gnulinewidth 5.000 def
/userlinewidth gnulinewidth def
%
/vshift -46 def
/dl1 {
  10.0 Dashlength mul mul
  Rounded { currentlinewidth 0.75 mul sub dup 0 le { pop 0.01 } if } if
} def
/dl2 {
  10.0 Dashlength mul mul
  Rounded { currentlinewidth 0.75 mul add } if
} def
/hpt_ 31.5 def
/vpt_ 31.5 def
/hpt hpt_ def
/vpt vpt_ def
Level1 {} {
/SDict 10 dict def
systemdict /pdfmark known not {
  userdict /pdfmark systemdict /cleartomark get put
} if
SDict begin [
  /Title (fx.eps)
  /Subject (gnuplot plot)
  /Creator (gnuplot 4.2 patchlevel 6 )
  /Author (ASUKA FUKAWA)
%  /Producer (gnuplot)
%  /Keywords ()
  /CreationDate (Fri May 30 18:08:30 2014)
  /DOCINFO pdfmark
end
} ifelse
%
% Gnuplot Prolog Version 4.2 (August 2006)
%
/M {moveto} bind def
/L {lineto} bind def
/R {rmoveto} bind def
/V {rlineto} bind def
/N {newpath moveto} bind def
/Z {closepath} bind def
/C {setrgbcolor} bind def
/f {rlineto fill} bind def
/vpt2 vpt 2 mul def
/hpt2 hpt 2 mul def
/Lshow {currentpoint stroke M 0 vshift R 
	Blacktext {gsave 0 setgray show grestore} {show} ifelse} def
/Rshow {currentpoint stroke M dup stringwidth pop neg vshift R
	Blacktext {gsave 0 setgray show grestore} {show} ifelse} def
/Cshow {currentpoint stroke M dup stringwidth pop -2 div vshift R 
	Blacktext {gsave 0 setgray show grestore} {show} ifelse} def
/UP {dup vpt_ mul /vpt exch def hpt_ mul /hpt exch def
  /hpt2 hpt 2 mul def /vpt2 vpt 2 mul def} def
/DL {Color {setrgbcolor Solid {pop []} if 0 setdash}
 {pop pop pop 0 setgray Solid {pop []} if 0 setdash} ifelse} def
/BL {stroke userlinewidth 2 mul setlinewidth
	Rounded {1 setlinejoin 1 setlinecap} if} def
/AL {stroke userlinewidth 2 div setlinewidth
	Rounded {1 setlinejoin 1 setlinecap} if} def
/UL {dup gnulinewidth mul /userlinewidth exch def
	dup 1 lt {pop 1} if 10 mul /udl exch def} def
/PL {stroke userlinewidth setlinewidth
	Rounded {1 setlinejoin 1 setlinecap} if} def
% Default Line colors
/LCw {1 1 1} def
/LCb {0 0 0} def
/LCa {0 0 0} def
/LC0 {1 0 0} def
/LC1 {0 1 0} def
/LC2 {0 0 1} def
/LC3 {1 0 1} def
/LC4 {0 1 1} def
/LC5 {1 1 0} def
/LC6 {0 0 0} def
/LC7 {1 0.3 0} def
/LC8 {0.5 0.5 0.5} def
% Default Line Types
/LTw {PL [] 1 setgray} def
/LTb {BL [] LCb DL} def
/LTa {AL [1 udl mul 2 udl mul] 0 setdash LCa setrgbcolor} def
/LT0 {PL [] LC0 DL} def
/LT1 {PL [4 dl1 2 dl2] LC1 DL} def
/LT2 {PL [2 dl1 3 dl2] LC2 DL} def
/LT3 {PL [1 dl1 1.5 dl2] LC3 DL} def
/LT4 {PL [6 dl1 2 dl2 1 dl1 2 dl2] LC4 DL} def
/LT5 {PL [3 dl1 3 dl2 1 dl1 3 dl2] LC5 DL} def
/LT6 {PL [2 dl1 2 dl2 2 dl1 6 dl2] LC6 DL} def
/LT7 {PL [1 dl1 2 dl2 6 dl1 2 dl2 1 dl1 2 dl2] LC7 DL} def
/LT8 {PL [2 dl1 2 dl2 2 dl1 2 dl2 2 dl1 2 dl2 2 dl1 4 dl2] LC8 DL} def
/Pnt {stroke [] 0 setdash gsave 1 setlinecap M 0 0 V stroke grestore} def
/Dia {stroke [] 0 setdash 2 copy vpt add M
  hpt neg vpt neg V hpt vpt neg V
  hpt vpt V hpt neg vpt V closepath stroke
  Pnt} def
/Pls {stroke [] 0 setdash vpt sub M 0 vpt2 V
  currentpoint stroke M
  hpt neg vpt neg R hpt2 0 V stroke
 } def
/Box {stroke [] 0 setdash 2 copy exch hpt sub exch vpt add M
  0 vpt2 neg V hpt2 0 V 0 vpt2 V
  hpt2 neg 0 V closepath stroke
  Pnt} def
/Crs {stroke [] 0 setdash exch hpt sub exch vpt add M
  hpt2 vpt2 neg V currentpoint stroke M
  hpt2 neg 0 R hpt2 vpt2 V stroke} def
/TriU {stroke [] 0 setdash 2 copy vpt 1.12 mul add M
  hpt neg vpt -1.62 mul V
  hpt 2 mul 0 V
  hpt neg vpt 1.62 mul V closepath stroke
  Pnt} def
/Star {2 copy Pls Crs} def
/BoxF {stroke [] 0 setdash exch hpt sub exch vpt add M
  0 vpt2 neg V hpt2 0 V 0 vpt2 V
  hpt2 neg 0 V closepath fill} def
/TriUF {stroke [] 0 setdash vpt 1.12 mul add M
  hpt neg vpt -1.62 mul V
  hpt 2 mul 0 V
  hpt neg vpt 1.62 mul V closepath fill} def
/TriD {stroke [] 0 setdash 2 copy vpt 1.12 mul sub M
  hpt neg vpt 1.62 mul V
  hpt 2 mul 0 V
  hpt neg vpt -1.62 mul V closepath stroke
  Pnt} def
/TriDF {stroke [] 0 setdash vpt 1.12 mul sub M
  hpt neg vpt 1.62 mul V
  hpt 2 mul 0 V
  hpt neg vpt -1.62 mul V closepath fill} def
/DiaF {stroke [] 0 setdash vpt add M
  hpt neg vpt neg V hpt vpt neg V
  hpt vpt V hpt neg vpt V closepath fill} def
/Pent {stroke [] 0 setdash 2 copy gsave
  translate 0 hpt M 4 {72 rotate 0 hpt L} repeat
  closepath stroke grestore Pnt} def
/PentF {stroke [] 0 setdash gsave
  translate 0 hpt M 4 {72 rotate 0 hpt L} repeat
  closepath fill grestore} def
/Circle {stroke [] 0 setdash 2 copy
  hpt 0 360 arc stroke Pnt} def
/CircleF {stroke [] 0 setdash hpt 0 360 arc fill} def
/C0 {BL [] 0 setdash 2 copy moveto vpt 90 450 arc} bind def
/C1 {BL [] 0 setdash 2 copy moveto
	2 copy vpt 0 90 arc closepath fill
	vpt 0 360 arc closepath} bind def
/C2 {BL [] 0 setdash 2 copy moveto
	2 copy vpt 90 180 arc closepath fill
	vpt 0 360 arc closepath} bind def
/C3 {BL [] 0 setdash 2 copy moveto
	2 copy vpt 0 180 arc closepath fill
	vpt 0 360 arc closepath} bind def
/C4 {BL [] 0 setdash 2 copy moveto
	2 copy vpt 180 270 arc closepath fill
	vpt 0 360 arc closepath} bind def
/C5 {BL [] 0 setdash 2 copy moveto
	2 copy vpt 0 90 arc
	2 copy moveto
	2 copy vpt 180 270 arc closepath fill
	vpt 0 360 arc} bind def
/C6 {BL [] 0 setdash 2 copy moveto
	2 copy vpt 90 270 arc closepath fill
	vpt 0 360 arc closepath} bind def
/C7 {BL [] 0 setdash 2 copy moveto
	2 copy vpt 0 270 arc closepath fill
	vpt 0 360 arc closepath} bind def
/C8 {BL [] 0 setdash 2 copy moveto
	2 copy vpt 270 360 arc closepath fill
	vpt 0 360 arc closepath} bind def
/C9 {BL [] 0 setdash 2 copy moveto
	2 copy vpt 270 450 arc closepath fill
	vpt 0 360 arc closepath} bind def
/C10 {BL [] 0 setdash 2 copy 2 copy moveto vpt 270 360 arc closepath fill
	2 copy moveto
	2 copy vpt 90 180 arc closepath fill
	vpt 0 360 arc closepath} bind def
/C11 {BL [] 0 setdash 2 copy moveto
	2 copy vpt 0 180 arc closepath fill
	2 copy moveto
	2 copy vpt 270 360 arc closepath fill
	vpt 0 360 arc closepath} bind def
/C12 {BL [] 0 setdash 2 copy moveto
	2 copy vpt 180 360 arc closepath fill
	vpt 0 360 arc closepath} bind def
/C13 {BL [] 0 setdash 2 copy moveto
	2 copy vpt 0 90 arc closepath fill
	2 copy moveto
	2 copy vpt 180 360 arc closepath fill
	vpt 0 360 arc closepath} bind def
/C14 {BL [] 0 setdash 2 copy moveto
	2 copy vpt 90 360 arc closepath fill
	vpt 0 360 arc} bind def
/C15 {BL [] 0 setdash 2 copy vpt 0 360 arc closepath fill
	vpt 0 360 arc closepath} bind def
/Rec {newpath 4 2 roll moveto 1 index 0 rlineto 0 exch rlineto
	neg 0 rlineto closepath} bind def
/Square {dup Rec} bind def
/Bsquare {vpt sub exch vpt sub exch vpt2 Square} bind def
/S0 {BL [] 0 setdash 2 copy moveto 0 vpt rlineto BL Bsquare} bind def
/S1 {BL [] 0 setdash 2 copy vpt Square fill Bsquare} bind def
/S2 {BL [] 0 setdash 2 copy exch vpt sub exch vpt Square fill Bsquare} bind def
/S3 {BL [] 0 setdash 2 copy exch vpt sub exch vpt2 vpt Rec fill Bsquare} bind def
/S4 {BL [] 0 setdash 2 copy exch vpt sub exch vpt sub vpt Square fill Bsquare} bind def
/S5 {BL [] 0 setdash 2 copy 2 copy vpt Square fill
	exch vpt sub exch vpt sub vpt Square fill Bsquare} bind def
/S6 {BL [] 0 setdash 2 copy exch vpt sub exch vpt sub vpt vpt2 Rec fill Bsquare} bind def
/S7 {BL [] 0 setdash 2 copy exch vpt sub exch vpt sub vpt vpt2 Rec fill
	2 copy vpt Square fill Bsquare} bind def
/S8 {BL [] 0 setdash 2 copy vpt sub vpt Square fill Bsquare} bind def
/S9 {BL [] 0 setdash 2 copy vpt sub vpt vpt2 Rec fill Bsquare} bind def
/S10 {BL [] 0 setdash 2 copy vpt sub vpt Square fill 2 copy exch vpt sub exch vpt Square fill
	Bsquare} bind def
/S11 {BL [] 0 setdash 2 copy vpt sub vpt Square fill 2 copy exch vpt sub exch vpt2 vpt Rec fill
	Bsquare} bind def
/S12 {BL [] 0 setdash 2 copy exch vpt sub exch vpt sub vpt2 vpt Rec fill Bsquare} bind def
/S13 {BL [] 0 setdash 2 copy exch vpt sub exch vpt sub vpt2 vpt Rec fill
	2 copy vpt Square fill Bsquare} bind def
/S14 {BL [] 0 setdash 2 copy exch vpt sub exch vpt sub vpt2 vpt Rec fill
	2 copy exch vpt sub exch vpt Square fill Bsquare} bind def
/S15 {BL [] 0 setdash 2 copy Bsquare fill Bsquare} bind def
/D0 {gsave translate 45 rotate 0 0 S0 stroke grestore} bind def
/D1 {gsave translate 45 rotate 0 0 S1 stroke grestore} bind def
/D2 {gsave translate 45 rotate 0 0 S2 stroke grestore} bind def
/D3 {gsave translate 45 rotate 0 0 S3 stroke grestore} bind def
/D4 {gsave translate 45 rotate 0 0 S4 stroke grestore} bind def
/D5 {gsave translate 45 rotate 0 0 S5 stroke grestore} bind def
/D6 {gsave translate 45 rotate 0 0 S6 stroke grestore} bind def
/D7 {gsave translate 45 rotate 0 0 S7 stroke grestore} bind def
/D8 {gsave translate 45 rotate 0 0 S8 stroke grestore} bind def
/D9 {gsave translate 45 rotate 0 0 S9 stroke grestore} bind def
/D10 {gsave translate 45 rotate 0 0 S10 stroke grestore} bind def
/D11 {gsave translate 45 rotate 0 0 S11 stroke grestore} bind def
/D12 {gsave translate 45 rotate 0 0 S12 stroke grestore} bind def
/D13 {gsave translate 45 rotate 0 0 S13 stroke grestore} bind def
/D14 {gsave translate 45 rotate 0 0 S14 stroke grestore} bind def
/D15 {gsave translate 45 rotate 0 0 S15 stroke grestore} bind def
/DiaE {stroke [] 0 setdash vpt add M
  hpt neg vpt neg V hpt vpt neg V
  hpt vpt V hpt neg vpt V closepath stroke} def
/BoxE {stroke [] 0 setdash exch hpt sub exch vpt add M
  0 vpt2 neg V hpt2 0 V 0 vpt2 V
  hpt2 neg 0 V closepath stroke} def
/TriUE {stroke [] 0 setdash vpt 1.12 mul add M
  hpt neg vpt -1.62 mul V
  hpt 2 mul 0 V
  hpt neg vpt 1.62 mul V closepath stroke} def
/TriDE {stroke [] 0 setdash vpt 1.12 mul sub M
  hpt neg vpt 1.62 mul V
  hpt 2 mul 0 V
  hpt neg vpt -1.62 mul V closepath stroke} def
/PentE {stroke [] 0 setdash gsave
  translate 0 hpt M 4 {72 rotate 0 hpt L} repeat
  closepath stroke grestore} def
/CircE {stroke [] 0 setdash 
  hpt 0 360 arc stroke} def
/Opaque {gsave closepath 1 setgray fill grestore 0 setgray closepath} def
/DiaW {stroke [] 0 setdash vpt add M
  hpt neg vpt neg V hpt vpt neg V
  hpt vpt V hpt neg vpt V Opaque stroke} def
/BoxW {stroke [] 0 setdash exch hpt sub exch vpt add M
  0 vpt2 neg V hpt2 0 V 0 vpt2 V
  hpt2 neg 0 V Opaque stroke} def
/TriUW {stroke [] 0 setdash vpt 1.12 mul add M
  hpt neg vpt -1.62 mul V
  hpt 2 mul 0 V
  hpt neg vpt 1.62 mul V Opaque stroke} def
/TriDW {stroke [] 0 setdash vpt 1.12 mul sub M
  hpt neg vpt 1.62 mul V
  hpt 2 mul 0 V
  hpt neg vpt -1.62 mul V Opaque stroke} def
/PentW {stroke [] 0 setdash gsave
  translate 0 hpt M 4 {72 rotate 0 hpt L} repeat
  Opaque stroke grestore} def
/CircW {stroke [] 0 setdash 
  hpt 0 360 arc Opaque stroke} def
/BoxFill {gsave Rec 1 setgray fill grestore} def
/Density {
  /Fillden exch def
  currentrgbcolor
  /ColB exch def /ColG exch def /ColR exch def
  /ColR ColR Fillden mul Fillden sub 1 add def
  /ColG ColG Fillden mul Fillden sub 1 add def
  /ColB ColB Fillden mul Fillden sub 1 add def
  ColR ColG ColB setrgbcolor} def
/BoxColFill {gsave Rec PolyFill} def
/PolyFill {gsave Density fill grestore grestore} def
/h {rlineto rlineto rlineto gsave closepath fill grestore} bind def
%
% PostScript Level 1 Pattern Fill routine for rectangles
% Usage: x y w h s a XX PatternFill
%	x,y = lower left corner of box to be filled
%	w,h = width and height of box
%	  a = angle in degrees between lines and x-axis
%	 XX = 0/1 for no/yes cross-hatch
%
/PatternFill {gsave /PFa [ 9 2 roll ] def
  PFa 0 get PFa 2 get 2 div add PFa 1 get PFa 3 get 2 div add translate
  PFa 2 get -2 div PFa 3 get -2 div PFa 2 get PFa 3 get Rec
  gsave 1 setgray fill grestore clip
  currentlinewidth 0.5 mul setlinewidth
  /PFs PFa 2 get dup mul PFa 3 get dup mul add sqrt def
  0 0 M PFa 5 get rotate PFs -2 div dup translate
  0 1 PFs PFa 4 get div 1 add floor cvi
	{PFa 4 get mul 0 M 0 PFs V} for
  0 PFa 6 get ne {
	0 1 PFs PFa 4 get div 1 add floor cvi
	{PFa 4 get mul 0 2 1 roll M PFs 0 V} for
 } if
  stroke grestore} def
%
/languagelevel where
 {pop languagelevel} {1} ifelse
 2 lt
	{/InterpretLevel1 true def}
	{/InterpretLevel1 Level1 def}
 ifelse
%
% PostScript level 2 pattern fill definitions
%
/Level2PatternFill {
/Tile8x8 {/PaintType 2 /PatternType 1 /TilingType 1 /BBox [0 0 8 8] /XStep 8 /YStep 8}
	bind def
/KeepColor {currentrgbcolor [/Pattern /DeviceRGB] setcolorspace} bind def
<< Tile8x8
 /PaintProc {0.5 setlinewidth pop 0 0 M 8 8 L 0 8 M 8 0 L stroke} 
>> matrix makepattern
/Pat1 exch def
<< Tile8x8
 /PaintProc {0.5 setlinewidth pop 0 0 M 8 8 L 0 8 M 8 0 L stroke
	0 4 M 4 8 L 8 4 L 4 0 L 0 4 L stroke}
>> matrix makepattern
/Pat2 exch def
<< Tile8x8
 /PaintProc {0.5 setlinewidth pop 0 0 M 0 8 L
	8 8 L 8 0 L 0 0 L fill}
>> matrix makepattern
/Pat3 exch def
<< Tile8x8
 /PaintProc {0.5 setlinewidth pop -4 8 M 8 -4 L
	0 12 M 12 0 L stroke}
>> matrix makepattern
/Pat4 exch def
<< Tile8x8
 /PaintProc {0.5 setlinewidth pop -4 0 M 8 12 L
	0 -4 M 12 8 L stroke}
>> matrix makepattern
/Pat5 exch def
<< Tile8x8
 /PaintProc {0.5 setlinewidth pop -2 8 M 4 -4 L
	0 12 M 8 -4 L 4 12 M 10 0 L stroke}
>> matrix makepattern
/Pat6 exch def
<< Tile8x8
 /PaintProc {0.5 setlinewidth pop -2 0 M 4 12 L
	0 -4 M 8 12 L 4 -4 M 10 8 L stroke}
>> matrix makepattern
/Pat7 exch def
<< Tile8x8
 /PaintProc {0.5 setlinewidth pop 8 -2 M -4 4 L
	12 0 M -4 8 L 12 4 M 0 10 L stroke}
>> matrix makepattern
/Pat8 exch def
<< Tile8x8
 /PaintProc {0.5 setlinewidth pop 0 -2 M 12 4 L
	-4 0 M 12 8 L -4 4 M 8 10 L stroke}
>> matrix makepattern
/Pat9 exch def
/Pattern1 {PatternBgnd KeepColor Pat1 setpattern} bind def
/Pattern2 {PatternBgnd KeepColor Pat2 setpattern} bind def
/Pattern3 {PatternBgnd KeepColor Pat3 setpattern} bind def
/Pattern4 {PatternBgnd KeepColor Landscape {Pat5} {Pat4} ifelse setpattern} bind def
/Pattern5 {PatternBgnd KeepColor Landscape {Pat4} {Pat5} ifelse setpattern} bind def
/Pattern6 {PatternBgnd KeepColor Landscape {Pat9} {Pat6} ifelse setpattern} bind def
/Pattern7 {PatternBgnd KeepColor Landscape {Pat8} {Pat7} ifelse setpattern} bind def
} def
%
%
%End of PostScript Level 2 code
%
/PatternBgnd {
  TransparentPatterns {} {gsave 1 setgray fill grestore} ifelse
} def
%
% Substitute for Level 2 pattern fill codes with
% grayscale if Level 2 support is not selected.
%
/Level1PatternFill {
/Pattern1 {0.250 Density} bind def
/Pattern2 {0.500 Density} bind def
/Pattern3 {0.750 Density} bind def
/Pattern4 {0.125 Density} bind def
/Pattern5 {0.375 Density} bind def
/Pattern6 {0.625 Density} bind def
/Pattern7 {0.875 Density} bind def
} def
%
% Now test for support of Level 2 code
%
Level1 {Level1PatternFill} {Level2PatternFill} ifelse
%
/Symbol-Oblique /Symbol findfont [1 0 .167 1 0 0] makefont
dup length dict begin {1 index /FID eq {pop pop} {def} ifelse} forall
currentdict end definefont pop
/MFshow {
   { dup 5 get 3 ge
     { 5 get 3 eq {gsave} {grestore} ifelse }
     {dup dup 0 get findfont exch 1 get scalefont setfont
     [ currentpoint ] exch dup 2 get 0 exch R dup 5 get 2 ne {dup dup 6
     get exch 4 get {show} {stringwidth pop 0 R} ifelse }if dup 5 get 0 eq
     {dup 3 get {2 get neg 0 exch R pop} {pop aload pop M} ifelse} {dup 5
     get 1 eq {dup 2 get exch dup 3 get exch 6 get stringwidth pop -2 div
     dup 0 R} {dup 6 get stringwidth pop -2 div 0 R 6 get
     show 2 index {aload pop M neg 3 -1 roll neg R pop pop} {pop pop pop
     pop aload pop M} ifelse }ifelse }ifelse }
     ifelse }
   forall} bind def
/MFwidth {0 exch { dup 5 get 3 ge { 5 get 3 eq { 0 } { pop } ifelse }
 {dup 3 get{dup dup 0 get findfont exch 1 get scalefont setfont
     6 get stringwidth pop add} {pop} ifelse} ifelse} forall} bind def
/MLshow { currentpoint stroke M
  0 exch R
  Blacktext {gsave 0 setgray MFshow grestore} {MFshow} ifelse } bind def
/MRshow { currentpoint stroke M
  exch dup MFwidth neg 3 -1 roll R
  Blacktext {gsave 0 setgray MFshow grestore} {MFshow} ifelse } bind def
/MCshow { currentpoint stroke M
  exch dup MFwidth -2 div 3 -1 roll R
  Blacktext {gsave 0 setgray MFshow grestore} {MFshow} ifelse } bind def
/XYsave    { [( ) 1 2 true false 3 ()] } bind def
/XYrestore { [( ) 1 2 true false 4 ()] } bind def
end
%%EndProlog
gnudict begin
gsave
50 50 translate
0.050 0.050 scale
0 setgray
newpath
(Helvetica) findfont 140 scalefont setfont
1.000 UL
LTb
3600 4773 M
[ [(Helvetica) 140.0 0.0 true true 0 (t130178)]
] -46.7 MCshow
1.000 UP
1.000 UL
LT0
3598 3408 M
-68 6 V
19 -6 R
49 0 V
164 -19 R
-164 19 V
69 -19 R
95 0 V
164 -27 R
-164 27 V
stroke
LT1
2984 3430 M
4 -1 V
stroke
LT0
3667 3389 M
-77 8 V
241 -37 R
95 2 V
165 -33 R
-165 33 V
70 -42 R
95 9 V
164 -40 R
-164 40 V
-501 69 R
77 -9 V
164 -29 R
-164 29 V
stroke
LT1
2988 3430 M
-4 0 V
stroke
LT0
4160 3270 M
95 19 V
165 -45 R
-165 45 V
-519 78 R
95 -7 V
165 -40 R
-165 40 V
494 -146 R
95 30 V
164 -47 R
-164 47 V
-519 76 R
95 0 V
164 -50 R
-164 50 V
493 -165 R
95 42 V
165 -45 R
-165 45 V
-519 61 R
95 12 V
165 -56 R
-165 56 V
-519 114 R
95 -17 V
-147 31 R
147 -31 V
165 -47 R
-165 47 V
918 -269 R
95 54 V
164 -40 R
-164 40 V
-519 34 R
95 28 V
164 -59 R
-164 59 V
-519 113 R
95 -7 V
164 -62 R
-164 62 V
stroke
LT1
2535 3430 M
-3 -1 V
stroke
LT0
4394 3110 M
95 45 V
165 -57 R
-165 57 V
329 -107 R
95 64 V
165 -34 R
-165 34 V
-943 138 R
95 8 V
165 -72 R
-165 72 V
494 -220 R
95 60 V
164 -50 R
-164 50 V
3547 3409 M
94 -25 V
165 -57 R
-165 57 V
4983 3008 M
95 70 V
164 -26 R
-164 26 V
-943 81 R
95 27 V
164 -76 R
-164 76 V
stroke
LT1
2533 3430 M
2 0 V
stroke
LT0
4723 2976 M
95 72 V
165 -40 R
-165 40 V
3711 3340 M
95 -13 V
164 -77 R
-164 77 V
493 -263 R
95 46 V
165 -72 R
-165 72 V
753 -130 R
95 72 V
165 -19 R
-165 19 V
3875 3246 M
95 4 V
165 -91 R
-165 91 V
494 -276 R
95 64 V
164 -62 R
-164 62 V
329 -109 R
95 79 V
164 -28 R
-164 28 V
-943 126 R
95 25 V
164 -95 R
-164 95 V
5312 2961 M
95 72 V
164 -14 R
-164 14 V
3452 3437 M
95 -28 V
164 -69 R
-164 69 V
4628 2897 M
95 79 V
165 -47 R
-165 47 V
-519 41 R
95 47 V
165 -90 R
-165 90 V
753 -168 R
95 84 V
165 -19 R
-165 19 V
3616 3356 M
95 -16 V
164 -94 R
-164 94 V
stroke
LT1
2176 3361 M
4 1 V
165 57 R
-6 -2 V
stroke
LT0
4369 2905 M
95 69 V
164 -77 R
-164 77 V
329 -135 R
95 90 V
164 -33 R
-164 33 V
588 21 R
95 69 V
165 -11 R
-165 11 V
3780 3244 M
95 2 V
165 -112 R
-165 112 V
stroke
LT1
3274 3488 M
14 -5 V
164 -46 R
-98 28 V
stroke
LT0
5217 2879 M
95 82 V
164 -11 R
-164 11 V
4533 2811 M
95 86 V
165 -58 R
-165 58 V
-683 213 R
95 24 V
164 -117 R
-164 117 V
917 -331 R
95 93 V
165 -17 R
-165 17 V
-943 72 R
95 49 V
165 -112 R
-165 112 V
1437 -72 R
95 63 V
164 -10 R
-164 10 V
3357 3464 M
95 -27 V
-259 78 R
259 -78 V
164 -81 R
-164 81 V
stroke
LT1
2342 3419 M
3 0 V
stroke
LT0
4698 2742 M
95 97 V
164 -36 R
-164 36 V
-519 -5 R
95 71 V
164 -94 R
-164 94 V
1012 -33 R
95 78 V
165 -5 R
-165 5 V
1990 3301 M
95 36 V
165 60 R
-165 -60 V
1437 35 R
94 -16 V
164 -112 R
-164 112 V
5122 2787 M
95 92 V
164 -7 R
-164 7 V
4438 2722 M
95 89 V
165 -69 R
-165 69 V
1272 130 R
95 57 V
165 -9 R
-165 9 V
3685 3242 M
95 2 V
165 -134 R
-165 134 V
4862 2701 M
95 102 V
165 -16 R
-165 16 V
3098 3538 M
95 -23 V
164 -51 R
-164 51 V
657 -429 R
95 24 V
164 -142 R
-164 142 V
5546 2873 M
95 72 V
164 -4 R
-164 4 V
4014 2920 M
95 48 V
165 -134 R
-165 134 V
494 -326 R
95 100 V
164 -41 R
-164 41 V
-519 22 R
95 70 V
164 -112 R
-164 112 V
1012 -49 R
95 87 V
165 1 R
-165 -1 V
stroke
LT1
2155 3361 M
95 36 V
164 63 R
-164 -63 V
stroke
LT0
5970 2936 M
95 53 V
3262 3483 M
95 -19 V
165 -92 R
-165 92 V
1895 3254 M
95 47 V
165 60 R
-165 -60 V
5027 2686 M
95 101 V
164 -2 R
-164 2 V
4343 2635 M
95 87 V
165 -80 R
-165 80 V
stroke
LT1
3008 3544 M
-26 1 V
stroke
LT0
4767 2596 M
95 105 V
165 -15 R
-165 15 V
848 175 R
95 65 V
165 -5 R
-165 5 V
3427 3380 M
95 -8 V
163 -130 R
-163 130 V
986 -830 R
95 100 V
164 -46 R
-164 46 V
3591 3235 M
94 7 V
165 -156 R
-165 156 V
5451 2794 M
95 79 V
164 3 R
-164 -3 V
stroke
LT1
2755 3542 M
-24 -4 V
stroke
LT0
3755 3060 M
95 26 V
164 -166 R
-164 166 V
69 -212 R
95 46 V
165 -156 R
-165 156 V
5191 2691 M
95 94 V
165 9 R
-165 -9 V
4084 2699 M
95 65 V
164 -129 R
-164 129 V
3003 3546 M
95 -8 V
164 -55 R
-164 55 V
2319 3424 M
95 36 V
165 53 R
-165 -53 V
4932 2582 M
95 104 V
164 5 R
-164 -5 V
2060 3311 M
95 50 V
164 63 R
-164 -63 V
4248 2553 M
95 82 V
165 -93 R
-165 93 V
1532 244 R
95 57 V
4672 2493 M
95 103 V
165 -14 R
-165 14 V
1800 3198 M
95 56 V
165 57 R
-165 -57 V
5615 2806 M
95 70 V
165 3 R
-165 -3 V
3167 3488 M
95 -5 V
165 -103 R
-165 103 V
4413 2452 M
95 90 V
164 -49 R
-164 49 V
2743 3543 M
95 13 V
165 -10 R
-165 10 V
5356 2709 M
95 85 V
164 12 R
-164 -12 V
5096 2593 M
95 98 V
165 18 R
-165 -18 V
3332 3378 M
95 2 V
164 -145 R
-164 145 V
4837 2480 M
95 102 V
164 11 R
-164 -11 V
3755 3060 M
164 -186 V
-95 -44 R
95 44 V
165 -175 R
-165 175 V
-423 347 R
95 14 V
164 -175 R
-164 175 V
398 -594 R
95 58 V
164 -146 R
-164 146 V
-424 332 R
95 29 V
2484 3477 M
95 36 V
164 30 R
-164 -30 V
4577 2397 M
95 96 V
165 -13 R
-165 13 V
-519 -8 R
95 68 V
165 -101 R
-165 101 V
stroke 4248 2553 M
2224 3370 M
95 54 V
165 53 R
-165 -53 V
5780 2817 M
95 62 V
1965 3248 M
95 63 V
164 59 R
-164 -59 V
1705 3135 M
95 63 V
165 50 R
-165 -50 V
1108 335 R
95 13 V
164 -58 R
-164 58 V
4318 2375 M
95 77 V
164 -55 R
-164 55 V
1107 279 R
95 75 V
165 11 R
-165 -11 V
5261 2620 M
95 89 V
164 22 R
-164 -22 V
5001 2498 M
95 95 V
165 27 R
-165 -27 V
4742 2386 M
95 94 V
164 18 R
-164 -18 V
3072 3473 M
95 15 V
165 -110 R
-165 110 V
-519 18 R
95 37 V
165 -10 R
-165 10 V
4516 2346 M
61 51 V
165 -11 R
-165 11 V
-753 433 R
165 -189 V
-95 -48 R
95 48 V
164 -156 R
-164 156 V
-329 390 R
164 -201 V
-95 -40 R
95 40 V
234 -399 R
95 54 V
165 -110 R
-165 110 V
-916 874 R
95 19 V
164 -157 R
-164 157 V
-943 42 R
95 57 V
164 29 R
-164 -29 V
3496 3221 M
164 -190 V
-94 -32 R
94 32 V
-259 165 R
95 25 V
-1367 79 R
95 70 V
165 50 R
-165 -50 V
1870 3176 M
95 72 V
164 52 R
-164 -52 V
5685 2752 M
95 65 V
1610 3068 M
95 67 V
165 41 R
-165 -41 V
4250 2333 M
68 42 V
97 -34 R
-97 34 V
114 -40 R
-5 1 V
998 317 R
95 78 V
165 21 R
-165 -21 V
5166 2533 M
95 87 V
stroke 5261 2620 M
164 33 R
-164 -33 V
2813 3497 M
95 36 V
164 -60 R
-164 60 V
4906 2409 M
95 89 V
165 35 R
-165 -35 V
4708 2358 M
34 28 V
164 23 R
-164 -23 V
2553 3447 M
95 59 V
165 -9 R
-165 9 V
329 -69 R
95 36 V
165 -114 R
-165 114 V
657 -683 R
165 -197 V
-95 -37 R
95 37 V
164 -162 R
-164 162 V
69 -199 R
95 37 V
142 -99 R
-142 99 V
2294 3345 M
95 75 V
164 27 R
-164 -27 V
3566 2999 M
163 -209 V
-95 -36 R
95 36 V
2034 3220 M
95 80 V
165 45 R
-165 -45 V
1775 3100 M
95 76 V
164 44 R
-164 -44 V
5590 2684 M
95 68 V
3401 3196 M
165 -197 V
-95 -36 R
95 36 V
-424 324 R
95 36 V
164 -163 R
-164 163 V
1515 3001 M
95 67 V
165 32 R
-165 -32 V
1696 92 R
95 36 V
5330 2576 M
95 77 V
165 31 R
-165 -31 V
5071 2453 M
95 80 V
164 43 R
-164 -43 V
4854 2368 M
52 41 V
165 44 R
-165 -44 V
-138 -82 R
-12 -2 V
2718 3437 M
95 60 V
164 -60 R
-164 60 V
4392 2257 M
-5 0 V
2458 3368 M
95 79 V
165 -10 R
-165 10 V
2199 3256 M
95 89 V
164 23 R
-164 -23 V
1939 3133 M
95 87 V
165 36 R
-165 -36 V
848 159 R
95 58 V
165 -114 R
-165 114 V
1680 3022 M
95 78 V
164 33 R
-164 -33 V
stroke 1775 3100 M
3634 2754 M
165 -198 V
-95 -24 R
95 24 V
164 -162 R
-164 162 V
1696 62 R
95 66 V
3868 2376 M
95 18 V
90 -62 R
-90 62 V
-492 569 R
163 -209 V
-94 -33 R
94 33 V
1420 2936 M
95 65 V
165 21 R
-165 -21 V
5235 2506 M
95 70 V
165 42 R
-165 -42 V
4976 2384 M
95 69 V
164 53 R
-164 -53 V
3306 3160 M
165 -197 V
-95 -40 R
95 40 V
-424 306 R
95 54 V
164 -163 R
-164 163 V
69 -211 R
95 48 V
-683 197 R
95 80 V
164 -58 R
-164 58 V
2363 3273 M
95 95 V
165 -11 R
-165 11 V
2104 3159 M
95 97 V
164 17 R
-164 -17 V
1844 3044 M
95 89 V
165 26 R
-165 -26 V
1585 2947 M
95 75 V
164 22 R
-164 -22 V
1107 280 R
95 77 V
165 -110 R
-165 110 V
5400 2555 M
95 63 V
1325 2874 M
95 62 V
165 11 R
-165 -11 V
5140 2443 M
95 63 V
165 49 R
-165 -49 V
-95 -63 R
-164 -59 V
3540 2721 M
164 -189 V
-95 -13 R
95 13 V
164 -156 R
-164 156 V
-328 391 R
164 -202 V
-95 -28 R
95 28 V
4706 2273 M
10 4 V
-943 96 R
95 3 V
63 -42 R
-63 42 V
-916 823 R
95 70 V
164 -157 R
-164 157 V
164 -157 R
165 -189 V
-95 -44 R
95 44 V
-260 131 R
95 58 V
-683 149 R
95 96 V
164 -55 R
-164 55 V
stroke 2623 3357 M
stroke
LT1
4362 2198 M
95 13 V
164 29 R
-164 -29 V
stroke
LT0
4024 2267 M
9 -1 V
6 -2 R
-6 2 V
2268 3171 M
95 102 V
165 -12 R
-165 12 V
2009 3062 M
95 97 V
164 12 R
-164 -12 V
1749 2959 M
95 85 V
165 18 R
-165 -18 V
1490 2876 M
95 71 V
164 12 R
-164 -12 V
1107 263 R
95 92 V
165 -103 R
-165 103 V
stroke
LT1
4102 2216 M
95 -8 V
165 -10 R
-165 10 V
stroke
LT0
5305 2500 M
95 55 V
5066 2404 M
74 39 V
165 57 R
-165 -57 V
1230 2817 M
95 57 V
165 2 R
-165 -2 V
stroke
LT1
4786 2294 M
95 36 V
74 28 R
-74 -28 V
stroke
LT0
2857 3118 M
95 81 V
164 -145 R
-164 145 V
-519 -42 R
95 104 V
164 -51 R
-164 51 V
stroke
LT1
4526 2225 M
95 15 V
165 54 R
-165 -54 V
stroke
LT0
3281 2879 M
164 -186 V
-95 -26 R
95 26 V
164 -174 R
-164 174 V
-424 295 R
95 66 V
165 -175 R
-165 175 V
399 -542 R
94 7 V
164 -146 R
-164 146 V
-423 313 R
95 47 V
2173 3066 M
95 105 V
165 -14 R
-165 14 V
3678 2382 M
95 -9 V
57 -35 R
-57 35 V
1914 2967 M
95 95 V
164 4 R
-164 -4 V
1654 2880 M
95 79 V
165 8 R
-165 -8 V
stroke
LT1
4267 2205 M
95 -7 V
164 27 R
-164 -27 V
stroke
LT0
2597 3111 M
95 99 V
165 -92 R
-165 92 V
3947 2268 M
-9 3 V
1395 2812 M
95 64 V
164 4 R
-164 -4 V
5210 2453 M
95 47 V
2338 3051 M
95 106 V
164 -46 R
-164 46 V
1135 2764 M
95 53 V
165 -5 R
-165 5 V
1532 213 R
95 88 V
164 -130 R
-164 130 V
5210 2453 M
-110 -40 V
2078 2966 M
95 100 V
165 -15 R
-165 15 V
stroke
LT1
4691 2275 M
95 19 V
164 63 R
-164 -63 V
-779 -55 R
95 -23 V
165 -11 R
-165 11 V
stroke
LT0
2926 2918 M
95 70 V
165 -156 R
-165 156 V
1819 2880 M
95 87 V
164 -1 R
-164 1 V
3091 2784 M
95 48 V
164 -165 R
-164 165 V
69 -190 R
95 25 V
165 -155 R
-165 155 V
stroke
LT1
4431 2228 M
95 -3 V
165 50 R
-165 -50 V
stroke
LT0
1559 2808 M
95 72 V
165 0 R
-165 0 V
3420 2509 M
95 3 V
163 -130 R
-163 130 V
2502 3010 M
95 101 V
165 -81 R
-165 81 V
987 -714 R
94 -15 V
70 -39 R
-70 39 V
1300 2754 M
95 58 V
164 -4 R
-164 4 V
848 138 R
95 101 V
164 -41 R
-164 41 V
stroke
LT1
4172 2227 M
95 -22 V
164 23 R
-164 -23 V
stroke
LT0
2667 2942 M
95 88 V
164 -112 R
-164 112 V
1983 2874 M
95 92 V
165 -16 R
-165 16 V
5115 2417 M
95 36 V
3748 2317 M
95 -27 V
1300 2754 M
-165 10 V
stroke
LT1
4855 2335 M
95 22 V
165 60 R
-165 -60 V
stroke
LT0
1724 2802 M
95 78 V
164 -6 R
-164 6 V
1012 -32 R
95 70 V
165 -134 R
-165 134 V
stroke
LT1
4596 2272 M
95 3 V
164 60 R
-164 -60 V
stroke
LT0
2407 2913 M
95 97 V
165 -68 R
-165 68 V
494 -274 R
95 48 V
164 -142 R
-164 142 V
1464 2745 M
95 63 V
165 -6 R
-165 6 V
3160 2618 M
95 24 V
165 -133 R
-165 133 V
stroke
LT1
3912 2271 M
95 -32 V
-259 78 R
259 -78 V
165 -12 R
-165 12 V
stroke
LT0
2148 2856 M
95 94 V
164 -37 R
-164 37 V
stroke
LT1
4336 2244 M
95 -16 V
165 44 R
-165 -44 V
stroke
LT0
3325 2508 M
95 1 V
164 -112 R
-164 112 V
1464 2745 M
-164 9 V
1272 102 R
95 86 V
164 -94 R
-164 94 V
1888 2792 M
95 82 V
165 -18 R
-165 18 V
3489 2414 M
95 -17 V
99 -48 R
-99 48 V
stroke
LT1
5020 2391 M
95 26 V
stroke
LT0
1629 2734 M
95 68 V
164 -10 R
-164 10 V
1012 -23 R
95 69 V
165 -112 R
-165 112 V
stroke
LT1
4077 2257 M
95 -30 V
164 17 R
-164 -17 V
stroke
LT0
2312 2824 M
95 89 V
165 -57 R
-165 57 V
stroke
LT1
4760 2325 M
95 10 V
165 56 R
-165 -56 V
-1186 5 R
79 -23 V
164 -46 R
-164 46 V
stroke
LT0
1629 2734 M
-165 11 V
1437 -56 R
95 47 V
164 -118 R
-164 118 V
-943 37 R
95 83 V
164 -32 R
-164 32 V
stroke
LT1
4501 2281 M
95 -9 V
164 53 R
-164 -53 V
stroke
LT0
3065 2593 M
95 25 V
165 -110 R
-165 110 V
-683 158 R
95 80 V
164 -77 R
-164 77 V
1793 2720 M
95 72 V
165 -19 R
-165 19 V
stroke
LT1
3817 2304 M
95 -33 V
165 -14 R
-165 14 V
stroke
LT0
3230 2504 M
95 4 V
164 -94 R
-164 94 V
stroke
LT1
4241 2268 M
95 -24 V
165 37 R
-165 -37 V
stroke
LT0
1793 2720 M
-164 14 V
588 10 R
95 80 V
165 -48 R
-165 48 V
329 -110 R
95 65 V
165 -90 R
-165 90 V
stroke
LT1
4925 2375 M
95 16 V
stroke
LT0
3394 2427 M
95 -13 V
142 -60 R
-142 60 V
146 -61 R
-3 1 V
1958 2700 M
95 73 V
164 -29 R
-164 29 V
753 -131 R
95 47 V
164 -96 R
-164 96 V
stroke
LT1
4665 2324 M
95 1 V
165 50 R
-165 -50 V
-778 -36 R
95 -32 V
164 11 R
-164 -11 V
stroke
LT0
2382 2704 M
95 72 V
164 -62 R
-164 62 V
stroke
LT1
3648 2346 M
5 -1 V
164 -41 R
-142 36 V
stroke
LT0
1958 2700 M
-165 20 V
2970 2567 M
95 26 V
165 -89 R
-165 89 V
stroke
LT1
4406 2295 M
95 -14 V
164 43 R
-164 -43 V
stroke
LT0
2122 2674 M
95 70 V
165 -40 R
-165 40 V
329 -89 R
95 59 V
165 -72 R
-165 72 V
494 -218 R
95 8 V
164 -77 R
-164 77 V
stroke
LT1
3722 2333 M
95 -29 V
165 -15 R
-165 15 V
329 -10 R
95 -26 V
165 27 R
-165 -27 V
stroke
LT0
2122 2674 M
-164 26 V
stroke
LT1
4830 2365 M
95 10 V
stroke
LT0
2711 2598 M
95 44 V
164 -75 R
-164 75 V
493 -208 R
95 -7 V
165 -58 R
-165 58 V
2287 2641 M
95 63 V
164 -49 R
-164 49 V
stroke
LT1
4570 2328 M
95 -4 V
165 41 R
-165 -41 V
-778 -7 R
95 -28 V
164 5 R
-164 -5 V
stroke
LT0
2875 2539 M
95 28 V
165 -71 R
-165 71 V
-683 74 R
-165 33 V
3464 2386 M
95 -17 V
64 -14 R
-64 14 V
163 -36 R
-16 4 V
2451 2600 M
95 55 V
165 -57 R
-165 57 V
stroke
LT1
4311 2311 M
95 -16 V
164 33 R
-164 -33 V
stroke
LT0
3040 2483 M
95 13 V
164 -62 R
-164 62 V
-684 104 R
-164 41 V
329 -85 R
95 42 V
164 -59 R
-164 59 V
stroke
LT1
4735 2359 M
95 6 V
3706 2337 M
16 -4 V
-18 4 R
18 -4 V
165 -16 R
-165 16 V
339 -20 R
85 -19 V
165 17 R
-10 -1 V
-67 -7 R
-88 -9 V
stroke
LT0
3204 2434 M
95 0 V
165 -48 R
-165 48 V
stroke
LT1
4475 2333 M
95 -5 V
165 31 R
-165 -31 V
stroke
LT0
2780 2510 M
95 29 V
165 -56 R
-165 56 V
-259 17 R
-165 44 V
stroke
LT1
3838 2327 M
49 -10 V
131 -1 R
-131 1 V
stroke
LT0
3369 2394 M
95 -8 V
159 -31 R
-159 31 V
stroke
LT1
4308 2312 M
3 -1 V
164 22 R
-164 -22 V
stroke
LT0
2945 2465 M
95 18 V
164 -49 R
-164 49 V
-260 27 R
-164 46 V
stroke
LT1
4640 2354 M
95 5 V
-1202 6 R
94 -11 V
79 -8 R
-79 8 V
stroke
LT0
3109 2425 M
95 9 V
165 -40 R
-165 40 V
-259 31 R
-165 45 V
stroke
LT1
4436 2334 M
39 -1 V
165 21 R
-165 -21 V
stroke
LT0
3533 2365 M
177 -19 V
-436 45 R
95 3 V
164 -29 R
-164 29 V
-260 31 R
-164 40 V
stroke
LT1
4228 2325 M
-12 -1 V
stroke
LT0
4545 2347 M
95 7 V
-113 -8 R
113 8 V
-1202 11 R
95 0 V
164 -19 R
-164 19 V
-259 26 R
-165 34 V
588 -79 R
175 -11 V
stroke
LT1
4010 2330 M
-54 0 V
330 4 R
94 2 V
stroke
LT0
4265 2334 M
23 0 V
-850 31 R
-164 26 V
328 -45 R
95 0 V
164 -10 R
-164 10 V
164 -10 R
243 -5 V
346 6 R
95 10 V
-259 -13 R
259 13 V
-943 -1 R
-164 19 V
329 -33 R
94 4 V
165 -6 R
-165 6 V
330 -10 R
95 8 V
-260 -4 R
260 4 V
164 3 R
-164 -3 V
-519 -2 R
-165 14 V
329 -25 R
95 9 V
165 -4 R
-165 4 V
329 -9 R
95 16 V
-519 -16 R
-164 11 V
329 -21 R
95 15 V
164 -5 R
-164 5 V
-95 -15 R
-165 10 V
329 -19 R
95 19 V
-95 -19 R
-164 9 V
stroke
LTb
/Helvetica findfont 140 scalefont setfont
6402 4416 M
(gx\(x,y\)) Rshow
1.000 UL
LT0
6486 4416 M
399 0 V
stroke
LT1
LTb
6402 4276 M
[ [(Helvetica) 140.0 0.0 true true 0 (     0.6)]
] -46.7 MRshow
LT2
6486 4276 M
399 0 V
2807 1503 M
-14 4 V
95 37 V
25 -1 R
-25 1 V
25 -4 R
0 3 V
-95 -39 R
95 36 V
-106 -37 R
11 1 V
stroke
LTb
6402 4136 M
[ [(Helvetica) 140.0 0.0 true true 0 (     0.5)]
] -46.7 MRshow
LT3
6486 4136 M
399 0 V
2435 1445 M
-30 15 V
-39 42 V
1 11 V
49 42 V
95 37 V
141 30 V
45 6 V
183 13 V
76 2 V
180 -15 R
-180 15 V
258 -44 R
-78 29 V
103 -44 R
-25 15 V
11 -50 R
14 35 V
-73 -76 R
59 41 V
-154 -77 R
95 36 V
-226 -67 R
131 31 V
-261 -52 R
130 21 V
-201 -23 R
71 2 V
-71 -2 R
-155 0 V
-149 27 V
stroke
LTb
6402 3996 M
[ [(Helvetica) 140.0 0.0 true true 0 (     0.4)]
] -46.7 MRshow
LT4
6486 3996 M
399 0 V
2186 1433 M
-11 8 V
-35 53 V
2 6 V
23 39 V
63 40 V
95 37 V
127 32 V
142 24 V
23 3 V
225 20 V
36 2 V
219 -1 R
-219 1 V
394 -18 R
-175 17 V
301 -52 R
-126 35 V
146 -58 R
-20 23 V
29 -72 R
-9 49 V
8 -50 R
1 1 V
-54 -41 R
53 40 V
-129 -79 R
76 39 V
-171 -75 R
95 36 V
-209 -70 R
114 34 V
-246 -64 R
132 30 V
-136 -31 R
4 1 V
-203 -24 R
199 23 V
-296 -30 R
97 7 V
-97 -7 R
-204 6 V
-153 25 V
-111 41 V
stroke
LTb
6402 3856 M
[ [(Helvetica) 140.0 0.0 true true 0 (     0.3)]
] -46.7 MRshow
LT5
6486 3856 M
399 0 V
2169 1343 M
-13 4 V
-112 32 V
-73 40 V
-15 10 V
-29 44 V
3 30 V
5 17 V
42 43 V
70 39 V
95 37 V
120 33 V
148 29 V
64 9 V
118 16 V
185 16 V
49 3 V
192 5 V
183 -5 R
-183 5 V
204 -5 R
-21 0 V
194 -18 R
-173 18 V
230 -32 R
-57 14 V
135 -32 R
-78 18 V
146 -66 R
-68 48 V
73 -56 R
-5 8 V
-9 -48 R
14 40 V
-58 -82 R
44 42 V
-108 -82 R
64 40 V
-145 -78 R
81 38 V
-176 -75 R
95 37 V
-204 -71 R
109 34 V
-235 -66 R
126 32 V
-272 -62 R
146 30 V
-296 -53 R
150 23 V
-181 -25 R
31 2 V
-255 -14 R
224 12 V
-224 -12 R
-111 6 V
-83 4 V
-156 24 V
stroke
LTb
6402 3716 M
[ [(Helvetica) 140.0 0.0 true true 0 (     0.2)]
] -46.7 MRshow
LT6
6486 3716 M
399 0 V
1688 1455 M
-1 39 V
25 -74 R
-24 35 V
45 -54 R
-21 19 V
76 -55 R
-55 36 V
128 -65 R
-73 29 V
108 -42 R
-35 13 V
168 -46 R
-133 33 V
291 -57 R
-158 24 V
346 -36 R
-188 12 V
188 -12 R
114 2 V
118 3 V
130 14 V
176 26 V
34 6 V
106 25 V
123 32 V
111 34 V
103 36 V
95 36 V
87 37 V
78 38 V
67 40 V
42 32 V
8 10 V
14 47 V
-11 31 V
-47 24 V
-49 23 V
-141 30 V
-171 18 V
-196 9 V
-70 0 V
-151 0 R
151 0 V
-318 -8 R
167 8 V
-252 -13 R
85 5 V
-235 -18 R
150 13 V
-305 -33 R
155 20 V
stroke
LTb
6402 3576 M
[ [(Helvetica) 140.0 0.0 true true 0 (     0.1)]
] -46.7 MRshow
LT7
6486 3576 M
399 0 V
1466 1338 M
-66 46 V
78 -53 R
-12 7 V
114 -52 R
-102 45 V
165 -64 R
-63 19 V
122 -37 R
-59 18 V
198 -49 R
-139 31 V
299 -54 R
-160 23 V
342 -37 R
-182 14 V
321 -14 R
-139 0 V
217 -1 R
-78 1 V
78 -1 R
192 15 V
91 9 V
91 16 V
146 30 V
127 32 V
117 34 V
108 34 V
103 35 V
9 3 V
90 33 V
95 36 V
82 33 V
8 4 V
87 37 V
81 38 V
74 39 V
62 40 V
45 43 V
16 25 V
-8 22 V
-39 44 V
-41 15 V
-71 26 V
-146 28 V
-169 19 V
-190 11 V
-103 2 V
-104 3 V
-227 -3 R
227 3 V
-262 -5 R
35 2 V
-250 -12 R
215 10 V
stroke
LTb
6402 3436 M
[ [(Helvetica) 140.0 0.0 true true 0 (-1.39e-16)]
] -46.7 MRshow
LT8
6486 3436 M
399 0 V
2698 1085 M
95 36 V
95 36 V
95 37 V
95 36 V
95 36 V
95 36 V
95 36 V
95 37 V
95 36 V
94 36 V
95 36 V
95 37 V
95 36 V
95 36 V
95 36 V
95 36 V
95 37 V
95 36 V
95 36 V
stroke
LTb
6402 3296 M
[ [(Helvetica) 140.0 0.0 true true 0 (    -0.1)]
] -46.7 MRshow
LT0
6486 3296 M
399 0 V
4309 977 M
215 10 V
4274 975 M
35 2 V
-262 -5 R
227 3 V
-227 -3 R
-104 3 V
-103 2 V
-190 11 V
-169 19 V
-146 28 V
-71 26 V
-41 15 V
-39 44 V
-8 22 V
16 25 V
45 43 V
62 40 V
74 39 V
81 38 V
87 37 V
8 3 V
82 34 V
95 36 V
90 33 V
9 3 V
103 35 V
108 34 V
117 34 V
127 32 V
146 30 V
91 16 V
91 9 V
192 15 V
78 -1 R
-78 1 V
217 -1 R
-139 0 V
321 -14 R
-182 14 V
342 -37 R
-160 23 V
299 -54 R
-139 31 V
198 -49 R
-59 18 V
122 -37 R
-63 19 V
165 -64 R
-102 45 V
114 -52 R
-12 7 V
78 -53 R
-66 46 V
stroke
LTb
6402 3156 M
[ [(Helvetica) 140.0 0.0 true true 0 (    -0.2)]
] -46.7 MRshow
LT1
6486 3156 M
399 0 V
4657 1077 M
155 20 V
-305 -33 R
150 13 V
-235 -18 R
85 5 V
-252 -13 R
167 8 V
-318 -8 R
151 0 V
-151 0 R
-70 0 V
-196 9 V
-171 18 V
-141 30 V
-49 23 V
-47 24 V
-11 31 V
14 47 V
8 10 V
42 32 V
67 40 V
78 38 V
87 37 V
95 36 V
103 36 V
111 34 V
123 32 V
106 25 V
34 6 V
176 26 V
130 14 V
118 3 V
114 2 V
188 -12 R
-188 12 V
346 -36 R
-158 24 V
291 -57 R
-133 33 V
168 -46 R
-35 13 V
108 -42 R
-73 29 V
128 -65 R
-55 36 V
76 -55 R
-21 19 V
45 -54 R
-24 35 V
25 -74 R
-1 39 V
stroke
LTb
6402 3016 M
[ [(Helvetica) 140.0 0.0 true true 0 (    -0.3)]
] -46.7 MRshow
LT2
6486 3016 M
399 0 V
3805 1131 M
-57 14 V
-78 18 V
-68 48 V
-5 7 V
14 41 V
44 42 V
64 40 V
81 38 V
95 37 V
109 34 V
126 32 V
146 30 V
150 23 V
31 2 V
224 12 V
111 -6 R
-111 6 V
194 -10 R
-83 4 V
239 -28 R
-156 24 V
169 -28 R
-13 4 V
125 -36 R
-112 32 V
185 -72 R
-73 40 V
88 -50 R
-15 10 V
44 -54 R
-29 44 V
26 -74 R
3 30 V
-8 -47 R
5 17 V
-47 -60 R
42 43 V
-112 -82 R
70 39 V
-165 -76 R
95 37 V
-215 -70 R
120 33 V
-268 -62 R
148 29 V
-212 -38 R
64 9 V
-182 -25 R
118 16 V
-303 -32 R
185 16 V
-234 -19 R
49 3 V
-241 -9 R
192 6 V
-192 -6 R
-183 6 V
-21 0 V
-173 18 V
stroke
LTb
6402 2876 M
[ [(Helvetica) 140.0 0.0 true true 0 (    -0.4)]
] -46.7 MRshow
LT3
6486 2876 M
399 0 V
3804 1214 M
-20 23 V
-9 49 V
1 1 V
53 40 V
76 39 V
95 36 V
114 34 V
132 30 V
4 1 V
199 23 V
97 7 V
204 -6 R
-204 6 V
357 -31 R
-153 25 V
264 -66 R
-111 41 V
122 -49 R
-11 8 V
46 -61 R
-35 53 V
33 -59 R
2 6 V
-25 -45 R
23 39 V
-86 -79 R
63 40 V
-158 -77 R
95 37 V
-222 -69 R
127 32 V
-269 -56 R
142 24 V
-165 -27 R
23 3 V
-248 -23 R
225 20 V
-261 -22 R
36 2 V
-36 -2 R
-219 1 V
-175 17 V
-126 35 V
stroke
LTb
6402 2736 M
[ [(Helvetica) 140.0 0.0 true true 0 (    -0.5)]
] -46.7 MRshow
LT4
6486 2736 M
399 0 V
4064 1230 M
-78 29 V
-25 15 V
14 35 V
59 41 V
95 36 V
131 31 V
130 21 V
71 2 V
155 0 R
-155 0 V
304 -27 R
-149 27 V
179 -42 R
-30 15 V
69 -57 R
-39 42 V
38 -53 R
1 11 V
-50 -53 R
49 42 V
-144 -79 R
95 37 V
-236 -67 R
141 30 V
-186 -36 R
45 6 V
-228 -19 R
183 13 V
-259 -15 R
76 2 V
-76 -2 R
-180 15 V
stroke
LTb
6402 2596 M
[ [(Helvetica) 140.0 0.0 true true 0 (    -0.6)]
] -46.7 MRshow
LT5
6486 2596 M
399 0 V
4287 1315 M
0 3 V
95 36 V
11 1 V
14 -4 R
-14 4 V
-81 -41 R
95 37 V
-95 -37 R
-25 1 V
stroke
LTb
4260 886 M
1805 688 V
4260 886 M
1135 1284 L
1805 688 V
6065 1574 M
2940 1972 L
1135 3455 M
0 -2171 V
2940 2466 M
0 -494 V
6065 2989 M
0 -1415 V
4260 2302 M
0 -1416 V
1135 1284 M
46 17 V
stroke
1074 1245 M
[ [(Helvetica) 140.0 0.0 true true 0 (-2)]
] -46.7 MCshow
1.000 UL
LTb
1.000 UL
LTb
2894 1954 M
46 18 V
1526 1234 M
46 17 V
stroke
1465 1195 M
[ [(Helvetica) 140.0 0.0 true true 0 (-1.5)]
] -46.7 MCshow
1.000 UL
LTb
1.000 UL
LTb
3285 1905 M
46 17 V
1917 1184 M
46 18 V
stroke
1856 1145 M
[ [(Helvetica) 140.0 0.0 true true 0 (-1)]
] -46.7 MCshow
1.000 UL
LTb
1.000 UL
LTb
3675 1855 M
45 17 V
2307 1135 M
46 17 V
stroke
2246 1096 M
[ [(Helvetica) 140.0 0.0 true true 0 (-0.5)]
] -46.7 MCshow
1.000 UL
LTb
1.000 UL
LTb
4065 1805 M
46 18 V
2698 1085 M
46 17 V
stroke
2637 1046 M
[ [(Helvetica) 140.0 0.0 true true 0 ( 0)]
] -46.7 MCshow
1.000 UL
LTb
1.000 UL
LTb
4456 1756 M
46 17 V
3089 1035 M
46 18 V
stroke
3028 996 M
[ [(Helvetica) 140.0 0.0 true true 0 ( 0.5)]
] -46.7 MCshow
1.000 UL
LTb
1.000 UL
LTb
4847 1706 M
46 17 V
3480 986 M
45 17 V
stroke
3418 947 M
[ [(Helvetica) 140.0 0.0 true true 0 ( 1)]
] -46.7 MCshow
1.000 UL
LTb
1.000 UL
LTb
5237 1656 M
46 18 V
3869 936 M
46 17 V
stroke
3808 897 M
[ [(Helvetica) 140.0 0.0 true true 0 ( 1.5)]
] -46.7 MCshow
1.000 UL
LTb
1.000 UL
LTb
5628 1607 M
46 17 V
4260 886 M
46 18 V
stroke
4199 847 M
[ [(Helvetica) 140.0 0.0 true true 0 ( 2)]
] -46.7 MCshow
1.000 UL
LTb
1.000 UL
LTb
6019 1557 M
46 17 V
stroke
LCb setrgbcolor
2247 913 M
[ [(Helvetica) 140.0 0.0 true true 0 (x)]
] -46.7 MCshow
LTb
1.000 UL
LTb
4260 886 M
-51 7 V
stroke
4328 872 M
[ [(Helvetica) 140.0 0.0 true true 0 (-2)]
] -46.7 MCshow
1.000 UL
LTb
1.000 UL
LTb
1186 1277 M
-51 7 V
4486 972 M
-52 7 V
stroke
4554 958 M
[ [(Helvetica) 140.0 0.0 true true 0 (-1.5)]
] -46.7 MCshow
1.000 UL
LTb
1.000 UL
LTb
1412 1363 M
-51 7 V
4711 1058 M
-51 7 V
stroke
4779 1044 M
[ [(Helvetica) 140.0 0.0 true true 0 (-1)]
] -46.7 MCshow
1.000 UL
LTb
1.000 UL
LTb
1638 1449 M
-52 7 V
4937 1144 M
-51 7 V
stroke
5005 1130 M
[ [(Helvetica) 140.0 0.0 true true 0 (-0.5)]
] -46.7 MCshow
1.000 UL
LTb
1.000 UL
LTb
1863 1535 M
-51 7 V
5162 1230 M
-51 7 V
stroke
5231 1216 M
[ [(Helvetica) 140.0 0.0 true true 0 ( 0)]
] -46.7 MCshow
1.000 UL
LTb
1.000 UL
LTb
2089 1621 M
-51 7 V
5388 1316 M
-51 7 V
stroke
5456 1302 M
[ [(Helvetica) 140.0 0.0 true true 0 ( 0.5)]
] -46.7 MCshow
1.000 UL
LTb
1.000 UL
LTb
2314 1707 M
-51 7 V
5614 1402 M
-52 7 V
stroke
5682 1388 M
[ [(Helvetica) 140.0 0.0 true true 0 ( 1)]
] -46.7 MCshow
1.000 UL
LTb
1.000 UL
LTb
2540 1793 M
-51 7 V
5839 1488 M
-51 7 V
stroke
5907 1474 M
[ [(Helvetica) 140.0 0.0 true true 0 ( 1.5)]
] -46.7 MCshow
1.000 UL
LTb
1.000 UL
LTb
2766 1879 M
-52 7 V
6065 1574 M
-51 7 V
stroke
6133 1560 M
[ [(Helvetica) 140.0 0.0 true true 0 ( 2)]
] -46.7 MCshow
1.000 UL
LTb
1.000 UL
LTb
2991 1965 M
-51 7 V
stroke
LCb setrgbcolor
5944 1131 M
[ [(Helvetica) 140.0 0.0 true true 0 (y)]
] -46.7 MCshow
LTb
1.000 UL
LTb
1198 2008 M
-63 0 V
stroke
1009 2008 M
[ [(Helvetica) 140.0 0.0 true true 0 (-0.8)]
] -46.7 MRshow
1.000 UL
LTb
1.000 UL
LTb
1198 2189 M
-63 0 V
stroke
1009 2189 M
[ [(Helvetica) 140.0 0.0 true true 0 (-0.6)]
] -46.7 MRshow
1.000 UL
LTb
1.000 UL
LTb
1198 2370 M
-63 0 V
stroke
1009 2370 M
[ [(Helvetica) 140.0 0.0 true true 0 (-0.4)]
] -46.7 MRshow
1.000 UL
LTb
1.000 UL
LTb
1198 2550 M
-63 0 V
stroke
1009 2550 M
[ [(Helvetica) 140.0 0.0 true true 0 (-0.2)]
] -46.7 MRshow
1.000 UL
LTb
1.000 UL
LTb
1198 2731 M
-63 0 V
stroke
1009 2731 M
[ [(Helvetica) 140.0 0.0 true true 0 ( 0)]
] -46.7 MRshow
1.000 UL
LTb
1.000 UL
LTb
1198 2912 M
-63 0 V
stroke
1009 2912 M
[ [(Helvetica) 140.0 0.0 true true 0 ( 0.2)]
] -46.7 MRshow
1.000 UL
LTb
1.000 UL
LTb
1198 3093 M
-63 0 V
stroke
1009 3093 M
[ [(Helvetica) 140.0 0.0 true true 0 ( 0.4)]
] -46.7 MRshow
1.000 UL
LTb
1.000 UL
LTb
1198 3274 M
-63 0 V
stroke
1009 3274 M
[ [(Helvetica) 140.0 0.0 true true 0 ( 0.6)]
] -46.7 MRshow
1.000 UL
LTb
1.000 UL
LTb
1198 3455 M
-63 0 V
stroke
1009 3455 M
[ [(Helvetica) 140.0 0.0 true true 0 ( 0.8)]
] -46.7 MRshow
1.000 UL
LTb
LCb setrgbcolor
522 4230 M
[ [(Helvetica) 140.0 0.0 true true 0 (Function value)]
] -46.7 MCshow
LTb
1.000 UP
stroke
grestore
end
showpage
%%Trailer
%%DocumentFonts: Helvetica
