%!PS-Adobe-2.0 EPSF-2.0
%%Title: rand1000.eps
%%Creator: gnuplot 4.2 patchlevel 6 
%%CreationDate: Fri May  9 15:22:37 2014
%%DocumentFonts: (atend)
%%BoundingBox: 50 50 410 302
%%EndComments
%%BeginProlog
/gnudict 256 dict def
gnudict begin
%
% The following 6 true/false flags may be edited by hand if required
% The unit line width may also be changed
%
/Color true def
/Blacktext false def
/Solid false def
/Dashlength 1 def
/Landscape false def
/Level1 false def
/Rounded false def
/TransparentPatterns false def
/gnulinewidth 5.000 def
/userlinewidth gnulinewidth def
%
/vshift -46 def
/dl1 {
  10.0 Dashlength mul mul
  Rounded { currentlinewidth 0.75 mul sub dup 0 le { pop 0.01 } if } if
} def
/dl2 {
  10.0 Dashlength mul mul
  Rounded { currentlinewidth 0.75 mul add } if
} def
/hpt_ 31.5 def
/vpt_ 31.5 def
/hpt hpt_ def
/vpt vpt_ def
Level1 {} {
/SDict 10 dict def
systemdict /pdfmark known not {
  userdict /pdfmark systemdict /cleartomark get put
} if
SDict begin [
  /Title (rand1000.eps)
  /Subject (gnuplot plot)
  /Creator (gnuplot 4.2 patchlevel 6 )
  /Author (ASUKA FUKAWA)
%  /Producer (gnuplot)
%  /Keywords ()
  /CreationDate (Fri May  9 15:22:37 2014)
  /DOCINFO pdfmark
end
} ifelse
%
% Gnuplot Prolog Version 4.2 (August 2006)
%
/M {moveto} bind def
/L {lineto} bind def
/R {rmoveto} bind def
/V {rlineto} bind def
/N {newpath moveto} bind def
/Z {closepath} bind def
/C {setrgbcolor} bind def
/f {rlineto fill} bind def
/vpt2 vpt 2 mul def
/hpt2 hpt 2 mul def
/Lshow {currentpoint stroke M 0 vshift R 
	Blacktext {gsave 0 setgray show grestore} {show} ifelse} def
/Rshow {currentpoint stroke M dup stringwidth pop neg vshift R
	Blacktext {gsave 0 setgray show grestore} {show} ifelse} def
/Cshow {currentpoint stroke M dup stringwidth pop -2 div vshift R 
	Blacktext {gsave 0 setgray show grestore} {show} ifelse} def
/UP {dup vpt_ mul /vpt exch def hpt_ mul /hpt exch def
  /hpt2 hpt 2 mul def /vpt2 vpt 2 mul def} def
/DL {Color {setrgbcolor Solid {pop []} if 0 setdash}
 {pop pop pop 0 setgray Solid {pop []} if 0 setdash} ifelse} def
/BL {stroke userlinewidth 2 mul setlinewidth
	Rounded {1 setlinejoin 1 setlinecap} if} def
/AL {stroke userlinewidth 2 div setlinewidth
	Rounded {1 setlinejoin 1 setlinecap} if} def
/UL {dup gnulinewidth mul /userlinewidth exch def
	dup 1 lt {pop 1} if 10 mul /udl exch def} def
/PL {stroke userlinewidth setlinewidth
	Rounded {1 setlinejoin 1 setlinecap} if} def
% Default Line colors
/LCw {1 1 1} def
/LCb {0 0 0} def
/LCa {0 0 0} def
/LC0 {1 0 0} def
/LC1 {0 1 0} def
/LC2 {0 0 1} def
/LC3 {1 0 1} def
/LC4 {0 1 1} def
/LC5 {1 1 0} def
/LC6 {0 0 0} def
/LC7 {1 0.3 0} def
/LC8 {0.5 0.5 0.5} def
% Default Line Types
/LTw {PL [] 1 setgray} def
/LTb {BL [] LCb DL} def
/LTa {AL [1 udl mul 2 udl mul] 0 setdash LCa setrgbcolor} def
/LT0 {PL [] LC0 DL} def
/LT1 {PL [4 dl1 2 dl2] LC1 DL} def
/LT2 {PL [2 dl1 3 dl2] LC2 DL} def
/LT3 {PL [1 dl1 1.5 dl2] LC3 DL} def
/LT4 {PL [6 dl1 2 dl2 1 dl1 2 dl2] LC4 DL} def
/LT5 {PL [3 dl1 3 dl2 1 dl1 3 dl2] LC5 DL} def
/LT6 {PL [2 dl1 2 dl2 2 dl1 6 dl2] LC6 DL} def
/LT7 {PL [1 dl1 2 dl2 6 dl1 2 dl2 1 dl1 2 dl2] LC7 DL} def
/LT8 {PL [2 dl1 2 dl2 2 dl1 2 dl2 2 dl1 2 dl2 2 dl1 4 dl2] LC8 DL} def
/Pnt {stroke [] 0 setdash gsave 1 setlinecap M 0 0 V stroke grestore} def
/Dia {stroke [] 0 setdash 2 copy vpt add M
  hpt neg vpt neg V hpt vpt neg V
  hpt vpt V hpt neg vpt V closepath stroke
  Pnt} def
/Pls {stroke [] 0 setdash vpt sub M 0 vpt2 V
  currentpoint stroke M
  hpt neg vpt neg R hpt2 0 V stroke
 } def
/Box {stroke [] 0 setdash 2 copy exch hpt sub exch vpt add M
  0 vpt2 neg V hpt2 0 V 0 vpt2 V
  hpt2 neg 0 V closepath stroke
  Pnt} def
/Crs {stroke [] 0 setdash exch hpt sub exch vpt add M
  hpt2 vpt2 neg V currentpoint stroke M
  hpt2 neg 0 R hpt2 vpt2 V stroke} def
/TriU {stroke [] 0 setdash 2 copy vpt 1.12 mul add M
  hpt neg vpt -1.62 mul V
  hpt 2 mul 0 V
  hpt neg vpt 1.62 mul V closepath stroke
  Pnt} def
/Star {2 copy Pls Crs} def
/BoxF {stroke [] 0 setdash exch hpt sub exch vpt add M
  0 vpt2 neg V hpt2 0 V 0 vpt2 V
  hpt2 neg 0 V closepath fill} def
/TriUF {stroke [] 0 setdash vpt 1.12 mul add M
  hpt neg vpt -1.62 mul V
  hpt 2 mul 0 V
  hpt neg vpt 1.62 mul V closepath fill} def
/TriD {stroke [] 0 setdash 2 copy vpt 1.12 mul sub M
  hpt neg vpt 1.62 mul V
  hpt 2 mul 0 V
  hpt neg vpt -1.62 mul V closepath stroke
  Pnt} def
/TriDF {stroke [] 0 setdash vpt 1.12 mul sub M
  hpt neg vpt 1.62 mul V
  hpt 2 mul 0 V
  hpt neg vpt -1.62 mul V closepath fill} def
/DiaF {stroke [] 0 setdash vpt add M
  hpt neg vpt neg V hpt vpt neg V
  hpt vpt V hpt neg vpt V closepath fill} def
/Pent {stroke [] 0 setdash 2 copy gsave
  translate 0 hpt M 4 {72 rotate 0 hpt L} repeat
  closepath stroke grestore Pnt} def
/PentF {stroke [] 0 setdash gsave
  translate 0 hpt M 4 {72 rotate 0 hpt L} repeat
  closepath fill grestore} def
/Circle {stroke [] 0 setdash 2 copy
  hpt 0 360 arc stroke Pnt} def
/CircleF {stroke [] 0 setdash hpt 0 360 arc fill} def
/C0 {BL [] 0 setdash 2 copy moveto vpt 90 450 arc} bind def
/C1 {BL [] 0 setdash 2 copy moveto
	2 copy vpt 0 90 arc closepath fill
	vpt 0 360 arc closepath} bind def
/C2 {BL [] 0 setdash 2 copy moveto
	2 copy vpt 90 180 arc closepath fill
	vpt 0 360 arc closepath} bind def
/C3 {BL [] 0 setdash 2 copy moveto
	2 copy vpt 0 180 arc closepath fill
	vpt 0 360 arc closepath} bind def
/C4 {BL [] 0 setdash 2 copy moveto
	2 copy vpt 180 270 arc closepath fill
	vpt 0 360 arc closepath} bind def
/C5 {BL [] 0 setdash 2 copy moveto
	2 copy vpt 0 90 arc
	2 copy moveto
	2 copy vpt 180 270 arc closepath fill
	vpt 0 360 arc} bind def
/C6 {BL [] 0 setdash 2 copy moveto
	2 copy vpt 90 270 arc closepath fill
	vpt 0 360 arc closepath} bind def
/C7 {BL [] 0 setdash 2 copy moveto
	2 copy vpt 0 270 arc closepath fill
	vpt 0 360 arc closepath} bind def
/C8 {BL [] 0 setdash 2 copy moveto
	2 copy vpt 270 360 arc closepath fill
	vpt 0 360 arc closepath} bind def
/C9 {BL [] 0 setdash 2 copy moveto
	2 copy vpt 270 450 arc closepath fill
	vpt 0 360 arc closepath} bind def
/C10 {BL [] 0 setdash 2 copy 2 copy moveto vpt 270 360 arc closepath fill
	2 copy moveto
	2 copy vpt 90 180 arc closepath fill
	vpt 0 360 arc closepath} bind def
/C11 {BL [] 0 setdash 2 copy moveto
	2 copy vpt 0 180 arc closepath fill
	2 copy moveto
	2 copy vpt 270 360 arc closepath fill
	vpt 0 360 arc closepath} bind def
/C12 {BL [] 0 setdash 2 copy moveto
	2 copy vpt 180 360 arc closepath fill
	vpt 0 360 arc closepath} bind def
/C13 {BL [] 0 setdash 2 copy moveto
	2 copy vpt 0 90 arc closepath fill
	2 copy moveto
	2 copy vpt 180 360 arc closepath fill
	vpt 0 360 arc closepath} bind def
/C14 {BL [] 0 setdash 2 copy moveto
	2 copy vpt 90 360 arc closepath fill
	vpt 0 360 arc} bind def
/C15 {BL [] 0 setdash 2 copy vpt 0 360 arc closepath fill
	vpt 0 360 arc closepath} bind def
/Rec {newpath 4 2 roll moveto 1 index 0 rlineto 0 exch rlineto
	neg 0 rlineto closepath} bind def
/Square {dup Rec} bind def
/Bsquare {vpt sub exch vpt sub exch vpt2 Square} bind def
/S0 {BL [] 0 setdash 2 copy moveto 0 vpt rlineto BL Bsquare} bind def
/S1 {BL [] 0 setdash 2 copy vpt Square fill Bsquare} bind def
/S2 {BL [] 0 setdash 2 copy exch vpt sub exch vpt Square fill Bsquare} bind def
/S3 {BL [] 0 setdash 2 copy exch vpt sub exch vpt2 vpt Rec fill Bsquare} bind def
/S4 {BL [] 0 setdash 2 copy exch vpt sub exch vpt sub vpt Square fill Bsquare} bind def
/S5 {BL [] 0 setdash 2 copy 2 copy vpt Square fill
	exch vpt sub exch vpt sub vpt Square fill Bsquare} bind def
/S6 {BL [] 0 setdash 2 copy exch vpt sub exch vpt sub vpt vpt2 Rec fill Bsquare} bind def
/S7 {BL [] 0 setdash 2 copy exch vpt sub exch vpt sub vpt vpt2 Rec fill
	2 copy vpt Square fill Bsquare} bind def
/S8 {BL [] 0 setdash 2 copy vpt sub vpt Square fill Bsquare} bind def
/S9 {BL [] 0 setdash 2 copy vpt sub vpt vpt2 Rec fill Bsquare} bind def
/S10 {BL [] 0 setdash 2 copy vpt sub vpt Square fill 2 copy exch vpt sub exch vpt Square fill
	Bsquare} bind def
/S11 {BL [] 0 setdash 2 copy vpt sub vpt Square fill 2 copy exch vpt sub exch vpt2 vpt Rec fill
	Bsquare} bind def
/S12 {BL [] 0 setdash 2 copy exch vpt sub exch vpt sub vpt2 vpt Rec fill Bsquare} bind def
/S13 {BL [] 0 setdash 2 copy exch vpt sub exch vpt sub vpt2 vpt Rec fill
	2 copy vpt Square fill Bsquare} bind def
/S14 {BL [] 0 setdash 2 copy exch vpt sub exch vpt sub vpt2 vpt Rec fill
	2 copy exch vpt sub exch vpt Square fill Bsquare} bind def
/S15 {BL [] 0 setdash 2 copy Bsquare fill Bsquare} bind def
/D0 {gsave translate 45 rotate 0 0 S0 stroke grestore} bind def
/D1 {gsave translate 45 rotate 0 0 S1 stroke grestore} bind def
/D2 {gsave translate 45 rotate 0 0 S2 stroke grestore} bind def
/D3 {gsave translate 45 rotate 0 0 S3 stroke grestore} bind def
/D4 {gsave translate 45 rotate 0 0 S4 stroke grestore} bind def
/D5 {gsave translate 45 rotate 0 0 S5 stroke grestore} bind def
/D6 {gsave translate 45 rotate 0 0 S6 stroke grestore} bind def
/D7 {gsave translate 45 rotate 0 0 S7 stroke grestore} bind def
/D8 {gsave translate 45 rotate 0 0 S8 stroke grestore} bind def
/D9 {gsave translate 45 rotate 0 0 S9 stroke grestore} bind def
/D10 {gsave translate 45 rotate 0 0 S10 stroke grestore} bind def
/D11 {gsave translate 45 rotate 0 0 S11 stroke grestore} bind def
/D12 {gsave translate 45 rotate 0 0 S12 stroke grestore} bind def
/D13 {gsave translate 45 rotate 0 0 S13 stroke grestore} bind def
/D14 {gsave translate 45 rotate 0 0 S14 stroke grestore} bind def
/D15 {gsave translate 45 rotate 0 0 S15 stroke grestore} bind def
/DiaE {stroke [] 0 setdash vpt add M
  hpt neg vpt neg V hpt vpt neg V
  hpt vpt V hpt neg vpt V closepath stroke} def
/BoxE {stroke [] 0 setdash exch hpt sub exch vpt add M
  0 vpt2 neg V hpt2 0 V 0 vpt2 V
  hpt2 neg 0 V closepath stroke} def
/TriUE {stroke [] 0 setdash vpt 1.12 mul add M
  hpt neg vpt -1.62 mul V
  hpt 2 mul 0 V
  hpt neg vpt 1.62 mul V closepath stroke} def
/TriDE {stroke [] 0 setdash vpt 1.12 mul sub M
  hpt neg vpt 1.62 mul V
  hpt 2 mul 0 V
  hpt neg vpt -1.62 mul V closepath stroke} def
/PentE {stroke [] 0 setdash gsave
  translate 0 hpt M 4 {72 rotate 0 hpt L} repeat
  closepath stroke grestore} def
/CircE {stroke [] 0 setdash 
  hpt 0 360 arc stroke} def
/Opaque {gsave closepath 1 setgray fill grestore 0 setgray closepath} def
/DiaW {stroke [] 0 setdash vpt add M
  hpt neg vpt neg V hpt vpt neg V
  hpt vpt V hpt neg vpt V Opaque stroke} def
/BoxW {stroke [] 0 setdash exch hpt sub exch vpt add M
  0 vpt2 neg V hpt2 0 V 0 vpt2 V
  hpt2 neg 0 V Opaque stroke} def
/TriUW {stroke [] 0 setdash vpt 1.12 mul add M
  hpt neg vpt -1.62 mul V
  hpt 2 mul 0 V
  hpt neg vpt 1.62 mul V Opaque stroke} def
/TriDW {stroke [] 0 setdash vpt 1.12 mul sub M
  hpt neg vpt 1.62 mul V
  hpt 2 mul 0 V
  hpt neg vpt -1.62 mul V Opaque stroke} def
/PentW {stroke [] 0 setdash gsave
  translate 0 hpt M 4 {72 rotate 0 hpt L} repeat
  Opaque stroke grestore} def
/CircW {stroke [] 0 setdash 
  hpt 0 360 arc Opaque stroke} def
/BoxFill {gsave Rec 1 setgray fill grestore} def
/Density {
  /Fillden exch def
  currentrgbcolor
  /ColB exch def /ColG exch def /ColR exch def
  /ColR ColR Fillden mul Fillden sub 1 add def
  /ColG ColG Fillden mul Fillden sub 1 add def
  /ColB ColB Fillden mul Fillden sub 1 add def
  ColR ColG ColB setrgbcolor} def
/BoxColFill {gsave Rec PolyFill} def
/PolyFill {gsave Density fill grestore grestore} def
/h {rlineto rlineto rlineto gsave closepath fill grestore} bind def
%
% PostScript Level 1 Pattern Fill routine for rectangles
% Usage: x y w h s a XX PatternFill
%	x,y = lower left corner of box to be filled
%	w,h = width and height of box
%	  a = angle in degrees between lines and x-axis
%	 XX = 0/1 for no/yes cross-hatch
%
/PatternFill {gsave /PFa [ 9 2 roll ] def
  PFa 0 get PFa 2 get 2 div add PFa 1 get PFa 3 get 2 div add translate
  PFa 2 get -2 div PFa 3 get -2 div PFa 2 get PFa 3 get Rec
  gsave 1 setgray fill grestore clip
  currentlinewidth 0.5 mul setlinewidth
  /PFs PFa 2 get dup mul PFa 3 get dup mul add sqrt def
  0 0 M PFa 5 get rotate PFs -2 div dup translate
  0 1 PFs PFa 4 get div 1 add floor cvi
	{PFa 4 get mul 0 M 0 PFs V} for
  0 PFa 6 get ne {
	0 1 PFs PFa 4 get div 1 add floor cvi
	{PFa 4 get mul 0 2 1 roll M PFs 0 V} for
 } if
  stroke grestore} def
%
/languagelevel where
 {pop languagelevel} {1} ifelse
 2 lt
	{/InterpretLevel1 true def}
	{/InterpretLevel1 Level1 def}
 ifelse
%
% PostScript level 2 pattern fill definitions
%
/Level2PatternFill {
/Tile8x8 {/PaintType 2 /PatternType 1 /TilingType 1 /BBox [0 0 8 8] /XStep 8 /YStep 8}
	bind def
/KeepColor {currentrgbcolor [/Pattern /DeviceRGB] setcolorspace} bind def
<< Tile8x8
 /PaintProc {0.5 setlinewidth pop 0 0 M 8 8 L 0 8 M 8 0 L stroke} 
>> matrix makepattern
/Pat1 exch def
<< Tile8x8
 /PaintProc {0.5 setlinewidth pop 0 0 M 8 8 L 0 8 M 8 0 L stroke
	0 4 M 4 8 L 8 4 L 4 0 L 0 4 L stroke}
>> matrix makepattern
/Pat2 exch def
<< Tile8x8
 /PaintProc {0.5 setlinewidth pop 0 0 M 0 8 L
	8 8 L 8 0 L 0 0 L fill}
>> matrix makepattern
/Pat3 exch def
<< Tile8x8
 /PaintProc {0.5 setlinewidth pop -4 8 M 8 -4 L
	0 12 M 12 0 L stroke}
>> matrix makepattern
/Pat4 exch def
<< Tile8x8
 /PaintProc {0.5 setlinewidth pop -4 0 M 8 12 L
	0 -4 M 12 8 L stroke}
>> matrix makepattern
/Pat5 exch def
<< Tile8x8
 /PaintProc {0.5 setlinewidth pop -2 8 M 4 -4 L
	0 12 M 8 -4 L 4 12 M 10 0 L stroke}
>> matrix makepattern
/Pat6 exch def
<< Tile8x8
 /PaintProc {0.5 setlinewidth pop -2 0 M 4 12 L
	0 -4 M 8 12 L 4 -4 M 10 8 L stroke}
>> matrix makepattern
/Pat7 exch def
<< Tile8x8
 /PaintProc {0.5 setlinewidth pop 8 -2 M -4 4 L
	12 0 M -4 8 L 12 4 M 0 10 L stroke}
>> matrix makepattern
/Pat8 exch def
<< Tile8x8
 /PaintProc {0.5 setlinewidth pop 0 -2 M 12 4 L
	-4 0 M 12 8 L -4 4 M 8 10 L stroke}
>> matrix makepattern
/Pat9 exch def
/Pattern1 {PatternBgnd KeepColor Pat1 setpattern} bind def
/Pattern2 {PatternBgnd KeepColor Pat2 setpattern} bind def
/Pattern3 {PatternBgnd KeepColor Pat3 setpattern} bind def
/Pattern4 {PatternBgnd KeepColor Landscape {Pat5} {Pat4} ifelse setpattern} bind def
/Pattern5 {PatternBgnd KeepColor Landscape {Pat4} {Pat5} ifelse setpattern} bind def
/Pattern6 {PatternBgnd KeepColor Landscape {Pat9} {Pat6} ifelse setpattern} bind def
/Pattern7 {PatternBgnd KeepColor Landscape {Pat8} {Pat7} ifelse setpattern} bind def
} def
%
%
%End of PostScript Level 2 code
%
/PatternBgnd {
  TransparentPatterns {} {gsave 1 setgray fill grestore} ifelse
} def
%
% Substitute for Level 2 pattern fill codes with
% grayscale if Level 2 support is not selected.
%
/Level1PatternFill {
/Pattern1 {0.250 Density} bind def
/Pattern2 {0.500 Density} bind def
/Pattern3 {0.750 Density} bind def
/Pattern4 {0.125 Density} bind def
/Pattern5 {0.375 Density} bind def
/Pattern6 {0.625 Density} bind def
/Pattern7 {0.875 Density} bind def
} def
%
% Now test for support of Level 2 code
%
Level1 {Level1PatternFill} {Level2PatternFill} ifelse
%
/Symbol-Oblique /Symbol findfont [1 0 .167 1 0 0] makefont
dup length dict begin {1 index /FID eq {pop pop} {def} ifelse} forall
currentdict end definefont pop
/MFshow {
   { dup 5 get 3 ge
     { 5 get 3 eq {gsave} {grestore} ifelse }
     {dup dup 0 get findfont exch 1 get scalefont setfont
     [ currentpoint ] exch dup 2 get 0 exch R dup 5 get 2 ne {dup dup 6
     get exch 4 get {show} {stringwidth pop 0 R} ifelse }if dup 5 get 0 eq
     {dup 3 get {2 get neg 0 exch R pop} {pop aload pop M} ifelse} {dup 5
     get 1 eq {dup 2 get exch dup 3 get exch 6 get stringwidth pop -2 div
     dup 0 R} {dup 6 get stringwidth pop -2 div 0 R 6 get
     show 2 index {aload pop M neg 3 -1 roll neg R pop pop} {pop pop pop
     pop aload pop M} ifelse }ifelse }ifelse }
     ifelse }
   forall} bind def
/MFwidth {0 exch { dup 5 get 3 ge { 5 get 3 eq { 0 } { pop } ifelse }
 {dup 3 get{dup dup 0 get findfont exch 1 get scalefont setfont
     6 get stringwidth pop add} {pop} ifelse} ifelse} forall} bind def
/MLshow { currentpoint stroke M
  0 exch R
  Blacktext {gsave 0 setgray MFshow grestore} {MFshow} ifelse } bind def
/MRshow { currentpoint stroke M
  exch dup MFwidth neg 3 -1 roll R
  Blacktext {gsave 0 setgray MFshow grestore} {MFshow} ifelse } bind def
/MCshow { currentpoint stroke M
  exch dup MFwidth -2 div 3 -1 roll R
  Blacktext {gsave 0 setgray MFshow grestore} {MFshow} ifelse } bind def
/XYsave    { [( ) 1 2 true false 3 ()] } bind def
/XYrestore { [( ) 1 2 true false 4 ()] } bind def
end
%%EndProlog
gnudict begin
gsave
50 50 translate
0.050 0.050 scale
0 setgray
newpath
(Helvetica) findfont 140 scalefont setfont
/Helvetica findfont 140 scalefont setfont
/Helvetica findfont 140 scalefont setfont
1.000 UL
LTb
1598 280 M
63 0 V
4277 0 R
-63 0 V
stroke
1514 280 M
[ [(Helvetica) 140.0 0.0 true true 0 (-1)]
] -46.7 MRshow
1.000 UL
LTb
1598 2450 M
63 0 V
4277 0 R
-63 0 V
stroke
1514 2450 M
[ [(Helvetica) 140.0 0.0 true true 0 ( 0)]
] -46.7 MRshow
1.000 UL
LTb
1598 4620 M
63 0 V
4277 0 R
-63 0 V
stroke
1514 4620 M
[ [(Helvetica) 140.0 0.0 true true 0 ( 1)]
] -46.7 MRshow
1.000 UL
LTb
1598 280 M
0 63 V
0 4277 R
0 -63 V
stroke
1598 140 M
[ [(Helvetica) 140.0 0.0 true true 0 (-1)]
] -46.7 MCshow
1.000 UL
LTb
3768 280 M
0 63 V
0 4277 R
0 -63 V
stroke
3768 140 M
[ [(Helvetica) 140.0 0.0 true true 0 ( 0)]
] -46.7 MCshow
1.000 UL
LTb
5938 280 M
0 63 V
0 4277 R
0 -63 V
stroke
5938 140 M
[ [(Helvetica) 140.0 0.0 true true 0 ( 1)]
] -46.7 MCshow
1.000 UL
LTb
1.000 UL
LTb
1598 4620 N
0 -4340 V
4340 0 V
0 4340 V
-4340 0 V
Z stroke
3768 4830 M
[ [(Helvetica) 140.0 0.0 true true 0 (t130178)]
] -46.7 MCshow
1.000 UP
1.000 UL
LTb
1.000 UL
LT0
/Helvetica findfont 140 scalefont setfont
LTb
5287 4487 M
(cos\(t\), sin\(t\)) Rshow
LT0
5371 4487 M
399 0 V
-1386 44 R
-213 51 V
-217 30 V
-219 8 V
-219 -15 V
-216 -36 V
-211 -58 V
-205 -79 V
-195 -99 V
2505 4214 L
2333 4078 L
2176 3925 L
2036 3757 L
1913 3575 L
1809 3383 L
-84 -203 V
-64 -209 V
-41 -216 V
-20 -218 V
2 -219 V
24 -218 V
47 -214 V
67 -208 V
88 -201 V
108 -190 V
127 -179 V
2207 943 L
2367 793 L
2541 660 L
2728 546 L
197 -96 V
206 -74 V
213 -54 V
216 -32 V
219 -10 V
219 12 V
216 34 V
212 56 V
205 77 V
197 97 V
185 117 V
173 134 V
159 152 V
142 166 V
125 181 V
106 191 V
86 202 V
65 209 V
44 214 V
22 218 V
0 220 V
-22 218 V
-44 214 V
-65 209 V
-86 202 V
-106 191 V
-125 181 V
-142 166 V
-159 152 V
-173 134 V
-185 117 V
-197 97 V
-205 77 V
-212 56 V
-216 34 V
-219 12 V
-219 -10 V
-216 -32 V
-213 -54 V
-206 -74 V
-197 -96 V
2541 4240 L
2367 4107 L
2207 3957 L
2063 3792 L
1936 3613 L
1828 3423 L
-88 -201 V
-67 -208 V
-47 -214 V
-24 -218 V
-2 -219 V
20 -218 V
41 -216 V
64 -209 V
84 -203 V
104 -192 V
123 -182 V
2176 975 L
2333 822 L
2505 686 L
2689 567 L
195 -99 V
205 -79 V
211 -58 V
216 -36 V
219 -15 V
219 8 V
217 30 V
213 51 V
1.000 UP
stroke
LT1
/Helvetica findfont 140 scalefont setfont
LTb
5287 4347 M
("xy.dat") Rshow
LT1
3144 1095 Pls
3714 3042 Pls
4064 3010 Pls
2038 3643 Pls
4251 2932 Pls
4815 2868 Pls
5075 2339 Pls
5524 3458 Pls
3055 3560 Pls
3857 351 Pls
3546 3502 Pls
2806 975 Pls
2183 859 Pls
1723 3201 Pls
3059 1576 Pls
3000 3287 Pls
3709 3798 Pls
3027 517 Pls
3507 2148 Pls
5199 502 Pls
1778 2757 Pls
4408 3937 Pls
1794 2676 Pls
4092 1934 Pls
2934 693 Pls
3323 3565 Pls
5233 3213 Pls
5578 4500 Pls
5110 4385 Pls
4399 913 Pls
2659 4483 Pls
5238 3452 Pls
4980 1009 Pls
5007 1230 Pls
4195 2950 Pls
2770 3057 Pls
2406 4262 Pls
3692 1284 Pls
3636 528 Pls
4256 3655 Pls
2260 322 Pls
3917 4577 Pls
4573 2239 Pls
5775 2427 Pls
3322 2918 Pls
4379 3065 Pls
4099 2361 Pls
3215 1823 Pls
4408 966 Pls
4091 1347 Pls
4954 3945 Pls
5442 4444 Pls
4905 1878 Pls
2426 1285 Pls
3445 3765 Pls
1638 2788 Pls
5126 2639 Pls
4063 2443 Pls
5916 2582 Pls
5908 1982 Pls
2198 3031 Pls
1744 3381 Pls
2090 2043 Pls
1902 3582 Pls
4047 3077 Pls
1627 1745 Pls
3720 4153 Pls
2887 1369 Pls
2730 2397 Pls
3693 3258 Pls
2860 2414 Pls
2745 730 Pls
1752 3892 Pls
4211 412 Pls
3172 2863 Pls
3431 2454 Pls
2593 2259 Pls
2533 1767 Pls
5340 1519 Pls
2047 2131 Pls
5634 758 Pls
4914 2098 Pls
1609 545 Pls
4505 1423 Pls
3980 942 Pls
5719 3924 Pls
4394 1208 Pls
5692 3230 Pls
1798 2647 Pls
4679 2054 Pls
2208 854 Pls
5546 1885 Pls
4152 823 Pls
4689 2236 Pls
3381 3820 Pls
5405 1759 Pls
5616 3064 Pls
4895 4309 Pls
4647 2144 Pls
2430 1371 Pls
4124 893 Pls
1993 1262 Pls
3139 429 Pls
5530 2021 Pls
4113 2953 Pls
5113 3405 Pls
4846 3403 Pls
1988 1742 Pls
5264 3761 Pls
5016 1389 Pls
4279 3165 Pls
4186 2639 Pls
2926 1825 Pls
3646 317 Pls
5007 3160 Pls
2726 1875 Pls
5091 1803 Pls
4175 974 Pls
3269 2449 Pls
4033 4467 Pls
2101 1890 Pls
4570 4031 Pls
1991 3642 Pls
2470 4340 Pls
4101 4570 Pls
2427 1125 Pls
4433 3697 Pls
4802 4443 Pls
2220 1192 Pls
5799 4311 Pls
5389 1269 Pls
2884 3224 Pls
4109 4143 Pls
5236 4463 Pls
3291 2013 Pls
5627 2475 Pls
4941 2941 Pls
3204 4016 Pls
3281 2758 Pls
5054 4467 Pls
4026 4564 Pls
2289 1203 Pls
4959 4175 Pls
2345 4263 Pls
2065 887 Pls
5272 4538 Pls
3194 899 Pls
4460 4387 Pls
1741 2440 Pls
5548 2115 Pls
5491 3919 Pls
5629 3175 Pls
3558 1577 Pls
3889 3924 Pls
5373 1687 Pls
5088 2144 Pls
2949 4462 Pls
4385 653 Pls
5335 3814 Pls
1613 4484 Pls
5739 3969 Pls
5719 1677 Pls
5906 2923 Pls
2762 391 Pls
2061 1054 Pls
3544 295 Pls
1671 1917 Pls
4509 2314 Pls
4532 1142 Pls
2936 2649 Pls
3867 768 Pls
5831 3901 Pls
1928 2960 Pls
5591 4347 Pls
3471 4289 Pls
5528 1954 Pls
4955 3992 Pls
4669 3606 Pls
3613 4515 Pls
5035 2758 Pls
2268 1323 Pls
4091 1023 Pls
4278 1344 Pls
4375 1554 Pls
3524 4394 Pls
5241 4476 Pls
1860 3816 Pls
5074 872 Pls
3474 3410 Pls
1917 4029 Pls
4396 4529 Pls
2681 2096 Pls
5219 4434 Pls
2399 1575 Pls
5647 4518 Pls
5371 659 Pls
2539 2206 Pls
2720 3901 Pls
4588 4179 Pls
2153 856 Pls
5271 4478 Pls
2030 4215 Pls
4992 4188 Pls
1785 1210 Pls
4296 786 Pls
1937 1436 Pls
2013 1702 Pls
4570 4315 Pls
2834 4053 Pls
2589 1225 Pls
5269 704 Pls
2922 552 Pls
3948 2726 Pls
5491 1280 Pls
3602 388 Pls
3175 1617 Pls
5904 2288 Pls
2530 3640 Pls
3175 1399 Pls
5887 4554 Pls
3223 568 Pls
2689 2319 Pls
3308 4342 Pls
3333 3226 Pls
5094 3005 Pls
5489 3107 Pls
4747 1154 Pls
4697 1439 Pls
4918 2932 Pls
3757 1264 Pls
4358 4016 Pls
3919 3005 Pls
3002 3533 Pls
3343 3261 Pls
1630 1975 Pls
4513 1937 Pls
3581 4286 Pls
5294 3972 Pls
5326 1370 Pls
3896 3164 Pls
5414 2129 Pls
2969 2905 Pls
4321 410 Pls
5382 1983 Pls
4380 1884 Pls
4285 1482 Pls
2598 949 Pls
5525 2684 Pls
5520 1612 Pls
2643 4234 Pls
4624 4240 Pls
2868 949 Pls
5224 906 Pls
1620 3294 Pls
3315 2600 Pls
3156 1473 Pls
5766 3209 Pls
5416 2831 Pls
4657 3542 Pls
5852 1781 Pls
2124 2882 Pls
4300 1805 Pls
4868 2569 Pls
5527 3132 Pls
5219 914 Pls
4064 2588 Pls
1852 4016 Pls
4575 4160 Pls
1621 3278 Pls
4152 2020 Pls
2576 4392 Pls
4530 1086 Pls
4299 2690 Pls
4955 1700 Pls
2930 3551 Pls
4519 2137 Pls
3131 1564 Pls
4981 743 Pls
5171 3252 Pls
4913 3134 Pls
5204 1721 Pls
2420 4140 Pls
2435 4079 Pls
4997 1140 Pls
4055 1894 Pls
4198 3715 Pls
2984 1472 Pls
5839 4367 Pls
5200 3538 Pls
2766 874 Pls
3787 4369 Pls
4050 4002 Pls
2631 1774 Pls
5783 546 Pls
1724 3440 Pls
4719 4011 Pls
1859 4223 Pls
4849 1378 Pls
5000 2590 Pls
3557 1799 Pls
5522 498 Pls
2211 1250 Pls
3009 794 Pls
2315 953 Pls
5370 2165 Pls
2865 1901 Pls
3232 3998 Pls
2600 2947 Pls
2471 1127 Pls
4531 1278 Pls
5605 1994 Pls
1988 4548 Pls
2915 3921 Pls
2625 658 Pls
3209 3265 Pls
3495 1475 Pls
4802 2790 Pls
3763 554 Pls
4622 3162 Pls
2545 2736 Pls
2025 2494 Pls
5675 2341 Pls
3190 1019 Pls
1986 2745 Pls
3184 3601 Pls
5061 1534 Pls
2293 4133 Pls
2780 2292 Pls
4752 2488 Pls
3988 705 Pls
2452 4566 Pls
3218 4337 Pls
4054 4066 Pls
5929 1420 Pls
3926 1218 Pls
5194 3035 Pls
4750 3613 Pls
2074 684 Pls
5670 1145 Pls
4466 1599 Pls
5784 2271 Pls
4170 821 Pls
3102 4034 Pls
4150 598 Pls
3221 882 Pls
2341 2756 Pls
2146 2643 Pls
3791 3284 Pls
3407 2465 Pls
5743 4417 Pls
4721 3681 Pls
4150 2215 Pls
3992 3309 Pls
3936 2406 Pls
5491 1147 Pls
5043 4019 Pls
4456 1957 Pls
5878 302 Pls
2689 2772 Pls
1938 2994 Pls
4692 1362 Pls
2448 3922 Pls
5044 3323 Pls
3904 1195 Pls
2486 2391 Pls
2310 4291 Pls
2770 3544 Pls
3204 3845 Pls
3551 4224 Pls
2949 1786 Pls
2069 736 Pls
2503 3608 Pls
3731 1125 Pls
4948 3504 Pls
4935 3970 Pls
3195 2371 Pls
2030 2727 Pls
2991 4158 Pls
2748 3979 Pls
2051 2319 Pls
3068 1445 Pls
3308 2921 Pls
1687 3596 Pls
3465 2321 Pls
4518 3498 Pls
5145 3670 Pls
5272 392 Pls
3977 1747 Pls
2555 1669 Pls
1949 4573 Pls
2337 2228 Pls
3642 1451 Pls
1653 3716 Pls
2307 1486 Pls
4393 1441 Pls
4843 4545 Pls
3924 894 Pls
4164 2695 Pls
5528 373 Pls
1714 2790 Pls
4909 3943 Pls
3158 2926 Pls
5373 4219 Pls
5711 672 Pls
2586 404 Pls
1943 2006 Pls
3670 2669 Pls
4495 2407 Pls
3083 3885 Pls
4931 4560 Pls
2025 2518 Pls
5803 3033 Pls
4450 2711 Pls
2426 2722 Pls
4122 1224 Pls
2209 1775 Pls
1865 2451 Pls
5739 4323 Pls
3368 4194 Pls
1693 3038 Pls
5635 720 Pls
1742 2049 Pls
4427 3321 Pls
5495 4594 Pls
3904 3170 Pls
5852 3013 Pls
2386 4399 Pls
2744 3920 Pls
3808 2253 Pls
3340 674 Pls
4515 2633 Pls
3487 3465 Pls
1782 1970 Pls
4485 2234 Pls
2862 3262 Pls
1970 1241 Pls
5020 796 Pls
4329 2191 Pls
5154 2567 Pls
3483 1802 Pls
2435 2079 Pls
5853 1905 Pls
3175 1341 Pls
2523 4067 Pls
4632 2947 Pls
5779 1891 Pls
2278 2010 Pls
2054 1144 Pls
5018 3623 Pls
4417 624 Pls
3583 3471 Pls
2903 1348 Pls
5305 4316 Pls
4576 3203 Pls
3581 803 Pls
1703 3101 Pls
3920 300 Pls
1704 4179 Pls
2679 1311 Pls
4944 4395 Pls
5296 3468 Pls
2984 318 Pls
2176 2122 Pls
2500 4278 Pls
2443 4001 Pls
1600 3110 Pls
4170 1587 Pls
5496 2219 Pls
2601 2816 Pls
2120 3266 Pls
4657 907 Pls
3065 1321 Pls
2245 1853 Pls
2198 2008 Pls
4202 4227 Pls
3101 2242 Pls
4392 3169 Pls
3598 3652 Pls
1989 3182 Pls
4628 1516 Pls
3881 3312 Pls
5664 795 Pls
5938 3904 Pls
4051 1283 Pls
3418 3255 Pls
5587 819 Pls
5200 1396 Pls
3178 4529 Pls
4287 2461 Pls
3235 1233 Pls
3386 3421 Pls
4513 522 Pls
3288 854 Pls
5212 2361 Pls
5074 2584 Pls
4915 1699 Pls
2595 3322 Pls
3532 1276 Pls
3924 327 Pls
3597 4426 Pls
4620 1929 Pls
1943 2563 Pls
4363 2205 Pls
3790 1394 Pls
5704 4110 Pls
3666 1833 Pls
4229 922 Pls
3393 4600 Pls
2815 1349 Pls
3659 633 Pls
4972 1318 Pls
3370 310 Pls
5678 3985 Pls
2625 2346 Pls
5350 3306 Pls
3470 2714 Pls
1932 2497 Pls
1975 3379 Pls
5740 2850 Pls
5812 4188 Pls
3657 2221 Pls
2719 630 Pls
4182 3197 Pls
1928 4081 Pls
5584 2671 Pls
5752 3300 Pls
5027 1866 Pls
4648 3449 Pls
2549 4356 Pls
2493 643 Pls
4360 3047 Pls
4395 3377 Pls
2242 3454 Pls
3454 725 Pls
3002 2009 Pls
1611 3743 Pls
5269 1414 Pls
5411 2194 Pls
5649 4424 Pls
2973 3977 Pls
3793 1468 Pls
3975 1564 Pls
4372 1366 Pls
1711 4005 Pls
2421 1288 Pls
5686 3865 Pls
5373 2825 Pls
3940 359 Pls
2977 4478 Pls
2122 3063 Pls
3185 817 Pls
3504 1198 Pls
3270 1659 Pls
4430 1663 Pls
2781 4487 Pls
2338 3658 Pls
2653 3396 Pls
1920 4109 Pls
5801 715 Pls
4812 966 Pls
3041 3242 Pls
5869 1158 Pls
2765 2552 Pls
2554 2826 Pls
3728 1760 Pls
2587 3997 Pls
3616 3175 Pls
1892 3970 Pls
5872 3406 Pls
2330 1397 Pls
4591 1752 Pls
1753 4328 Pls
1847 756 Pls
5134 391 Pls
2509 2690 Pls
2395 2634 Pls
2630 1008 Pls
4830 2479 Pls
4598 4468 Pls
2003 1070 Pls
2926 1674 Pls
1765 3626 Pls
5887 742 Pls
4294 4503 Pls
5186 3708 Pls
2599 2520 Pls
2159 1435 Pls
3546 1089 Pls
3230 1424 Pls
2518 2823 Pls
5152 1997 Pls
2155 526 Pls
4043 4068 Pls
4043 1385 Pls
5234 3130 Pls
3494 905 Pls
5842 2343 Pls
5569 4473 Pls
4122 2607 Pls
5675 2052 Pls
3013 1017 Pls
5610 2256 Pls
3491 1901 Pls
4383 3804 Pls
4363 3985 Pls
3325 2259 Pls
2681 2564 Pls
3824 3808 Pls
3330 611 Pls
1891 1308 Pls
4779 2469 Pls
3251 3366 Pls
5850 1564 Pls
4537 2716 Pls
5209 2956 Pls
5806 966 Pls
5011 4160 Pls
4260 1246 Pls
2759 1387 Pls
1749 4206 Pls
2070 2158 Pls
3163 1835 Pls
5759 4071 Pls
2341 1833 Pls
5720 1317 Pls
4179 3243 Pls
4824 4514 Pls
3307 3417 Pls
2776 588 Pls
2831 729 Pls
4582 1381 Pls
2733 2337 Pls
2239 4077 Pls
4622 2082 Pls
2161 3454 Pls
2986 1316 Pls
2310 3233 Pls
4189 813 Pls
4002 3614 Pls
3685 2466 Pls
1629 608 Pls
2408 3536 Pls
1820 2799 Pls
3651 1681 Pls
4425 3566 Pls
3448 1751 Pls
1645 3264 Pls
5126 969 Pls
4039 2492 Pls
4089 3285 Pls
2644 4159 Pls
5638 2038 Pls
4090 2571 Pls
3889 836 Pls
2883 317 Pls
4340 1596 Pls
1964 3832 Pls
1830 868 Pls
3328 2565 Pls
3587 497 Pls
2829 4118 Pls
3285 1559 Pls
4081 1155 Pls
3565 864 Pls
4685 398 Pls
5187 4413 Pls
5594 3569 Pls
3148 2428 Pls
2838 4121 Pls
4302 2805 Pls
5477 1386 Pls
5439 4524 Pls
1916 4352 Pls
2090 2329 Pls
3615 2761 Pls
3864 3529 Pls
3577 4233 Pls
1786 402 Pls
2086 2435 Pls
2304 3855 Pls
3871 4575 Pls
4966 2209 Pls
4841 858 Pls
5675 423 Pls
1678 2721 Pls
4266 4238 Pls
5146 2449 Pls
5461 4146 Pls
3499 295 Pls
3173 4198 Pls
4094 4120 Pls
4425 415 Pls
5051 3295 Pls
1856 4222 Pls
2427 1244 Pls
4775 3382 Pls
2516 2485 Pls
2289 4442 Pls
4382 709 Pls
5903 3143 Pls
4468 2913 Pls
4080 2358 Pls
2060 2284 Pls
3202 2643 Pls
3617 3458 Pls
3540 455 Pls
4277 709 Pls
1908 2072 Pls
5041 848 Pls
2992 4553 Pls
3130 511 Pls
4633 2730 Pls
4035 4006 Pls
3870 1160 Pls
5753 2517 Pls
5342 2965 Pls
2128 2165 Pls
2020 1273 Pls
5488 2306 Pls
4954 1849 Pls
2462 1237 Pls
3342 3823 Pls
2984 2334 Pls
2593 770 Pls
4220 2669 Pls
2020 4434 Pls
4218 3737 Pls
3862 996 Pls
4442 476 Pls
3195 2938 Pls
4031 1280 Pls
2601 3243 Pls
4484 1705 Pls
5554 2716 Pls
5049 3252 Pls
5602 4595 Pls
5527 1688 Pls
5116 1255 Pls
5060 453 Pls
3063 2024 Pls
4160 2167 Pls
3156 1122 Pls
2603 4102 Pls
3156 4128 Pls
5616 3435 Pls
3764 2391 Pls
5754 3449 Pls
2332 2981 Pls
1852 630 Pls
2395 3985 Pls
4920 741 Pls
5278 3191 Pls
3467 3138 Pls
5484 1271 Pls
4630 1291 Pls
4334 1533 Pls
4497 4574 Pls
3693 4183 Pls
5374 3934 Pls
5009 3734 Pls
4067 1517 Pls
2823 2564 Pls
1664 2240 Pls
2244 600 Pls
3908 1723 Pls
5623 1572 Pls
3502 3646 Pls
5801 4053 Pls
3482 4029 Pls
2023 855 Pls
2019 3440 Pls
3427 3599 Pls
4713 4204 Pls
4480 2831 Pls
4836 2234 Pls
3263 1647 Pls
4789 3171 Pls
5249 3537 Pls
2108 4576 Pls
5176 3100 Pls
2997 3543 Pls
5710 3583 Pls
3887 4255 Pls
4334 4453 Pls
4983 3441 Pls
2006 4085 Pls
3579 2517 Pls
4383 1036 Pls
3419 1607 Pls
4905 999 Pls
4879 912 Pls
3684 2411 Pls
5121 1676 Pls
2647 4313 Pls
2951 567 Pls
4111 3032 Pls
5148 2565 Pls
3313 1779 Pls
3518 391 Pls
2929 1245 Pls
4869 2019 Pls
2028 1192 Pls
5575 3495 Pls
3266 1738 Pls
1800 915 Pls
3775 3762 Pls
2865 4543 Pls
2872 729 Pls
2917 2602 Pls
1740 2952 Pls
4207 2935 Pls
2682 2099 Pls
2198 3079 Pls
4915 2800 Pls
4508 588 Pls
5083 2121 Pls
3646 4195 Pls
4351 1964 Pls
4388 361 Pls
4740 3271 Pls
2314 1260 Pls
3731 2263 Pls
2501 3687 Pls
4030 2502 Pls
2987 2854 Pls
2152 4278 Pls
2487 1918 Pls
3075 1769 Pls
1695 734 Pls
5608 3287 Pls
2360 3435 Pls
2106 3090 Pls
4328 3541 Pls
1752 1460 Pls
4940 3577 Pls
5769 4339 Pls
5875 2244 Pls
3299 1119 Pls
2629 4413 Pls
4659 2700 Pls
3965 3896 Pls
3676 3537 Pls
2512 3835 Pls
2004 1292 Pls
5606 356 Pls
5616 711 Pls
4829 466 Pls
4839 1901 Pls
5045 3675 Pls
4399 2730 Pls
3950 2912 Pls
3766 2569 Pls
1854 4150 Pls
4726 1567 Pls
5261 2130 Pls
5305 1970 Pls
2724 1725 Pls
2205 2320 Pls
2258 1293 Pls
4649 608 Pls
2687 3010 Pls
2357 4600 Pls
4514 4280 Pls
3199 2303 Pls
4653 342 Pls
1731 1347 Pls
4292 2581 Pls
4954 3230 Pls
3429 2424 Pls
5835 1434 Pls
5592 3884 Pls
4442 1059 Pls
2307 3731 Pls
4417 1649 Pls
1723 1811 Pls
3296 1494 Pls
5859 2737 Pls
2791 3117 Pls
3714 3074 Pls
2118 1111 Pls
4454 933 Pls
3496 1490 Pls
4552 1194 Pls
5757 725 Pls
4656 4336 Pls
3197 2992 Pls
4918 383 Pls
5090 4309 Pls
5153 2251 Pls
2656 3960 Pls
5100 3036 Pls
2151 3702 Pls
2471 2026 Pls
3517 3269 Pls
1799 2719 Pls
5418 3337 Pls
4690 1659 Pls
5864 1986 Pls
3891 4366 Pls
3749 1291 Pls
5400 4030 Pls
5321 3062 Pls
5452 3155 Pls
4069 3349 Pls
2104 3809 Pls
4006 4288 Pls
3543 3241 Pls
4688 3098 Pls
1966 949 Pls
3065 848 Pls
4706 1227 Pls
5223 2140 Pls
3924 3831 Pls
5165 558 Pls
4895 1658 Pls
2887 3039 Pls
2386 953 Pls
2798 582 Pls
5146 3951 Pls
4969 4334 Pls
4458 1719 Pls
5319 745 Pls
1658 2751 Pls
4881 708 Pls
4739 689 Pls
2595 2189 Pls
2954 562 Pls
5368 3962 Pls
5431 3276 Pls
5558 3070 Pls
1632 1190 Pls
2807 1102 Pls
3180 2689 Pls
2722 1070 Pls
3338 435 Pls
2102 539 Pls
3192 4505 Pls
2322 1934 Pls
3954 4287 Pls
3680 1437 Pls
1674 3359 Pls
4664 1712 Pls
4959 2776 Pls
2372 3134 Pls
2750 674 Pls
2903 1466 Pls
2902 2793 Pls
3606 3166 Pls
2180 3412 Pls
5274 2602 Pls
4885 4460 Pls
4179 821 Pls
5663 3585 Pls
3793 2361 Pls
4570 4557 Pls
4837 3328 Pls
4615 2245 Pls
1738 2317 Pls
1719 1194 Pls
2150 1553 Pls
2906 2136 Pls
4057 2892 Pls
1628 407 Pls
2756 892 Pls
4857 774 Pls
4532 2485 Pls
1932 1455 Pls
4344 339 Pls
1738 881 Pls
3738 3392 Pls
2137 1319 Pls
3418 3835 Pls
4602 2240 Pls
2851 3404 Pls
4472 2084 Pls
1655 4463 Pls
5259 2796 Pls
4052 3970 Pls
4240 3893 Pls
5900 1841 Pls
5705 3176 Pls
5364 381 Pls
5669 2452 Pls
1758 4491 Pls
4372 2580 Pls
4581 3592 Pls
4937 743 Pls
4125 2283 Pls
4021 4060 Pls
2385 1237 Pls
2842 1124 Pls
2398 845 Pls
4958 3534 Pls
5854 1942 Pls
4125 4498 Pls
4820 2574 Pls
4372 2929 Pls
3993 2785 Pls
2079 2834 Pls
3974 3535 Pls
5570 4347 Pls
1.000 UL
LTb
1598 4620 N
0 -4340 V
4340 0 V
0 4340 V
-4340 0 V
Z stroke
1.000 UP
1.000 UL
LTb
stroke
grestore
end
showpage
%%Trailer
%%DocumentFonts: Helvetica
