
**** 05/24/17 19:19:28 ************** PSpice Lite (Mar 2000) *****************

 ** Profile: "SCHEMATIC1-AtusshiKondo_con"  [ Q:\aaaaaaaaaaaaaa\atsushikondo_con-SCHEMATIC1-AtusshiKondo_con.sim ] 


 ****     CIRCUIT DESCRIPTION


******************************************************************************




** Creating circuit file "atsushikondo_con-SCHEMATIC1-AtusshiKondo_con.sim.cir" 
** WARNING: THIS AUTOMATICALLY GENERATED FILE MAY BE OVERWRITTEN BY SUBSEQUENT SIMULATIONS

*Libraries: 
* Local Libraries :
* From [PSPICE NETLIST] section of c:\orcadlite\PSpice\PSpice.ini file:
.lib "nom.lib" 

*Analysis directives: 
.TRAN  0 1000ns 0 
.PROBE V(*) I(*) W(*) D(*) NOISE(*) 
.INC ".\atsushikondo_con-SCHEMATIC1.net" 



**** INCLUDING atsushikondo_con-SCHEMATIC1.net ****
* source ATSUSHIKONDO_CON
V_V1         N00109 0 1Vdc
C_C1         0 N00109  1n  

**** RESUMING atsushikondo_con-SCHEMATIC1-AtusshiKondo_con.sim.cir ****
.END

**** 05/24/17 19:19:28 ************** PSpice Lite (Mar 2000) *****************

 ** Profile: "SCHEMATIC1-AtusshiKondo_con"  [ Q:\aaaaaaaaaaaaaa\atsushikondo_con-SCHEMATIC1-AtusshiKondo_con.sim ] 


 ****     INITIAL TRANSIENT SOLUTION       TEMPERATURE =   27.000 DEG C


******************************************************************************



 NODE   VOLTAGE     NODE   VOLTAGE     NODE   VOLTAGE     NODE   VOLTAGE


(N00109)    1.0000 




    VOLTAGE SOURCE CURRENTS
    NAME         CURRENT

    V_V1         0.000E+00

    TOTAL POWER DISSIPATION   0.00E+00  WATTS



          JOB CONCLUDED

          TOTAL JOB TIME             .06
