** Profile: "SCHEMATIC1-kondo13h"  [ Q:\aaaaaaaaaaaaaa\kondo13h-schematic1-kondo13h.sim ] 

** Creating circuit file "kondo13h-schematic1-kondo13h.sim.cir" 
** WARNING: THIS AUTOMATICALLY GENERATED FILE MAY BE OVERWRITTEN BY SUBSEQUENT SIMULATIONS

*Libraries: 
* Local Libraries :
* From [PSPICE NETLIST] section of c:\orcadlite\PSpice\PSpice.ini file:
.lib "nom.lib" 

*Analysis directives: 
.PROBE V(*) I(*) W(*) D(*) NOISE(*) 
.INC ".\kondo13h-SCHEMATIC1.net" 


.END
