** Profile: "SCHEMATIC1-kondo_sabun"  [ Q:\aaaaaaaaaaaaaa\kondo_sabun-schematic1-kondo_sabun.sim ] 

** Creating circuit file "kondo_sabun-schematic1-kondo_sabun.sim.cir" 
** WARNING: THIS AUTOMATICALLY GENERATED FILE MAY BE OVERWRITTEN BY SUBSEQUENT SIMULATIONS

*Libraries: 
* Local Libraries :
* From [PSPICE NETLIST] section of c:\orcadlite\PSpice\PSpice.ini file:
.lib "Q:\OrcadLite\Capture\Library\PSpice\toragi.lib" 
.lib "nom.lib" 

*Analysis directives: 
.AC DEC 10 10 10Meg
.PROBE V(*) I(*) W(*) D(*) NOISE(*) 
.INC ".\kondo_sabun-SCHEMATIC1.net" 


.END
