** Profile: "SCHEMATIC1-kondo_emitta"  [ Q:\aaaaaaaaaaaaaa\kondo_emitta-schematic1-kondo_emitta.sim ] 

** Creating circuit file "kondo_emitta-schematic1-kondo_emitta.sim.cir" 
** WARNING: THIS AUTOMATICALLY GENERATED FILE MAY BE OVERWRITTEN BY SUBSEQUENT SIMULATIONS

*Libraries: 
* Local Libraries :
* From [PSPICE NETLIST] section of c:\orcadlite\PSpice\PSpice.ini file:
.lib "Q:\OrcadLite\Capture\Library\PSpice\toragi.lib" 
.lib "nom.lib" 

*Analysis directives: 
.DC LIN V_V2 0 1 1m 
.PROBE V(*) I(*) W(*) D(*) NOISE(*) 
.INC ".\kondo_emitta-SCHEMATIC1.net" 


.END
